%TF.GenerationSoftware,KiCad,Pcbnew,(5.1.6)-1*%
%TF.CreationDate,2020-11-28T17:25:49-03:00*%
%TF.ProjectId,Carga electr_nica Programable - Fuente,43617267-6120-4656-9c65-637472f36e69,rev?*%
%TF.SameCoordinates,Original*%
%TF.FileFunction,Paste,Bot*%
%TF.FilePolarity,Positive*%
%FSLAX45Y45*%
G04 Gerber Fmt 4.5, Leading zero omitted, Abs format (unit mm)*
G04 Created by KiCad (PCBNEW (5.1.6)-1) date 2020-11-28 17:25:49*
%MOMM*%
%LPD*%
G01*
G04 APERTURE LIST*
%ADD10R,1.500000X0.900000*%
%ADD11R,1.800000X3.500000*%
%ADD12R,3.500000X1.800000*%
G04 APERTURE END LIST*
%TO.C,C3*%
G36*
G01*
X9395000Y-11512500D02*
X9305000Y-11512500D01*
G75*
G02*
X9280000Y-11487500I0J25000D01*
G01*
X9280000Y-11422500D01*
G75*
G02*
X9305000Y-11397500I25000J0D01*
G01*
X9395000Y-11397500D01*
G75*
G02*
X9420000Y-11422500I0J-25000D01*
G01*
X9420000Y-11487500D01*
G75*
G02*
X9395000Y-11512500I-25000J0D01*
G01*
G37*
G36*
G01*
X9395000Y-11307500D02*
X9305000Y-11307500D01*
G75*
G02*
X9280000Y-11282500I0J25000D01*
G01*
X9280000Y-11217500D01*
G75*
G02*
X9305000Y-11192500I25000J0D01*
G01*
X9395000Y-11192500D01*
G75*
G02*
X9420000Y-11217500I0J-25000D01*
G01*
X9420000Y-11282500D01*
G75*
G02*
X9395000Y-11307500I-25000J0D01*
G01*
G37*
%TD*%
%TO.C,C4*%
G36*
G01*
X11445000Y-11010000D02*
X11355000Y-11010000D01*
G75*
G02*
X11330000Y-10985000I0J25000D01*
G01*
X11330000Y-10920000D01*
G75*
G02*
X11355000Y-10895000I25000J0D01*
G01*
X11445000Y-10895000D01*
G75*
G02*
X11470000Y-10920000I0J-25000D01*
G01*
X11470000Y-10985000D01*
G75*
G02*
X11445000Y-11010000I-25000J0D01*
G01*
G37*
G36*
G01*
X11445000Y-10805000D02*
X11355000Y-10805000D01*
G75*
G02*
X11330000Y-10780000I0J25000D01*
G01*
X11330000Y-10715000D01*
G75*
G02*
X11355000Y-10690000I25000J0D01*
G01*
X11445000Y-10690000D01*
G75*
G02*
X11470000Y-10715000I0J-25000D01*
G01*
X11470000Y-10780000D01*
G75*
G02*
X11445000Y-10805000I-25000J0D01*
G01*
G37*
%TD*%
%TO.C,C5*%
G36*
G01*
X9957500Y-9655000D02*
X9957500Y-9745000D01*
G75*
G02*
X9932500Y-9770000I-25000J0D01*
G01*
X9867500Y-9770000D01*
G75*
G02*
X9842500Y-9745000I0J25000D01*
G01*
X9842500Y-9655000D01*
G75*
G02*
X9867500Y-9630000I25000J0D01*
G01*
X9932500Y-9630000D01*
G75*
G02*
X9957500Y-9655000I0J-25000D01*
G01*
G37*
G36*
G01*
X10162500Y-9655000D02*
X10162500Y-9745000D01*
G75*
G02*
X10137500Y-9770000I-25000J0D01*
G01*
X10072500Y-9770000D01*
G75*
G02*
X10047500Y-9745000I0J25000D01*
G01*
X10047500Y-9655000D01*
G75*
G02*
X10072500Y-9630000I25000J0D01*
G01*
X10137500Y-9630000D01*
G75*
G02*
X10162500Y-9655000I0J-25000D01*
G01*
G37*
%TD*%
%TO.C,C6*%
G36*
G01*
X9645000Y-12345000D02*
X9645000Y-12255000D01*
G75*
G02*
X9670000Y-12230000I25000J0D01*
G01*
X9735000Y-12230000D01*
G75*
G02*
X9760000Y-12255000I0J-25000D01*
G01*
X9760000Y-12345000D01*
G75*
G02*
X9735000Y-12370000I-25000J0D01*
G01*
X9670000Y-12370000D01*
G75*
G02*
X9645000Y-12345000I0J25000D01*
G01*
G37*
G36*
G01*
X9440000Y-12345000D02*
X9440000Y-12255000D01*
G75*
G02*
X9465000Y-12230000I25000J0D01*
G01*
X9530000Y-12230000D01*
G75*
G02*
X9555000Y-12255000I0J-25000D01*
G01*
X9555000Y-12345000D01*
G75*
G02*
X9530000Y-12370000I-25000J0D01*
G01*
X9465000Y-12370000D01*
G75*
G02*
X9440000Y-12345000I0J25000D01*
G01*
G37*
%TD*%
%TO.C,C14*%
G36*
G01*
X8935900Y-6991000D02*
X8935900Y-7081000D01*
G75*
G02*
X8910900Y-7106000I-25000J0D01*
G01*
X8845900Y-7106000D01*
G75*
G02*
X8820900Y-7081000I0J25000D01*
G01*
X8820900Y-6991000D01*
G75*
G02*
X8845900Y-6966000I25000J0D01*
G01*
X8910900Y-6966000D01*
G75*
G02*
X8935900Y-6991000I0J-25000D01*
G01*
G37*
G36*
G01*
X9140900Y-6991000D02*
X9140900Y-7081000D01*
G75*
G02*
X9115900Y-7106000I-25000J0D01*
G01*
X9050900Y-7106000D01*
G75*
G02*
X9025900Y-7081000I0J25000D01*
G01*
X9025900Y-6991000D01*
G75*
G02*
X9050900Y-6966000I25000J0D01*
G01*
X9115900Y-6966000D01*
G75*
G02*
X9140900Y-6991000I0J-25000D01*
G01*
G37*
%TD*%
%TO.C,C16*%
G36*
G01*
X8845000Y-4857500D02*
X8755000Y-4857500D01*
G75*
G02*
X8730000Y-4832500I0J25000D01*
G01*
X8730000Y-4767500D01*
G75*
G02*
X8755000Y-4742500I25000J0D01*
G01*
X8845000Y-4742500D01*
G75*
G02*
X8870000Y-4767500I0J-25000D01*
G01*
X8870000Y-4832500D01*
G75*
G02*
X8845000Y-4857500I-25000J0D01*
G01*
G37*
G36*
G01*
X8845000Y-4652500D02*
X8755000Y-4652500D01*
G75*
G02*
X8730000Y-4627500I0J25000D01*
G01*
X8730000Y-4562500D01*
G75*
G02*
X8755000Y-4537500I25000J0D01*
G01*
X8845000Y-4537500D01*
G75*
G02*
X8870000Y-4562500I0J-25000D01*
G01*
X8870000Y-4627500D01*
G75*
G02*
X8845000Y-4652500I-25000J0D01*
G01*
G37*
%TD*%
D10*
%TO.C,D1*%
X8130778Y-11321500D03*
X8130778Y-10911500D03*
X7558778Y-11321500D03*
X7558778Y-10911500D03*
%TD*%
D11*
%TO.C,D2*%
X9750000Y-11500000D03*
X9750000Y-11000000D03*
%TD*%
%TO.C,D3*%
X12222200Y-11499400D03*
X12222200Y-10999400D03*
%TD*%
D12*
%TO.C,D4*%
X10550000Y-12000000D03*
X10050000Y-12000000D03*
%TD*%
%TO.C,D5*%
X10000000Y-10400000D03*
X10500000Y-10400000D03*
%TD*%
D11*
%TO.C,D6*%
X11100000Y-10450000D03*
X11100000Y-9950000D03*
%TD*%
%TO.C,D7*%
X11000000Y-12350000D03*
X11000000Y-12850000D03*
%TD*%
D10*
%TO.C,D8*%
X6981600Y-5711600D03*
X6981600Y-6121600D03*
X7553600Y-5711600D03*
X7553600Y-6121600D03*
%TD*%
D12*
%TO.C,D9*%
X8573600Y-7899600D03*
X9073600Y-7899600D03*
%TD*%
%TO.C,D10*%
X7900000Y-4800000D03*
X8400000Y-4800000D03*
%TD*%
%TO.C,R1*%
G36*
G01*
X10455000Y-9255000D02*
X10455000Y-9345000D01*
G75*
G02*
X10430000Y-9370000I-25000J0D01*
G01*
X10365000Y-9370000D01*
G75*
G02*
X10340000Y-9345000I0J25000D01*
G01*
X10340000Y-9255000D01*
G75*
G02*
X10365000Y-9230000I25000J0D01*
G01*
X10430000Y-9230000D01*
G75*
G02*
X10455000Y-9255000I0J-25000D01*
G01*
G37*
G36*
G01*
X10660000Y-9255000D02*
X10660000Y-9345000D01*
G75*
G02*
X10635000Y-9370000I-25000J0D01*
G01*
X10570000Y-9370000D01*
G75*
G02*
X10545000Y-9345000I0J25000D01*
G01*
X10545000Y-9255000D01*
G75*
G02*
X10570000Y-9230000I25000J0D01*
G01*
X10635000Y-9230000D01*
G75*
G02*
X10660000Y-9255000I0J-25000D01*
G01*
G37*
%TD*%
%TO.C,R2*%
G36*
G01*
X10460000Y-13055000D02*
X10460000Y-13145000D01*
G75*
G02*
X10435000Y-13170000I-25000J0D01*
G01*
X10370000Y-13170000D01*
G75*
G02*
X10345000Y-13145000I0J25000D01*
G01*
X10345000Y-13055000D01*
G75*
G02*
X10370000Y-13030000I25000J0D01*
G01*
X10435000Y-13030000D01*
G75*
G02*
X10460000Y-13055000I0J-25000D01*
G01*
G37*
G36*
G01*
X10255000Y-13055000D02*
X10255000Y-13145000D01*
G75*
G02*
X10230000Y-13170000I-25000J0D01*
G01*
X10165000Y-13170000D01*
G75*
G02*
X10140000Y-13145000I0J25000D01*
G01*
X10140000Y-13055000D01*
G75*
G02*
X10165000Y-13030000I25000J0D01*
G01*
X10230000Y-13030000D01*
G75*
G02*
X10255000Y-13055000I0J-25000D01*
G01*
G37*
%TD*%
%TO.C,R3*%
G36*
G01*
X10340000Y-9645000D02*
X10340000Y-9555000D01*
G75*
G02*
X10365000Y-9530000I25000J0D01*
G01*
X10430000Y-9530000D01*
G75*
G02*
X10455000Y-9555000I0J-25000D01*
G01*
X10455000Y-9645000D01*
G75*
G02*
X10430000Y-9670000I-25000J0D01*
G01*
X10365000Y-9670000D01*
G75*
G02*
X10340000Y-9645000I0J25000D01*
G01*
G37*
G36*
G01*
X10545000Y-9645000D02*
X10545000Y-9555000D01*
G75*
G02*
X10570000Y-9530000I25000J0D01*
G01*
X10635000Y-9530000D01*
G75*
G02*
X10660000Y-9555000I0J-25000D01*
G01*
X10660000Y-9645000D01*
G75*
G02*
X10635000Y-9670000I-25000J0D01*
G01*
X10570000Y-9670000D01*
G75*
G02*
X10545000Y-9645000I0J25000D01*
G01*
G37*
%TD*%
%TO.C,R4*%
G36*
G01*
X10255000Y-12755000D02*
X10255000Y-12845000D01*
G75*
G02*
X10230000Y-12870000I-25000J0D01*
G01*
X10165000Y-12870000D01*
G75*
G02*
X10140000Y-12845000I0J25000D01*
G01*
X10140000Y-12755000D01*
G75*
G02*
X10165000Y-12730000I25000J0D01*
G01*
X10230000Y-12730000D01*
G75*
G02*
X10255000Y-12755000I0J-25000D01*
G01*
G37*
G36*
G01*
X10460000Y-12755000D02*
X10460000Y-12845000D01*
G75*
G02*
X10435000Y-12870000I-25000J0D01*
G01*
X10370000Y-12870000D01*
G75*
G02*
X10345000Y-12845000I0J25000D01*
G01*
X10345000Y-12755000D01*
G75*
G02*
X10370000Y-12730000I25000J0D01*
G01*
X10435000Y-12730000D01*
G75*
G02*
X10460000Y-12755000I0J-25000D01*
G01*
G37*
%TD*%
M02*
