%TF.GenerationSoftware,KiCad,Pcbnew,(5.1.6)-1*%
%TF.CreationDate,2020-11-28T17:25:49-03:00*%
%TF.ProjectId,Carga electr_nica Programable - Fuente,43617267-6120-4656-9c65-637472f36e69,rev?*%
%TF.SameCoordinates,Original*%
%TF.FileFunction,Legend,Bot*%
%TF.FilePolarity,Positive*%
%FSLAX45Y45*%
G04 Gerber Fmt 4.5, Leading zero omitted, Abs format (unit mm)*
G04 Created by KiCad (PCBNEW (5.1.6)-1) date 2020-11-28 17:25:49*
%MOMM*%
%LPD*%
G01*
G04 APERTURE LIST*
%ADD10C,0.120000*%
%ADD11C,0.150000*%
G04 APERTURE END LIST*
D10*
%TO.C,C3*%
X9421000Y-11378625D02*
X9421000Y-11326375D01*
X9279000Y-11378625D02*
X9279000Y-11326375D01*
%TO.C,C4*%
X11471000Y-10876125D02*
X11471000Y-10823875D01*
X11329000Y-10876125D02*
X11329000Y-10823875D01*
%TO.C,C5*%
X10028625Y-9771000D02*
X9976375Y-9771000D01*
X10028625Y-9629000D02*
X9976375Y-9629000D01*
%TO.C,C6*%
X9573875Y-12229000D02*
X9626125Y-12229000D01*
X9573875Y-12371000D02*
X9626125Y-12371000D01*
%TO.C,C14*%
X9007025Y-7107000D02*
X8954775Y-7107000D01*
X9007025Y-6965000D02*
X8954775Y-6965000D01*
%TO.C,C16*%
X8871000Y-4723625D02*
X8871000Y-4671375D01*
X8729000Y-4723625D02*
X8729000Y-4671375D01*
%TO.C,D1*%
X7430778Y-10821500D02*
X7430778Y-11421500D01*
X7430778Y-11421500D02*
X8230778Y-11421500D01*
X8230778Y-10821500D02*
X7430778Y-10821500D01*
X8230778Y-11221500D02*
X8230778Y-11421500D01*
X8230778Y-11021500D02*
X8230778Y-10821500D01*
X7730778Y-11121500D02*
G75*
G03*
X7730778Y-11121500I-100000J0D01*
G01*
X8230778Y-11021500D02*
G75*
G03*
X8230778Y-11221500I0J-100000D01*
G01*
%TO.C,D2*%
X9915000Y-11690000D02*
X9585000Y-11690000D01*
X9585000Y-11690000D02*
X9585000Y-11000000D01*
X9915000Y-11690000D02*
X9915000Y-11000000D01*
%TO.C,D3*%
X12057200Y-10809400D02*
X12057200Y-11499400D01*
X12387200Y-10809400D02*
X12387200Y-11499400D01*
X12057200Y-10809400D02*
X12387200Y-10809400D01*
%TO.C,D4*%
X10740000Y-11835000D02*
X10740000Y-12165000D01*
X10740000Y-12165000D02*
X10050000Y-12165000D01*
X10740000Y-11835000D02*
X10050000Y-11835000D01*
%TO.C,D5*%
X9810000Y-10565000D02*
X9810000Y-10235000D01*
X9810000Y-10235000D02*
X10500000Y-10235000D01*
X9810000Y-10565000D02*
X10500000Y-10565000D01*
%TO.C,D6*%
X11265000Y-10640000D02*
X10935000Y-10640000D01*
X10935000Y-10640000D02*
X10935000Y-9950000D01*
X11265000Y-10640000D02*
X11265000Y-9950000D01*
%TO.C,D7*%
X11165000Y-13040000D02*
X11165000Y-12350000D01*
X10835000Y-13040000D02*
X10835000Y-12350000D01*
X11165000Y-13040000D02*
X10835000Y-13040000D01*
%TO.C,D8*%
X7153600Y-5921600D02*
G75*
G03*
X7153600Y-5921600I-100000J0D01*
G01*
X7653600Y-5821600D02*
X7653600Y-5621600D01*
X7653600Y-6021600D02*
X7653600Y-6221600D01*
X7653600Y-5621600D02*
X6853600Y-5621600D01*
X6853600Y-6221600D02*
X7653600Y-6221600D01*
X6853600Y-5621600D02*
X6853600Y-6221600D01*
X7653600Y-5821600D02*
G75*
G03*
X7653600Y-6021600I0J-100000D01*
G01*
%TO.C,D9*%
X9263600Y-7734600D02*
X8573600Y-7734600D01*
X9263600Y-8064600D02*
X8573600Y-8064600D01*
X9263600Y-7734600D02*
X9263600Y-8064600D01*
%TO.C,D10*%
X8590000Y-4635000D02*
X7900000Y-4635000D01*
X8590000Y-4965000D02*
X7900000Y-4965000D01*
X8590000Y-4635000D02*
X8590000Y-4965000D01*
%TO.C,R1*%
X10526125Y-9371000D02*
X10473875Y-9371000D01*
X10526125Y-9229000D02*
X10473875Y-9229000D01*
%TO.C,R2*%
X10326125Y-13029000D02*
X10273875Y-13029000D01*
X10326125Y-13171000D02*
X10273875Y-13171000D01*
%TO.C,R3*%
X10473875Y-9671000D02*
X10526125Y-9671000D01*
X10473875Y-9529000D02*
X10526125Y-9529000D01*
%TO.C,R4*%
X10326125Y-12871000D02*
X10273875Y-12871000D01*
X10326125Y-12729000D02*
X10273875Y-12729000D01*
%TO.C,C3*%
D11*
X9566667Y-11385714D02*
X9571429Y-11390476D01*
X9585714Y-11395238D01*
X9595238Y-11395238D01*
X9609524Y-11390476D01*
X9619048Y-11380952D01*
X9623810Y-11371428D01*
X9628571Y-11352381D01*
X9628571Y-11338095D01*
X9623810Y-11319048D01*
X9619048Y-11309524D01*
X9609524Y-11300000D01*
X9595238Y-11295238D01*
X9585714Y-11295238D01*
X9571429Y-11300000D01*
X9566667Y-11304762D01*
X9533333Y-11295238D02*
X9471429Y-11295238D01*
X9504762Y-11333333D01*
X9490476Y-11333333D01*
X9480952Y-11338095D01*
X9476190Y-11342857D01*
X9471429Y-11352381D01*
X9471429Y-11376190D01*
X9476190Y-11385714D01*
X9480952Y-11390476D01*
X9490476Y-11395238D01*
X9519048Y-11395238D01*
X9528571Y-11390476D01*
X9533333Y-11385714D01*
%TO.C,C4*%
X11600714Y-10833333D02*
X11605476Y-10828571D01*
X11610238Y-10814286D01*
X11610238Y-10804762D01*
X11605476Y-10790476D01*
X11595952Y-10780952D01*
X11586428Y-10776190D01*
X11567381Y-10771429D01*
X11553095Y-10771429D01*
X11534048Y-10776190D01*
X11524524Y-10780952D01*
X11515000Y-10790476D01*
X11510238Y-10804762D01*
X11510238Y-10814286D01*
X11515000Y-10828571D01*
X11519762Y-10833333D01*
X11543571Y-10919048D02*
X11610238Y-10919048D01*
X11505476Y-10895238D02*
X11576905Y-10871429D01*
X11576905Y-10933333D01*
%TO.C,C5*%
X10019167Y-9570714D02*
X10023929Y-9575476D01*
X10038214Y-9580238D01*
X10047738Y-9580238D01*
X10062024Y-9575476D01*
X10071548Y-9565952D01*
X10076310Y-9556429D01*
X10081071Y-9537381D01*
X10081071Y-9523095D01*
X10076310Y-9504048D01*
X10071548Y-9494524D01*
X10062024Y-9485000D01*
X10047738Y-9480238D01*
X10038214Y-9480238D01*
X10023929Y-9485000D01*
X10019167Y-9489762D01*
X9928690Y-9480238D02*
X9976310Y-9480238D01*
X9981071Y-9527857D01*
X9976310Y-9523095D01*
X9966786Y-9518333D01*
X9942976Y-9518333D01*
X9933452Y-9523095D01*
X9928690Y-9527857D01*
X9923929Y-9537381D01*
X9923929Y-9561190D01*
X9928690Y-9570714D01*
X9933452Y-9575476D01*
X9942976Y-9580238D01*
X9966786Y-9580238D01*
X9976310Y-9575476D01*
X9981071Y-9570714D01*
%TO.C,C6*%
X9616667Y-12500714D02*
X9621429Y-12505476D01*
X9635714Y-12510238D01*
X9645238Y-12510238D01*
X9659524Y-12505476D01*
X9669048Y-12495952D01*
X9673810Y-12486428D01*
X9678571Y-12467381D01*
X9678571Y-12453095D01*
X9673810Y-12434048D01*
X9669048Y-12424524D01*
X9659524Y-12415000D01*
X9645238Y-12410238D01*
X9635714Y-12410238D01*
X9621429Y-12415000D01*
X9616667Y-12419762D01*
X9530952Y-12410238D02*
X9550000Y-12410238D01*
X9559524Y-12415000D01*
X9564286Y-12419762D01*
X9573810Y-12434048D01*
X9578571Y-12453095D01*
X9578571Y-12491190D01*
X9573810Y-12500714D01*
X9569048Y-12505476D01*
X9559524Y-12510238D01*
X9540476Y-12510238D01*
X9530952Y-12505476D01*
X9526190Y-12500714D01*
X9521429Y-12491190D01*
X9521429Y-12467381D01*
X9526190Y-12457857D01*
X9530952Y-12453095D01*
X9540476Y-12448333D01*
X9559524Y-12448333D01*
X9569048Y-12453095D01*
X9573810Y-12457857D01*
X9578571Y-12467381D01*
%TO.C,C14*%
X9045186Y-6906714D02*
X9049948Y-6911476D01*
X9064233Y-6916238D01*
X9073757Y-6916238D01*
X9088043Y-6911476D01*
X9097567Y-6901952D01*
X9102329Y-6892428D01*
X9107090Y-6873381D01*
X9107090Y-6859095D01*
X9102329Y-6840048D01*
X9097567Y-6830524D01*
X9088043Y-6821000D01*
X9073757Y-6816238D01*
X9064233Y-6816238D01*
X9049948Y-6821000D01*
X9045186Y-6825762D01*
X8949948Y-6916238D02*
X9007090Y-6916238D01*
X8978519Y-6916238D02*
X8978519Y-6816238D01*
X8988043Y-6830524D01*
X8997567Y-6840048D01*
X9007090Y-6844809D01*
X8864233Y-6849571D02*
X8864233Y-6916238D01*
X8888043Y-6811476D02*
X8911852Y-6882905D01*
X8849948Y-6882905D01*
%TO.C,C16*%
X9114286Y-4735714D02*
X9119048Y-4740476D01*
X9133333Y-4745238D01*
X9142857Y-4745238D01*
X9157143Y-4740476D01*
X9166667Y-4730952D01*
X9171429Y-4721429D01*
X9176190Y-4702381D01*
X9176190Y-4688095D01*
X9171429Y-4669048D01*
X9166667Y-4659524D01*
X9157143Y-4650000D01*
X9142857Y-4645238D01*
X9133333Y-4645238D01*
X9119048Y-4650000D01*
X9114286Y-4654762D01*
X9019048Y-4745238D02*
X9076190Y-4745238D01*
X9047619Y-4745238D02*
X9047619Y-4645238D01*
X9057143Y-4659524D01*
X9066667Y-4669048D01*
X9076190Y-4673810D01*
X8933333Y-4645238D02*
X8952381Y-4645238D01*
X8961905Y-4650000D01*
X8966667Y-4654762D01*
X8976190Y-4669048D01*
X8980952Y-4688095D01*
X8980952Y-4726190D01*
X8976190Y-4735714D01*
X8971429Y-4740476D01*
X8961905Y-4745238D01*
X8942857Y-4745238D01*
X8933333Y-4740476D01*
X8928571Y-4735714D01*
X8923810Y-4726190D01*
X8923810Y-4702381D01*
X8928571Y-4692857D01*
X8933333Y-4688095D01*
X8942857Y-4683333D01*
X8961905Y-4683333D01*
X8971429Y-4688095D01*
X8976190Y-4692857D01*
X8980952Y-4702381D01*
%TO.C,D1*%
X7881443Y-10773038D02*
X7881443Y-10673038D01*
X7857634Y-10673038D01*
X7843348Y-10677800D01*
X7833824Y-10687324D01*
X7829062Y-10696848D01*
X7824301Y-10715895D01*
X7824301Y-10730181D01*
X7829062Y-10749229D01*
X7833824Y-10758752D01*
X7843348Y-10768276D01*
X7857634Y-10773038D01*
X7881443Y-10773038D01*
X7729062Y-10773038D02*
X7786205Y-10773038D01*
X7757634Y-10773038D02*
X7757634Y-10673038D01*
X7767158Y-10687324D01*
X7776682Y-10696848D01*
X7786205Y-10701610D01*
X7948921Y-10909405D02*
X7948921Y-10985595D01*
X7987016Y-10947500D02*
X7910826Y-10947500D01*
X7943921Y-11261405D02*
X7943921Y-11337595D01*
X7661610Y-11161976D02*
X7652681Y-11166738D01*
X7633634Y-11166738D01*
X7623515Y-11161976D01*
X7617562Y-11152452D01*
X7616967Y-11147690D01*
X7620538Y-11138167D01*
X7629467Y-11133405D01*
X7643753Y-11133405D01*
X7652681Y-11128643D01*
X7656253Y-11119119D01*
X7655657Y-11114357D01*
X7649705Y-11104833D01*
X7639586Y-11100071D01*
X7625300Y-11100071D01*
X7616372Y-11104833D01*
%TO.C,D2*%
X9523810Y-11295238D02*
X9523810Y-11195238D01*
X9500000Y-11195238D01*
X9485714Y-11200000D01*
X9476190Y-11209524D01*
X9471429Y-11219048D01*
X9466667Y-11238095D01*
X9466667Y-11252381D01*
X9471429Y-11271428D01*
X9476190Y-11280952D01*
X9485714Y-11290476D01*
X9500000Y-11295238D01*
X9523810Y-11295238D01*
X9428571Y-11204762D02*
X9423810Y-11200000D01*
X9414286Y-11195238D01*
X9390476Y-11195238D01*
X9380952Y-11200000D01*
X9376190Y-11204762D01*
X9371429Y-11214286D01*
X9371429Y-11223809D01*
X9376190Y-11238095D01*
X9433333Y-11295238D01*
X9371429Y-11295238D01*
%TO.C,D3*%
X12496038Y-11196990D02*
X12396038Y-11196990D01*
X12396038Y-11220800D01*
X12400800Y-11235086D01*
X12410324Y-11244609D01*
X12419848Y-11249371D01*
X12438895Y-11254133D01*
X12453181Y-11254133D01*
X12472228Y-11249371D01*
X12481752Y-11244609D01*
X12491276Y-11235086D01*
X12496038Y-11220800D01*
X12496038Y-11196990D01*
X12396038Y-11287467D02*
X12396038Y-11349371D01*
X12434133Y-11316038D01*
X12434133Y-11330324D01*
X12438895Y-11339848D01*
X12443657Y-11344609D01*
X12453181Y-11349371D01*
X12476990Y-11349371D01*
X12486514Y-11344609D01*
X12491276Y-11339848D01*
X12496038Y-11330324D01*
X12496038Y-11301752D01*
X12491276Y-11292228D01*
X12486514Y-11287467D01*
%TO.C,D4*%
X10423810Y-11795238D02*
X10423810Y-11695238D01*
X10400000Y-11695238D01*
X10385714Y-11700000D01*
X10376190Y-11709524D01*
X10371429Y-11719048D01*
X10366667Y-11738095D01*
X10366667Y-11752381D01*
X10371429Y-11771428D01*
X10376190Y-11780952D01*
X10385714Y-11790476D01*
X10400000Y-11795238D01*
X10423810Y-11795238D01*
X10280952Y-11728571D02*
X10280952Y-11795238D01*
X10304762Y-11690476D02*
X10328571Y-11761905D01*
X10266667Y-11761905D01*
%TO.C,D5*%
X10323810Y-10695238D02*
X10323810Y-10595238D01*
X10300000Y-10595238D01*
X10285714Y-10600000D01*
X10276190Y-10609524D01*
X10271429Y-10619048D01*
X10266667Y-10638095D01*
X10266667Y-10652381D01*
X10271429Y-10671429D01*
X10276190Y-10680952D01*
X10285714Y-10690476D01*
X10300000Y-10695238D01*
X10323810Y-10695238D01*
X10176190Y-10595238D02*
X10223810Y-10595238D01*
X10228571Y-10642857D01*
X10223810Y-10638095D01*
X10214286Y-10633333D01*
X10190476Y-10633333D01*
X10180952Y-10638095D01*
X10176190Y-10642857D01*
X10171429Y-10652381D01*
X10171429Y-10676190D01*
X10176190Y-10685714D01*
X10180952Y-10690476D01*
X10190476Y-10695238D01*
X10214286Y-10695238D01*
X10223810Y-10690476D01*
X10228571Y-10685714D01*
%TO.C,D6*%
X11395238Y-10126190D02*
X11295238Y-10126190D01*
X11295238Y-10150000D01*
X11300000Y-10164286D01*
X11309524Y-10173810D01*
X11319048Y-10178571D01*
X11338095Y-10183333D01*
X11352381Y-10183333D01*
X11371428Y-10178571D01*
X11380952Y-10173810D01*
X11390476Y-10164286D01*
X11395238Y-10150000D01*
X11395238Y-10126190D01*
X11295238Y-10269048D02*
X11295238Y-10250000D01*
X11300000Y-10240476D01*
X11304762Y-10235714D01*
X11319048Y-10226190D01*
X11338095Y-10221429D01*
X11376190Y-10221429D01*
X11385714Y-10226190D01*
X11390476Y-10230952D01*
X11395238Y-10240476D01*
X11395238Y-10259524D01*
X11390476Y-10269048D01*
X11385714Y-10273810D01*
X11376190Y-10278571D01*
X11352381Y-10278571D01*
X11342857Y-10273810D01*
X11338095Y-10269048D01*
X11333333Y-10259524D01*
X11333333Y-10240476D01*
X11338095Y-10230952D01*
X11342857Y-10226190D01*
X11352381Y-10221429D01*
%TO.C,D7*%
X11423809Y-12645238D02*
X11423809Y-12545238D01*
X11400000Y-12545238D01*
X11385714Y-12550000D01*
X11376190Y-12559524D01*
X11371428Y-12569048D01*
X11366667Y-12588095D01*
X11366667Y-12602381D01*
X11371428Y-12621428D01*
X11376190Y-12630952D01*
X11385714Y-12640476D01*
X11400000Y-12645238D01*
X11423809Y-12645238D01*
X11333333Y-12545238D02*
X11266667Y-12545238D01*
X11309524Y-12645238D01*
%TO.C,D8*%
X7423809Y-5595238D02*
X7423809Y-5495238D01*
X7400000Y-5495238D01*
X7385714Y-5500000D01*
X7376190Y-5509524D01*
X7371428Y-5519048D01*
X7366667Y-5538095D01*
X7366667Y-5552381D01*
X7371428Y-5571429D01*
X7376190Y-5580952D01*
X7385714Y-5590476D01*
X7400000Y-5595238D01*
X7423809Y-5595238D01*
X7309524Y-5538095D02*
X7319048Y-5533333D01*
X7323809Y-5528571D01*
X7328571Y-5519048D01*
X7328571Y-5514286D01*
X7323809Y-5504762D01*
X7319048Y-5500000D01*
X7309524Y-5495238D01*
X7290476Y-5495238D01*
X7280952Y-5500000D01*
X7276190Y-5504762D01*
X7271428Y-5514286D01*
X7271428Y-5519048D01*
X7276190Y-5528571D01*
X7280952Y-5533333D01*
X7290476Y-5538095D01*
X7309524Y-5538095D01*
X7319048Y-5542857D01*
X7323809Y-5547619D01*
X7328571Y-5557143D01*
X7328571Y-5576190D01*
X7323809Y-5585714D01*
X7319048Y-5590476D01*
X7309524Y-5595238D01*
X7290476Y-5595238D01*
X7280952Y-5590476D01*
X7276190Y-5585714D01*
X7271428Y-5576190D01*
X7271428Y-5557143D01*
X7276190Y-5547619D01*
X7280952Y-5542857D01*
X7290476Y-5538095D01*
X7084432Y-5962076D02*
X7075503Y-5966838D01*
X7056456Y-5966838D01*
X7046337Y-5962076D01*
X7040384Y-5952552D01*
X7039789Y-5947790D01*
X7043360Y-5938267D01*
X7052289Y-5933505D01*
X7066575Y-5933505D01*
X7075503Y-5928743D01*
X7079075Y-5919219D01*
X7078479Y-5914457D01*
X7072527Y-5904933D01*
X7062408Y-5900171D01*
X7048122Y-5900171D01*
X7039194Y-5904933D01*
X7366743Y-6061505D02*
X7366743Y-6137695D01*
X7371743Y-5709505D02*
X7371743Y-5785695D01*
X7409838Y-5747600D02*
X7333648Y-5747600D01*
%TO.C,D9*%
X8923810Y-8195238D02*
X8923810Y-8095238D01*
X8900000Y-8095238D01*
X8885714Y-8100000D01*
X8876190Y-8109524D01*
X8871429Y-8119048D01*
X8866667Y-8138095D01*
X8866667Y-8152381D01*
X8871429Y-8171428D01*
X8876190Y-8180952D01*
X8885714Y-8190476D01*
X8900000Y-8195238D01*
X8923810Y-8195238D01*
X8819048Y-8195238D02*
X8800000Y-8195238D01*
X8790476Y-8190476D01*
X8785714Y-8185714D01*
X8776190Y-8171428D01*
X8771429Y-8152381D01*
X8771429Y-8114286D01*
X8776190Y-8104762D01*
X8780952Y-8100000D01*
X8790476Y-8095238D01*
X8809524Y-8095238D01*
X8819048Y-8100000D01*
X8823810Y-8104762D01*
X8828571Y-8114286D01*
X8828571Y-8138095D01*
X8823810Y-8147619D01*
X8819048Y-8152381D01*
X8809524Y-8157143D01*
X8790476Y-8157143D01*
X8780952Y-8152381D01*
X8776190Y-8147619D01*
X8771429Y-8138095D01*
%TO.C,D10*%
X8271428Y-4595238D02*
X8271428Y-4495238D01*
X8247619Y-4495238D01*
X8233333Y-4500000D01*
X8223809Y-4509524D01*
X8219048Y-4519048D01*
X8214286Y-4538095D01*
X8214286Y-4552381D01*
X8219048Y-4571429D01*
X8223809Y-4580952D01*
X8233333Y-4590476D01*
X8247619Y-4595238D01*
X8271428Y-4595238D01*
X8119048Y-4595238D02*
X8176190Y-4595238D01*
X8147619Y-4595238D02*
X8147619Y-4495238D01*
X8157143Y-4509524D01*
X8166667Y-4519048D01*
X8176190Y-4523810D01*
X8057143Y-4495238D02*
X8047619Y-4495238D01*
X8038095Y-4500000D01*
X8033333Y-4504762D01*
X8028571Y-4514286D01*
X8023809Y-4533333D01*
X8023809Y-4557143D01*
X8028571Y-4576190D01*
X8033333Y-4585714D01*
X8038095Y-4590476D01*
X8047619Y-4595238D01*
X8057143Y-4595238D01*
X8066667Y-4590476D01*
X8071428Y-4585714D01*
X8076190Y-4576190D01*
X8080952Y-4557143D01*
X8080952Y-4533333D01*
X8076190Y-4514286D01*
X8071428Y-4504762D01*
X8066667Y-4500000D01*
X8057143Y-4495238D01*
%TO.C,R1*%
X10216667Y-9345238D02*
X10250000Y-9297619D01*
X10273810Y-9345238D02*
X10273810Y-9245238D01*
X10235714Y-9245238D01*
X10226190Y-9250000D01*
X10221429Y-9254762D01*
X10216667Y-9264286D01*
X10216667Y-9278571D01*
X10221429Y-9288095D01*
X10226190Y-9292857D01*
X10235714Y-9297619D01*
X10273810Y-9297619D01*
X10121429Y-9345238D02*
X10178571Y-9345238D01*
X10150000Y-9345238D02*
X10150000Y-9245238D01*
X10159524Y-9259524D01*
X10169048Y-9269048D01*
X10178571Y-9273810D01*
%TO.C,R2*%
X10616667Y-13145238D02*
X10650000Y-13097619D01*
X10673810Y-13145238D02*
X10673810Y-13045238D01*
X10635714Y-13045238D01*
X10626190Y-13050000D01*
X10621429Y-13054762D01*
X10616667Y-13064286D01*
X10616667Y-13078571D01*
X10621429Y-13088095D01*
X10626190Y-13092857D01*
X10635714Y-13097619D01*
X10673810Y-13097619D01*
X10578571Y-13054762D02*
X10573810Y-13050000D01*
X10564286Y-13045238D01*
X10540476Y-13045238D01*
X10530952Y-13050000D01*
X10526190Y-13054762D01*
X10521429Y-13064286D01*
X10521429Y-13073809D01*
X10526190Y-13088095D01*
X10583333Y-13145238D01*
X10521429Y-13145238D01*
%TO.C,R3*%
X10516667Y-9810238D02*
X10550000Y-9762619D01*
X10573810Y-9810238D02*
X10573810Y-9710238D01*
X10535714Y-9710238D01*
X10526190Y-9715000D01*
X10521429Y-9719762D01*
X10516667Y-9729286D01*
X10516667Y-9743571D01*
X10521429Y-9753095D01*
X10526190Y-9757857D01*
X10535714Y-9762619D01*
X10573810Y-9762619D01*
X10483333Y-9710238D02*
X10421429Y-9710238D01*
X10454762Y-9748333D01*
X10440476Y-9748333D01*
X10430952Y-9753095D01*
X10426190Y-9757857D01*
X10421429Y-9767381D01*
X10421429Y-9791190D01*
X10426190Y-9800714D01*
X10430952Y-9805476D01*
X10440476Y-9810238D01*
X10469048Y-9810238D01*
X10478571Y-9805476D01*
X10483333Y-9800714D01*
%TO.C,R4*%
X10616667Y-12845238D02*
X10650000Y-12797619D01*
X10673810Y-12845238D02*
X10673810Y-12745238D01*
X10635714Y-12745238D01*
X10626190Y-12750000D01*
X10621429Y-12754762D01*
X10616667Y-12764286D01*
X10616667Y-12778571D01*
X10621429Y-12788095D01*
X10626190Y-12792857D01*
X10635714Y-12797619D01*
X10673810Y-12797619D01*
X10530952Y-12778571D02*
X10530952Y-12845238D01*
X10554762Y-12740476D02*
X10578571Y-12811905D01*
X10516667Y-12811905D01*
%TD*%
M02*
