%TF.GenerationSoftware,KiCad,Pcbnew,(5.1.6)-1*%
%TF.CreationDate,2020-12-15T17:56:54-03:00*%
%TF.ProjectId,CargaElecctr_nocaProgramable_Panel_E2,43617267-6145-46c6-9563-637472f36e6f,rev?*%
%TF.SameCoordinates,Original*%
%TF.FileFunction,Legend,Bot*%
%TF.FilePolarity,Positive*%
%FSLAX46Y46*%
G04 Gerber Fmt 4.6, Leading zero omitted, Abs format (unit mm)*
G04 Created by KiCad (PCBNEW (5.1.6)-1) date 2020-12-15 17:56:54*
%MOMM*%
%LPD*%
G01*
G04 APERTURE LIST*
%ADD10C,0.150000*%
%ADD11C,0.120000*%
%ADD12C,0.300000*%
%ADD13C,0.152400*%
%ADD14C,0.200000*%
%ADD15C,0.254000*%
G04 APERTURE END LIST*
D10*
X114619047Y-125952380D02*
X114619047Y-126666666D01*
X114666666Y-126809523D01*
X114761904Y-126904761D01*
X114904761Y-126952380D01*
X115000000Y-126952380D01*
X113666666Y-126952380D02*
X114142857Y-126952380D01*
X114142857Y-125952380D01*
X112761904Y-126857142D02*
X112809523Y-126904761D01*
X112952380Y-126952380D01*
X113047619Y-126952380D01*
X113190476Y-126904761D01*
X113285714Y-126809523D01*
X113333333Y-126714285D01*
X113380952Y-126523809D01*
X113380952Y-126380952D01*
X113333333Y-126190476D01*
X113285714Y-126095238D01*
X113190476Y-126000000D01*
X113047619Y-125952380D01*
X112952380Y-125952380D01*
X112809523Y-126000000D01*
X112761904Y-126047619D01*
X112047619Y-125952380D02*
X112047619Y-126666666D01*
X112095238Y-126809523D01*
X112190476Y-126904761D01*
X112333333Y-126952380D01*
X112428571Y-126952380D01*
X111095238Y-126952380D02*
X111571428Y-126952380D01*
X111571428Y-125952380D01*
X110190476Y-126857142D02*
X110238095Y-126904761D01*
X110380952Y-126952380D01*
X110476190Y-126952380D01*
X110619047Y-126904761D01*
X110714285Y-126809523D01*
X110761904Y-126714285D01*
X110809523Y-126523809D01*
X110809523Y-126380952D01*
X110761904Y-126190476D01*
X110714285Y-126095238D01*
X110619047Y-126000000D01*
X110476190Y-125952380D01*
X110380952Y-125952380D01*
X110238095Y-126000000D01*
X110190476Y-126047619D01*
X109476190Y-125952380D02*
X109476190Y-126666666D01*
X109523809Y-126809523D01*
X109619047Y-126904761D01*
X109761904Y-126952380D01*
X109857142Y-126952380D01*
X108523809Y-126952380D02*
X109000000Y-126952380D01*
X109000000Y-125952380D01*
X107619047Y-126857142D02*
X107666666Y-126904761D01*
X107809523Y-126952380D01*
X107904761Y-126952380D01*
X108047619Y-126904761D01*
X108142857Y-126809523D01*
X108190476Y-126714285D01*
X108238095Y-126523809D01*
X108238095Y-126380952D01*
X108190476Y-126190476D01*
X108142857Y-126095238D01*
X108047619Y-126000000D01*
X107904761Y-125952380D01*
X107809523Y-125952380D01*
X107666666Y-126000000D01*
X107619047Y-126047619D01*
X106904761Y-125952380D02*
X106904761Y-126666666D01*
X106952380Y-126809523D01*
X107047619Y-126904761D01*
X107190476Y-126952380D01*
X107285714Y-126952380D01*
X105952380Y-126952380D02*
X106428571Y-126952380D01*
X106428571Y-125952380D01*
X105047619Y-126857142D02*
X105095238Y-126904761D01*
X105238095Y-126952380D01*
X105333333Y-126952380D01*
X105476190Y-126904761D01*
X105571428Y-126809523D01*
X105619047Y-126714285D01*
X105666666Y-126523809D01*
X105666666Y-126380952D01*
X105619047Y-126190476D01*
X105571428Y-126095238D01*
X105476190Y-126000000D01*
X105333333Y-125952380D01*
X105238095Y-125952380D01*
X105095238Y-126000000D01*
X105047619Y-126047619D01*
D11*
X64000000Y-136500000D02*
X66000000Y-136500000D01*
X64000000Y-124500000D02*
X64000000Y-136500000D01*
X87000000Y-124500000D02*
X64000000Y-124500000D01*
X87000000Y-136500000D02*
X87000000Y-124500000D01*
D10*
X76712023Y-125097619D02*
X76664404Y-125050000D01*
X76569166Y-125002380D01*
X76331071Y-125002380D01*
X76235833Y-125050000D01*
X76188214Y-125097619D01*
X76140595Y-125192857D01*
X76140595Y-125288095D01*
X76188214Y-125430952D01*
X76759642Y-126002380D01*
X76140595Y-126002380D01*
X74950119Y-125621428D02*
X74188214Y-125621428D01*
X73140595Y-125907142D02*
X73188214Y-125954761D01*
X73331071Y-126002380D01*
X73426309Y-126002380D01*
X73569166Y-125954761D01*
X73664404Y-125859523D01*
X73712023Y-125764285D01*
X73759642Y-125573809D01*
X73759642Y-125430952D01*
X73712023Y-125240476D01*
X73664404Y-125145238D01*
X73569166Y-125050000D01*
X73426309Y-125002380D01*
X73331071Y-125002380D01*
X73188214Y-125050000D01*
X73140595Y-125097619D01*
X72521547Y-125002380D02*
X72331071Y-125002380D01*
X72235833Y-125050000D01*
X72140595Y-125145238D01*
X72092976Y-125335714D01*
X72092976Y-125669047D01*
X72140595Y-125859523D01*
X72235833Y-125954761D01*
X72331071Y-126002380D01*
X72521547Y-126002380D01*
X72616785Y-125954761D01*
X72712023Y-125859523D01*
X72759642Y-125669047D01*
X72759642Y-125335714D01*
X72712023Y-125145238D01*
X72616785Y-125050000D01*
X72521547Y-125002380D01*
X71664404Y-126002380D02*
X71664404Y-125002380D01*
X71092976Y-126002380D01*
X71092976Y-125002380D01*
X70759642Y-125002380D02*
X70426309Y-126002380D01*
X70092976Y-125002380D01*
X69807261Y-125954761D02*
X69664404Y-126002380D01*
X69426309Y-126002380D01*
X69331071Y-125954761D01*
X69283452Y-125907142D01*
X69235833Y-125811904D01*
X69235833Y-125716666D01*
X69283452Y-125621428D01*
X69331071Y-125573809D01*
X69426309Y-125526190D01*
X69616785Y-125478571D01*
X69712023Y-125430952D01*
X69759642Y-125383333D01*
X69807261Y-125288095D01*
X69807261Y-125192857D01*
X69759642Y-125097619D01*
X69712023Y-125050000D01*
X69616785Y-125002380D01*
X69378690Y-125002380D01*
X69235833Y-125050000D01*
X68950119Y-125002380D02*
X68378690Y-125002380D01*
X68664404Y-126002380D02*
X68664404Y-125002380D01*
X76235833Y-126985714D02*
X76235833Y-127652380D01*
X76473928Y-126604761D02*
X76712023Y-127319047D01*
X76092976Y-127319047D01*
X74950119Y-127271428D02*
X74188214Y-127271428D01*
X72950119Y-127652380D02*
X72950119Y-126652380D01*
X72712023Y-126652380D01*
X72569166Y-126700000D01*
X72473928Y-126795238D01*
X72426309Y-126890476D01*
X72378690Y-127080952D01*
X72378690Y-127223809D01*
X72426309Y-127414285D01*
X72473928Y-127509523D01*
X72569166Y-127604761D01*
X72712023Y-127652380D01*
X72950119Y-127652380D01*
X71997738Y-127366666D02*
X71521547Y-127366666D01*
X72092976Y-127652380D02*
X71759642Y-126652380D01*
X71426309Y-127652380D01*
X70521547Y-127557142D02*
X70569166Y-127604761D01*
X70712023Y-127652380D01*
X70807261Y-127652380D01*
X70950119Y-127604761D01*
X71045357Y-127509523D01*
X71092976Y-127414285D01*
X71140595Y-127223809D01*
X71140595Y-127080952D01*
X71092976Y-126890476D01*
X71045357Y-126795238D01*
X70950119Y-126700000D01*
X70807261Y-126652380D01*
X70712023Y-126652380D01*
X70569166Y-126700000D01*
X70521547Y-126747619D01*
X70331071Y-127747619D02*
X69569166Y-127747619D01*
X68759642Y-127557142D02*
X68807261Y-127604761D01*
X68950119Y-127652380D01*
X69045357Y-127652380D01*
X69188214Y-127604761D01*
X69283452Y-127509523D01*
X69331071Y-127414285D01*
X69378690Y-127223809D01*
X69378690Y-127080952D01*
X69331071Y-126890476D01*
X69283452Y-126795238D01*
X69188214Y-126700000D01*
X69045357Y-126652380D01*
X68950119Y-126652380D01*
X68807261Y-126700000D01*
X68759642Y-126747619D01*
X68378690Y-127604761D02*
X68235833Y-127652380D01*
X67997738Y-127652380D01*
X67902500Y-127604761D01*
X67854880Y-127557142D01*
X67807261Y-127461904D01*
X67807261Y-127366666D01*
X67854880Y-127271428D01*
X67902500Y-127223809D01*
X67997738Y-127176190D01*
X68188214Y-127128571D01*
X68283452Y-127080952D01*
X68331071Y-127033333D01*
X68378690Y-126938095D01*
X68378690Y-126842857D01*
X68331071Y-126747619D01*
X68283452Y-126700000D01*
X68188214Y-126652380D01*
X67950119Y-126652380D01*
X67807261Y-126700000D01*
X76235833Y-128302380D02*
X76426309Y-128302380D01*
X76521547Y-128350000D01*
X76569166Y-128397619D01*
X76664404Y-128540476D01*
X76712023Y-128730952D01*
X76712023Y-129111904D01*
X76664404Y-129207142D01*
X76616785Y-129254761D01*
X76521547Y-129302380D01*
X76331071Y-129302380D01*
X76235833Y-129254761D01*
X76188214Y-129207142D01*
X76140595Y-129111904D01*
X76140595Y-128873809D01*
X76188214Y-128778571D01*
X76235833Y-128730952D01*
X76331071Y-128683333D01*
X76521547Y-128683333D01*
X76616785Y-128730952D01*
X76664404Y-128778571D01*
X76712023Y-128873809D01*
X74950119Y-128921428D02*
X74188214Y-128921428D01*
X72997738Y-129254761D02*
X72854880Y-129302380D01*
X72616785Y-129302380D01*
X72521547Y-129254761D01*
X72473928Y-129207142D01*
X72426309Y-129111904D01*
X72426309Y-129016666D01*
X72473928Y-128921428D01*
X72521547Y-128873809D01*
X72616785Y-128826190D01*
X72807261Y-128778571D01*
X72902500Y-128730952D01*
X72950119Y-128683333D01*
X72997738Y-128588095D01*
X72997738Y-128492857D01*
X72950119Y-128397619D01*
X72902500Y-128350000D01*
X72807261Y-128302380D01*
X72569166Y-128302380D01*
X72426309Y-128350000D01*
X71426309Y-129207142D02*
X71473928Y-129254761D01*
X71616785Y-129302380D01*
X71712023Y-129302380D01*
X71854880Y-129254761D01*
X71950119Y-129159523D01*
X71997738Y-129064285D01*
X72045357Y-128873809D01*
X72045357Y-128730952D01*
X71997738Y-128540476D01*
X71950119Y-128445238D01*
X71854880Y-128350000D01*
X71712023Y-128302380D01*
X71616785Y-128302380D01*
X71473928Y-128350000D01*
X71426309Y-128397619D01*
X70521547Y-129302380D02*
X70997738Y-129302380D01*
X70997738Y-128302380D01*
X70188214Y-129302380D02*
X70188214Y-128302380D01*
X69616785Y-129302380D02*
X70045357Y-128730952D01*
X69616785Y-128302380D02*
X70188214Y-128873809D01*
X76521547Y-130380952D02*
X76616785Y-130333333D01*
X76664404Y-130285714D01*
X76712023Y-130190476D01*
X76712023Y-130142857D01*
X76664404Y-130047619D01*
X76616785Y-130000000D01*
X76521547Y-129952380D01*
X76331071Y-129952380D01*
X76235833Y-130000000D01*
X76188214Y-130047619D01*
X76140595Y-130142857D01*
X76140595Y-130190476D01*
X76188214Y-130285714D01*
X76235833Y-130333333D01*
X76331071Y-130380952D01*
X76521547Y-130380952D01*
X76616785Y-130428571D01*
X76664404Y-130476190D01*
X76712023Y-130571428D01*
X76712023Y-130761904D01*
X76664404Y-130857142D01*
X76616785Y-130904761D01*
X76521547Y-130952380D01*
X76331071Y-130952380D01*
X76235833Y-130904761D01*
X76188214Y-130857142D01*
X76140595Y-130761904D01*
X76140595Y-130571428D01*
X76188214Y-130476190D01*
X76235833Y-130428571D01*
X76331071Y-130380952D01*
X74950119Y-130571428D02*
X74188214Y-130571428D01*
X72950119Y-130952380D02*
X72950119Y-129952380D01*
X72616785Y-130666666D01*
X72283452Y-129952380D01*
X72283452Y-130952380D01*
X71616785Y-129952380D02*
X71426309Y-129952380D01*
X71331071Y-130000000D01*
X71235833Y-130095238D01*
X71188214Y-130285714D01*
X71188214Y-130619047D01*
X71235833Y-130809523D01*
X71331071Y-130904761D01*
X71426309Y-130952380D01*
X71616785Y-130952380D01*
X71712023Y-130904761D01*
X71807261Y-130809523D01*
X71854880Y-130619047D01*
X71854880Y-130285714D01*
X71807261Y-130095238D01*
X71712023Y-130000000D01*
X71616785Y-129952380D01*
X70807261Y-130904761D02*
X70664404Y-130952380D01*
X70426309Y-130952380D01*
X70331071Y-130904761D01*
X70283452Y-130857142D01*
X70235833Y-130761904D01*
X70235833Y-130666666D01*
X70283452Y-130571428D01*
X70331071Y-130523809D01*
X70426309Y-130476190D01*
X70616785Y-130428571D01*
X70712023Y-130380952D01*
X70759642Y-130333333D01*
X70807261Y-130238095D01*
X70807261Y-130142857D01*
X70759642Y-130047619D01*
X70712023Y-130000000D01*
X70616785Y-129952380D01*
X70378690Y-129952380D01*
X70235833Y-130000000D01*
X69807261Y-130952380D02*
X69807261Y-129952380D01*
X76140595Y-132602380D02*
X76712023Y-132602380D01*
X76426309Y-132602380D02*
X76426309Y-131602380D01*
X76521547Y-131745238D01*
X76616785Y-131840476D01*
X76712023Y-131888095D01*
X75521547Y-131602380D02*
X75426309Y-131602380D01*
X75331071Y-131650000D01*
X75283452Y-131697619D01*
X75235833Y-131792857D01*
X75188214Y-131983333D01*
X75188214Y-132221428D01*
X75235833Y-132411904D01*
X75283452Y-132507142D01*
X75331071Y-132554761D01*
X75426309Y-132602380D01*
X75521547Y-132602380D01*
X75616785Y-132554761D01*
X75664404Y-132507142D01*
X75712023Y-132411904D01*
X75759642Y-132221428D01*
X75759642Y-131983333D01*
X75712023Y-131792857D01*
X75664404Y-131697619D01*
X75616785Y-131650000D01*
X75521547Y-131602380D01*
X73997738Y-132221428D02*
X73235833Y-132221428D01*
X71997738Y-132602380D02*
X71997738Y-131602380D01*
X71664404Y-132316666D01*
X71331071Y-131602380D01*
X71331071Y-132602380D01*
X70854880Y-132602380D02*
X70854880Y-131602380D01*
X70426309Y-132554761D02*
X70283452Y-132602380D01*
X70045357Y-132602380D01*
X69950119Y-132554761D01*
X69902500Y-132507142D01*
X69854880Y-132411904D01*
X69854880Y-132316666D01*
X69902500Y-132221428D01*
X69950119Y-132173809D01*
X70045357Y-132126190D01*
X70235833Y-132078571D01*
X70331071Y-132030952D01*
X70378690Y-131983333D01*
X70426309Y-131888095D01*
X70426309Y-131792857D01*
X70378690Y-131697619D01*
X70331071Y-131650000D01*
X70235833Y-131602380D01*
X69997738Y-131602380D01*
X69854880Y-131650000D01*
X69235833Y-131602380D02*
X69045357Y-131602380D01*
X68950119Y-131650000D01*
X68854880Y-131745238D01*
X68807261Y-131935714D01*
X68807261Y-132269047D01*
X68854880Y-132459523D01*
X68950119Y-132554761D01*
X69045357Y-132602380D01*
X69235833Y-132602380D01*
X69331071Y-132554761D01*
X69426309Y-132459523D01*
X69473928Y-132269047D01*
X69473928Y-131935714D01*
X69426309Y-131745238D01*
X69331071Y-131650000D01*
X69235833Y-131602380D01*
X76140595Y-134252380D02*
X76712023Y-134252380D01*
X76426309Y-134252380D02*
X76426309Y-133252380D01*
X76521547Y-133395238D01*
X76616785Y-133490476D01*
X76712023Y-133538095D01*
X75759642Y-133347619D02*
X75712023Y-133300000D01*
X75616785Y-133252380D01*
X75378690Y-133252380D01*
X75283452Y-133300000D01*
X75235833Y-133347619D01*
X75188214Y-133442857D01*
X75188214Y-133538095D01*
X75235833Y-133680952D01*
X75807261Y-134252380D01*
X75188214Y-134252380D01*
X73997738Y-133871428D02*
X73235833Y-133871428D01*
X72045357Y-133966666D02*
X71569166Y-133966666D01*
X72140595Y-134252380D02*
X71807261Y-133252380D01*
X71473928Y-134252380D01*
X71140595Y-134252380D02*
X71140595Y-133252380D01*
X70902500Y-133252380D01*
X70759642Y-133300000D01*
X70664404Y-133395238D01*
X70616785Y-133490476D01*
X70569166Y-133680952D01*
X70569166Y-133823809D01*
X70616785Y-134014285D01*
X70664404Y-134109523D01*
X70759642Y-134204761D01*
X70902500Y-134252380D01*
X71140595Y-134252380D01*
X69569166Y-134157142D02*
X69616785Y-134204761D01*
X69759642Y-134252380D01*
X69854880Y-134252380D01*
X69997738Y-134204761D01*
X70092976Y-134109523D01*
X70140595Y-134014285D01*
X70188214Y-133823809D01*
X70188214Y-133680952D01*
X70140595Y-133490476D01*
X70092976Y-133395238D01*
X69997738Y-133300000D01*
X69854880Y-133252380D01*
X69759642Y-133252380D01*
X69616785Y-133300000D01*
X69569166Y-133347619D01*
X69378690Y-134347619D02*
X68616785Y-134347619D01*
X67807261Y-134157142D02*
X67854880Y-134204761D01*
X67997738Y-134252380D01*
X68092976Y-134252380D01*
X68235833Y-134204761D01*
X68331071Y-134109523D01*
X68378690Y-134014285D01*
X68426309Y-133823809D01*
X68426309Y-133680952D01*
X68378690Y-133490476D01*
X68331071Y-133395238D01*
X68235833Y-133300000D01*
X68092976Y-133252380D01*
X67997738Y-133252380D01*
X67854880Y-133300000D01*
X67807261Y-133347619D01*
X67426309Y-134204761D02*
X67283452Y-134252380D01*
X67045357Y-134252380D01*
X66950119Y-134204761D01*
X66902500Y-134157142D01*
X66854880Y-134061904D01*
X66854880Y-133966666D01*
X66902500Y-133871428D01*
X66950119Y-133823809D01*
X67045357Y-133776190D01*
X67235833Y-133728571D01*
X67331071Y-133680952D01*
X67378690Y-133633333D01*
X67426309Y-133538095D01*
X67426309Y-133442857D01*
X67378690Y-133347619D01*
X67331071Y-133300000D01*
X67235833Y-133252380D01*
X66997738Y-133252380D01*
X66854880Y-133300000D01*
X76140595Y-135902380D02*
X76712023Y-135902380D01*
X76426309Y-135902380D02*
X76426309Y-134902380D01*
X76521547Y-135045238D01*
X76616785Y-135140476D01*
X76712023Y-135188095D01*
X75283452Y-135235714D02*
X75283452Y-135902380D01*
X75521547Y-134854761D02*
X75759642Y-135569047D01*
X75140595Y-135569047D01*
X73997738Y-135521428D02*
X73235833Y-135521428D01*
X71521547Y-135902380D02*
X71997738Y-135902380D01*
X71997738Y-134902380D01*
X71045357Y-135902380D02*
X71140595Y-135854761D01*
X71188214Y-135807142D01*
X71235833Y-135711904D01*
X71235833Y-135426190D01*
X71188214Y-135330952D01*
X71140595Y-135283333D01*
X71045357Y-135235714D01*
X70902500Y-135235714D01*
X70807261Y-135283333D01*
X70759642Y-135330952D01*
X70712023Y-135426190D01*
X70712023Y-135711904D01*
X70759642Y-135807142D01*
X70807261Y-135854761D01*
X70902500Y-135902380D01*
X71045357Y-135902380D01*
X69854880Y-135902380D02*
X69854880Y-135378571D01*
X69902500Y-135283333D01*
X69997738Y-135235714D01*
X70188214Y-135235714D01*
X70283452Y-135283333D01*
X69854880Y-135854761D02*
X69950119Y-135902380D01*
X70188214Y-135902380D01*
X70283452Y-135854761D01*
X70331071Y-135759523D01*
X70331071Y-135664285D01*
X70283452Y-135569047D01*
X70188214Y-135521428D01*
X69950119Y-135521428D01*
X69854880Y-135473809D01*
X68950119Y-135902380D02*
X68950119Y-134902380D01*
X68950119Y-135854761D02*
X69045357Y-135902380D01*
X69235833Y-135902380D01*
X69331071Y-135854761D01*
X69378690Y-135807142D01*
X69426309Y-135711904D01*
X69426309Y-135426190D01*
X69378690Y-135330952D01*
X69331071Y-135283333D01*
X69235833Y-135235714D01*
X69045357Y-135235714D01*
X68950119Y-135283333D01*
X68283452Y-134902380D02*
X68092976Y-134902380D01*
X67997738Y-134950000D01*
X67902500Y-135045238D01*
X67854880Y-135235714D01*
X67854880Y-135569047D01*
X67902500Y-135759523D01*
X67997738Y-135854761D01*
X68092976Y-135902380D01*
X68283452Y-135902380D01*
X68378690Y-135854761D01*
X68473928Y-135759523D01*
X68521547Y-135569047D01*
X68521547Y-135235714D01*
X68473928Y-135045238D01*
X68378690Y-134950000D01*
X68283452Y-134902380D01*
X67426309Y-135235714D02*
X67426309Y-135902380D01*
X67426309Y-135330952D02*
X67378690Y-135283333D01*
X67283452Y-135235714D01*
X67140595Y-135235714D01*
X67045357Y-135283333D01*
X66997738Y-135378571D01*
X66997738Y-135902380D01*
X66331071Y-134902380D02*
X66140595Y-134902380D01*
X66045357Y-134950000D01*
X65950119Y-135045238D01*
X65902500Y-135235714D01*
X65902500Y-135569047D01*
X65950119Y-135759523D01*
X66045357Y-135854761D01*
X66140595Y-135902380D01*
X66331071Y-135902380D01*
X66426309Y-135854761D01*
X66521547Y-135759523D01*
X66569166Y-135569047D01*
X66569166Y-135235714D01*
X66521547Y-135045238D01*
X66426309Y-134950000D01*
X66331071Y-134902380D01*
X65616785Y-135235714D02*
X65235833Y-135235714D01*
X65473928Y-135902380D02*
X65473928Y-135045238D01*
X65426309Y-134950000D01*
X65331071Y-134902380D01*
X65235833Y-134902380D01*
X65045357Y-135235714D02*
X64664404Y-135235714D01*
X64902500Y-135902380D02*
X64902500Y-135045238D01*
X64854880Y-134950000D01*
X64759642Y-134902380D01*
X64664404Y-134902380D01*
D11*
X68000000Y-138500000D02*
G75*
G03*
X68000000Y-138500000I-500000J0D01*
G01*
X87000000Y-136500000D02*
X66000000Y-136500000D01*
D10*
X85640595Y-126002380D02*
X86212023Y-126002380D01*
X85926309Y-126002380D02*
X85926309Y-125002380D01*
X86021547Y-125145238D01*
X86116785Y-125240476D01*
X86212023Y-125288095D01*
X84450119Y-125621428D02*
X83688214Y-125621428D01*
X82450119Y-125621428D02*
X81688214Y-125621428D01*
X82069166Y-126002380D02*
X82069166Y-125240476D01*
X81307261Y-125002380D02*
X80688214Y-125002380D01*
X81021547Y-125383333D01*
X80878690Y-125383333D01*
X80783452Y-125430952D01*
X80735833Y-125478571D01*
X80688214Y-125573809D01*
X80688214Y-125811904D01*
X80735833Y-125907142D01*
X80783452Y-125954761D01*
X80878690Y-126002380D01*
X81164404Y-126002380D01*
X81259642Y-125954761D01*
X81307261Y-125907142D01*
X80259642Y-125907142D02*
X80212023Y-125954761D01*
X80259642Y-126002380D01*
X80307261Y-125954761D01*
X80259642Y-125907142D01*
X80259642Y-126002380D01*
X79878690Y-125002380D02*
X79259642Y-125002380D01*
X79592976Y-125383333D01*
X79450119Y-125383333D01*
X79354880Y-125430952D01*
X79307261Y-125478571D01*
X79259642Y-125573809D01*
X79259642Y-125811904D01*
X79307261Y-125907142D01*
X79354880Y-125954761D01*
X79450119Y-126002380D01*
X79735833Y-126002380D01*
X79831071Y-125954761D01*
X79878690Y-125907142D01*
X78926309Y-125335714D02*
X78688214Y-126002380D01*
X78450119Y-125335714D01*
X86259642Y-126652380D02*
X85640595Y-126652380D01*
X85973928Y-127033333D01*
X85831071Y-127033333D01*
X85735833Y-127080952D01*
X85688214Y-127128571D01*
X85640595Y-127223809D01*
X85640595Y-127461904D01*
X85688214Y-127557142D01*
X85735833Y-127604761D01*
X85831071Y-127652380D01*
X86116785Y-127652380D01*
X86212023Y-127604761D01*
X86259642Y-127557142D01*
X84450119Y-127271428D02*
X83688214Y-127271428D01*
X82545357Y-126652380D02*
X81926309Y-126652380D01*
X82259642Y-127033333D01*
X82116785Y-127033333D01*
X82021547Y-127080952D01*
X81973928Y-127128571D01*
X81926309Y-127223809D01*
X81926309Y-127461904D01*
X81973928Y-127557142D01*
X82021547Y-127604761D01*
X82116785Y-127652380D01*
X82402500Y-127652380D01*
X82497738Y-127604761D01*
X82545357Y-127557142D01*
X81497738Y-127557142D02*
X81450119Y-127604761D01*
X81497738Y-127652380D01*
X81545357Y-127604761D01*
X81497738Y-127557142D01*
X81497738Y-127652380D01*
X81116785Y-126652380D02*
X80497738Y-126652380D01*
X80831071Y-127033333D01*
X80688214Y-127033333D01*
X80592976Y-127080952D01*
X80545357Y-127128571D01*
X80497738Y-127223809D01*
X80497738Y-127461904D01*
X80545357Y-127557142D01*
X80592976Y-127604761D01*
X80688214Y-127652380D01*
X80973928Y-127652380D01*
X81069166Y-127604761D01*
X81116785Y-127557142D01*
X80164404Y-126985714D02*
X79926309Y-127652380D01*
X79688214Y-126985714D01*
X85688214Y-128302380D02*
X86164404Y-128302380D01*
X86212023Y-128778571D01*
X86164404Y-128730952D01*
X86069166Y-128683333D01*
X85831071Y-128683333D01*
X85735833Y-128730952D01*
X85688214Y-128778571D01*
X85640595Y-128873809D01*
X85640595Y-129111904D01*
X85688214Y-129207142D01*
X85735833Y-129254761D01*
X85831071Y-129302380D01*
X86069166Y-129302380D01*
X86164404Y-129254761D01*
X86212023Y-129207142D01*
X84450119Y-128921428D02*
X83688214Y-128921428D01*
X82450119Y-128778571D02*
X82116785Y-128778571D01*
X81973928Y-129302380D02*
X82450119Y-129302380D01*
X82450119Y-128302380D01*
X81973928Y-128302380D01*
X81354880Y-128302380D02*
X81164404Y-128302380D01*
X81069166Y-128350000D01*
X80973928Y-128445238D01*
X80926309Y-128635714D01*
X80926309Y-128969047D01*
X80973928Y-129159523D01*
X81069166Y-129254761D01*
X81164404Y-129302380D01*
X81354880Y-129302380D01*
X81450119Y-129254761D01*
X81545357Y-129159523D01*
X81592976Y-128969047D01*
X81592976Y-128635714D01*
X81545357Y-128445238D01*
X81450119Y-128350000D01*
X81354880Y-128302380D01*
X79926309Y-129207142D02*
X79973928Y-129254761D01*
X80116785Y-129302380D01*
X80212023Y-129302380D01*
X80354880Y-129254761D01*
X80450119Y-129159523D01*
X80497738Y-129064285D01*
X80545357Y-128873809D01*
X80545357Y-128730952D01*
X80497738Y-128540476D01*
X80450119Y-128445238D01*
X80354880Y-128350000D01*
X80212023Y-128302380D01*
X80116785Y-128302380D01*
X79973928Y-128350000D01*
X79926309Y-128397619D01*
X86259642Y-129952380D02*
X85592976Y-129952380D01*
X86021547Y-130952380D01*
X84450119Y-130571428D02*
X83688214Y-130571428D01*
X81926309Y-130000000D02*
X82021547Y-129952380D01*
X82164404Y-129952380D01*
X82307261Y-130000000D01*
X82402500Y-130095238D01*
X82450119Y-130190476D01*
X82497738Y-130380952D01*
X82497738Y-130523809D01*
X82450119Y-130714285D01*
X82402500Y-130809523D01*
X82307261Y-130904761D01*
X82164404Y-130952380D01*
X82069166Y-130952380D01*
X81926309Y-130904761D01*
X81878690Y-130857142D01*
X81878690Y-130523809D01*
X82069166Y-130523809D01*
X81450119Y-130952380D02*
X81450119Y-129952380D01*
X80878690Y-130952380D01*
X80878690Y-129952380D01*
X80402500Y-130952380D02*
X80402500Y-129952380D01*
X80164404Y-129952380D01*
X80021547Y-130000000D01*
X79926309Y-130095238D01*
X79878690Y-130190476D01*
X79831071Y-130380952D01*
X79831071Y-130523809D01*
X79878690Y-130714285D01*
X79926309Y-130809523D01*
X80021547Y-130904761D01*
X80164404Y-130952380D01*
X80402500Y-130952380D01*
X86116785Y-132602380D02*
X85926309Y-132602380D01*
X85831071Y-132554761D01*
X85783452Y-132507142D01*
X85688214Y-132364285D01*
X85640595Y-132173809D01*
X85640595Y-131792857D01*
X85688214Y-131697619D01*
X85735833Y-131650000D01*
X85831071Y-131602380D01*
X86021547Y-131602380D01*
X86116785Y-131650000D01*
X86164404Y-131697619D01*
X86212023Y-131792857D01*
X86212023Y-132030952D01*
X86164404Y-132126190D01*
X86116785Y-132173809D01*
X86021547Y-132221428D01*
X85831071Y-132221428D01*
X85735833Y-132173809D01*
X85688214Y-132126190D01*
X85640595Y-132030952D01*
X84450119Y-132221428D02*
X83688214Y-132221428D01*
X81926309Y-131650000D02*
X82021547Y-131602380D01*
X82164404Y-131602380D01*
X82307261Y-131650000D01*
X82402500Y-131745238D01*
X82450119Y-131840476D01*
X82497738Y-132030952D01*
X82497738Y-132173809D01*
X82450119Y-132364285D01*
X82402500Y-132459523D01*
X82307261Y-132554761D01*
X82164404Y-132602380D01*
X82069166Y-132602380D01*
X81926309Y-132554761D01*
X81878690Y-132507142D01*
X81878690Y-132173809D01*
X82069166Y-132173809D01*
X81450119Y-132602380D02*
X81450119Y-131602380D01*
X80878690Y-132602380D01*
X80878690Y-131602380D01*
X80402500Y-132602380D02*
X80402500Y-131602380D01*
X80164404Y-131602380D01*
X80021547Y-131650000D01*
X79926309Y-131745238D01*
X79878690Y-131840476D01*
X79831071Y-132030952D01*
X79831071Y-132173809D01*
X79878690Y-132364285D01*
X79926309Y-132459523D01*
X80021547Y-132554761D01*
X80164404Y-132602380D01*
X80402500Y-132602380D01*
X85640595Y-134252380D02*
X86212023Y-134252380D01*
X85926309Y-134252380D02*
X85926309Y-133252380D01*
X86021547Y-133395238D01*
X86116785Y-133490476D01*
X86212023Y-133538095D01*
X84688214Y-134252380D02*
X85259642Y-134252380D01*
X84973928Y-134252380D02*
X84973928Y-133252380D01*
X85069166Y-133395238D01*
X85164404Y-133490476D01*
X85259642Y-133538095D01*
X84259642Y-133871428D02*
X83497738Y-133871428D01*
X82307261Y-133585714D02*
X81592976Y-133585714D01*
X82021547Y-133157142D02*
X82307261Y-134442857D01*
X81688214Y-134014285D02*
X82402500Y-134014285D01*
X81973928Y-134442857D02*
X81688214Y-133157142D01*
X80688214Y-134252380D02*
X81021547Y-133776190D01*
X81259642Y-134252380D02*
X81259642Y-133252380D01*
X80878690Y-133252380D01*
X80783452Y-133300000D01*
X80735833Y-133347619D01*
X80688214Y-133442857D01*
X80688214Y-133585714D01*
X80735833Y-133680952D01*
X80783452Y-133728571D01*
X80878690Y-133776190D01*
X81259642Y-133776190D01*
X80402500Y-133252380D02*
X80069166Y-134252380D01*
X79735833Y-133252380D01*
X79402500Y-134252380D02*
X79402500Y-133252380D01*
X79021547Y-133252380D01*
X78926309Y-133300000D01*
X78878690Y-133347619D01*
X78831071Y-133442857D01*
X78831071Y-133585714D01*
X78878690Y-133680952D01*
X78926309Y-133728571D01*
X79021547Y-133776190D01*
X79402500Y-133776190D01*
X85640595Y-135902380D02*
X86212023Y-135902380D01*
X85926309Y-135902380D02*
X85926309Y-134902380D01*
X86021547Y-135045238D01*
X86116785Y-135140476D01*
X86212023Y-135188095D01*
X85307261Y-134902380D02*
X84688214Y-134902380D01*
X85021547Y-135283333D01*
X84878690Y-135283333D01*
X84783452Y-135330952D01*
X84735833Y-135378571D01*
X84688214Y-135473809D01*
X84688214Y-135711904D01*
X84735833Y-135807142D01*
X84783452Y-135854761D01*
X84878690Y-135902380D01*
X85164404Y-135902380D01*
X85259642Y-135854761D01*
X85307261Y-135807142D01*
X84259642Y-135521428D02*
X83497738Y-135521428D01*
X82307261Y-135235714D02*
X81592976Y-135235714D01*
X82021547Y-134807142D02*
X82307261Y-136092857D01*
X81688214Y-135664285D02*
X82402500Y-135664285D01*
X81973928Y-136092857D02*
X81688214Y-134807142D01*
X81069166Y-134902380D02*
X80878690Y-134902380D01*
X80783452Y-134950000D01*
X80688214Y-135045238D01*
X80640595Y-135235714D01*
X80640595Y-135569047D01*
X80688214Y-135759523D01*
X80783452Y-135854761D01*
X80878690Y-135902380D01*
X81069166Y-135902380D01*
X81164404Y-135854761D01*
X81259642Y-135759523D01*
X81307261Y-135569047D01*
X81307261Y-135235714D01*
X81259642Y-135045238D01*
X81164404Y-134950000D01*
X81069166Y-134902380D01*
X79640595Y-135807142D02*
X79688214Y-135854761D01*
X79831071Y-135902380D01*
X79926309Y-135902380D01*
X80069166Y-135854761D01*
X80164404Y-135759523D01*
X80212023Y-135664285D01*
X80259642Y-135473809D01*
X80259642Y-135330952D01*
X80212023Y-135140476D01*
X80164404Y-135045238D01*
X80069166Y-134950000D01*
X79926309Y-134902380D01*
X79831071Y-134902380D01*
X79688214Y-134950000D01*
X79640595Y-134997619D01*
X79212023Y-135902380D02*
X79212023Y-134902380D01*
X78831071Y-134902380D01*
X78735833Y-134950000D01*
X78688214Y-134997619D01*
X78640595Y-135092857D01*
X78640595Y-135235714D01*
X78688214Y-135330952D01*
X78735833Y-135378571D01*
X78831071Y-135426190D01*
X79212023Y-135426190D01*
D11*
X123000000Y-123000000D02*
X133000000Y-123000000D01*
X133000000Y-123000000D02*
X133000000Y-128500000D01*
X123000000Y-128500000D02*
X123000000Y-123000000D01*
X133000000Y-128500000D02*
X123000000Y-128500000D01*
D10*
X131712023Y-123597619D02*
X131664404Y-123550000D01*
X131569166Y-123502380D01*
X131331071Y-123502380D01*
X131235833Y-123550000D01*
X131188214Y-123597619D01*
X131140595Y-123692857D01*
X131140595Y-123788095D01*
X131188214Y-123930952D01*
X131759642Y-124502380D01*
X131140595Y-124502380D01*
X129950119Y-124121428D02*
X129188214Y-124121428D01*
X127997738Y-124454761D02*
X127854880Y-124502380D01*
X127616785Y-124502380D01*
X127521547Y-124454761D01*
X127473928Y-124407142D01*
X127426309Y-124311904D01*
X127426309Y-124216666D01*
X127473928Y-124121428D01*
X127521547Y-124073809D01*
X127616785Y-124026190D01*
X127807261Y-123978571D01*
X127902500Y-123930952D01*
X127950119Y-123883333D01*
X127997738Y-123788095D01*
X127997738Y-123692857D01*
X127950119Y-123597619D01*
X127902500Y-123550000D01*
X127807261Y-123502380D01*
X127569166Y-123502380D01*
X127426309Y-123550000D01*
X127092976Y-123502380D02*
X126854880Y-124502380D01*
X126664404Y-123788095D01*
X126473928Y-124502380D01*
X126235833Y-123502380D01*
X125283452Y-124407142D02*
X125331071Y-124454761D01*
X125473928Y-124502380D01*
X125569166Y-124502380D01*
X125712023Y-124454761D01*
X125807261Y-124359523D01*
X125854880Y-124264285D01*
X125902500Y-124073809D01*
X125902500Y-123930952D01*
X125854880Y-123740476D01*
X125807261Y-123645238D01*
X125712023Y-123550000D01*
X125569166Y-123502380D01*
X125473928Y-123502380D01*
X125331071Y-123550000D01*
X125283452Y-123597619D01*
X124378690Y-124502380D02*
X124854880Y-124502380D01*
X124854880Y-123502380D01*
X124045357Y-124502380D02*
X124045357Y-123502380D01*
X123473928Y-124502380D02*
X123902500Y-123930952D01*
X123473928Y-123502380D02*
X124045357Y-124073809D01*
X131235833Y-125485714D02*
X131235833Y-126152380D01*
X131473928Y-125104761D02*
X131712023Y-125819047D01*
X131092976Y-125819047D01*
X129950119Y-125771428D02*
X129188214Y-125771428D01*
X127997738Y-126104761D02*
X127854880Y-126152380D01*
X127616785Y-126152380D01*
X127521547Y-126104761D01*
X127473928Y-126057142D01*
X127426309Y-125961904D01*
X127426309Y-125866666D01*
X127473928Y-125771428D01*
X127521547Y-125723809D01*
X127616785Y-125676190D01*
X127807261Y-125628571D01*
X127902500Y-125580952D01*
X127950119Y-125533333D01*
X127997738Y-125438095D01*
X127997738Y-125342857D01*
X127950119Y-125247619D01*
X127902500Y-125200000D01*
X127807261Y-125152380D01*
X127569166Y-125152380D01*
X127426309Y-125200000D01*
X127092976Y-125152380D02*
X126854880Y-126152380D01*
X126664404Y-125438095D01*
X126473928Y-126152380D01*
X126235833Y-125152380D01*
X125854880Y-126152380D02*
X125854880Y-125152380D01*
X125616785Y-125152380D01*
X125473928Y-125200000D01*
X125378690Y-125295238D01*
X125331071Y-125390476D01*
X125283452Y-125580952D01*
X125283452Y-125723809D01*
X125331071Y-125914285D01*
X125378690Y-126009523D01*
X125473928Y-126104761D01*
X125616785Y-126152380D01*
X125854880Y-126152380D01*
X124854880Y-126152380D02*
X124854880Y-125152380D01*
X124188214Y-125152380D02*
X123997738Y-125152380D01*
X123902500Y-125200000D01*
X123807261Y-125295238D01*
X123759642Y-125485714D01*
X123759642Y-125819047D01*
X123807261Y-126009523D01*
X123902500Y-126104761D01*
X123997738Y-126152380D01*
X124188214Y-126152380D01*
X124283452Y-126104761D01*
X124378690Y-126009523D01*
X124426309Y-125819047D01*
X124426309Y-125485714D01*
X124378690Y-125295238D01*
X124283452Y-125200000D01*
X124188214Y-125152380D01*
X131235833Y-126802380D02*
X131426309Y-126802380D01*
X131521547Y-126850000D01*
X131569166Y-126897619D01*
X131664404Y-127040476D01*
X131712023Y-127230952D01*
X131712023Y-127611904D01*
X131664404Y-127707142D01*
X131616785Y-127754761D01*
X131521547Y-127802380D01*
X131331071Y-127802380D01*
X131235833Y-127754761D01*
X131188214Y-127707142D01*
X131140595Y-127611904D01*
X131140595Y-127373809D01*
X131188214Y-127278571D01*
X131235833Y-127230952D01*
X131331071Y-127183333D01*
X131521547Y-127183333D01*
X131616785Y-127230952D01*
X131664404Y-127278571D01*
X131712023Y-127373809D01*
X129950119Y-127421428D02*
X129188214Y-127421428D01*
X127426309Y-126850000D02*
X127521547Y-126802380D01*
X127664404Y-126802380D01*
X127807261Y-126850000D01*
X127902500Y-126945238D01*
X127950119Y-127040476D01*
X127997738Y-127230952D01*
X127997738Y-127373809D01*
X127950119Y-127564285D01*
X127902500Y-127659523D01*
X127807261Y-127754761D01*
X127664404Y-127802380D01*
X127569166Y-127802380D01*
X127426309Y-127754761D01*
X127378690Y-127707142D01*
X127378690Y-127373809D01*
X127569166Y-127373809D01*
X126950119Y-127802380D02*
X126950119Y-126802380D01*
X126378690Y-127802380D01*
X126378690Y-126802380D01*
X125902500Y-127802380D02*
X125902500Y-126802380D01*
X125664404Y-126802380D01*
X125521547Y-126850000D01*
X125426309Y-126945238D01*
X125378690Y-127040476D01*
X125331071Y-127230952D01*
X125331071Y-127373809D01*
X125378690Y-127564285D01*
X125426309Y-127659523D01*
X125521547Y-127754761D01*
X125664404Y-127802380D01*
X125902500Y-127802380D01*
D11*
X121771154Y-131440000D02*
G75*
G03*
X121771154Y-131440000I-441354J0D01*
G01*
D10*
X176750000Y-172063095D02*
X176702380Y-171967857D01*
X176702380Y-171825000D01*
X176750000Y-171682142D01*
X176845238Y-171586904D01*
X176940476Y-171539285D01*
X177130952Y-171491666D01*
X177273809Y-171491666D01*
X177464285Y-171539285D01*
X177559523Y-171586904D01*
X177654761Y-171682142D01*
X177702380Y-171825000D01*
X177702380Y-171920238D01*
X177654761Y-172063095D01*
X177607142Y-172110714D01*
X177273809Y-172110714D01*
X177273809Y-171920238D01*
X177702380Y-172539285D02*
X176702380Y-172539285D01*
X177702380Y-173110714D01*
X176702380Y-173110714D01*
X177702380Y-173586904D02*
X176702380Y-173586904D01*
X176702380Y-173825000D01*
X176750000Y-173967857D01*
X176845238Y-174063095D01*
X176940476Y-174110714D01*
X177130952Y-174158333D01*
X177273809Y-174158333D01*
X177464285Y-174110714D01*
X177559523Y-174063095D01*
X177654761Y-173967857D01*
X177702380Y-173825000D01*
X177702380Y-173586904D01*
X160671428Y-170586904D02*
X160671428Y-171348809D01*
X161052380Y-170967857D02*
X160290476Y-170967857D01*
X160052380Y-172301190D02*
X160052380Y-171825000D01*
X160528571Y-171777380D01*
X160480952Y-171825000D01*
X160433333Y-171920238D01*
X160433333Y-172158333D01*
X160480952Y-172253571D01*
X160528571Y-172301190D01*
X160623809Y-172348809D01*
X160861904Y-172348809D01*
X160957142Y-172301190D01*
X161004761Y-172253571D01*
X161052380Y-172158333D01*
X161052380Y-171920238D01*
X161004761Y-171825000D01*
X160957142Y-171777380D01*
X160385714Y-172682142D02*
X161052380Y-172920238D01*
X160385714Y-173158333D01*
X167146428Y-171110714D02*
X167146428Y-171872619D01*
X167527380Y-171491666D02*
X166765476Y-171491666D01*
X167527380Y-172872619D02*
X167527380Y-172301190D01*
X167527380Y-172586904D02*
X166527380Y-172586904D01*
X166670238Y-172491666D01*
X166765476Y-172396428D01*
X166813095Y-172301190D01*
X166622619Y-173253571D02*
X166575000Y-173301190D01*
X166527380Y-173396428D01*
X166527380Y-173634523D01*
X166575000Y-173729761D01*
X166622619Y-173777380D01*
X166717857Y-173825000D01*
X166813095Y-173825000D01*
X166955952Y-173777380D01*
X167527380Y-173205952D01*
X167527380Y-173825000D01*
X166860714Y-174158333D02*
X167527380Y-174396428D01*
X166860714Y-174634523D01*
X164596428Y-170586904D02*
X164596428Y-171348809D01*
X164977380Y-170967857D02*
X164215476Y-170967857D01*
X163977380Y-172301190D02*
X163977380Y-171825000D01*
X164453571Y-171777380D01*
X164405952Y-171825000D01*
X164358333Y-171920238D01*
X164358333Y-172158333D01*
X164405952Y-172253571D01*
X164453571Y-172301190D01*
X164548809Y-172348809D01*
X164786904Y-172348809D01*
X164882142Y-172301190D01*
X164929761Y-172253571D01*
X164977380Y-172158333D01*
X164977380Y-171920238D01*
X164929761Y-171825000D01*
X164882142Y-171777380D01*
X164310714Y-172682142D02*
X164977380Y-172920238D01*
X164310714Y-173158333D01*
X174206250Y-172063095D02*
X174158630Y-171967857D01*
X174158630Y-171825000D01*
X174206250Y-171682142D01*
X174301488Y-171586904D01*
X174396726Y-171539285D01*
X174587202Y-171491666D01*
X174730059Y-171491666D01*
X174920535Y-171539285D01*
X175015773Y-171586904D01*
X175111011Y-171682142D01*
X175158630Y-171825000D01*
X175158630Y-171920238D01*
X175111011Y-172063095D01*
X175063392Y-172110714D01*
X174730059Y-172110714D01*
X174730059Y-171920238D01*
X175158630Y-172539285D02*
X174158630Y-172539285D01*
X175158630Y-173110714D01*
X174158630Y-173110714D01*
X175158630Y-173586904D02*
X174158630Y-173586904D01*
X174158630Y-173825000D01*
X174206250Y-173967857D01*
X174301488Y-174063095D01*
X174396726Y-174110714D01*
X174587202Y-174158333D01*
X174730059Y-174158333D01*
X174920535Y-174110714D01*
X175015773Y-174063095D01*
X175111011Y-173967857D01*
X175158630Y-173825000D01*
X175158630Y-173586904D01*
X171662500Y-172063095D02*
X171614880Y-171967857D01*
X171614880Y-171825000D01*
X171662500Y-171682142D01*
X171757738Y-171586904D01*
X171852976Y-171539285D01*
X172043452Y-171491666D01*
X172186309Y-171491666D01*
X172376785Y-171539285D01*
X172472023Y-171586904D01*
X172567261Y-171682142D01*
X172614880Y-171825000D01*
X172614880Y-171920238D01*
X172567261Y-172063095D01*
X172519642Y-172110714D01*
X172186309Y-172110714D01*
X172186309Y-171920238D01*
X172614880Y-172539285D02*
X171614880Y-172539285D01*
X172614880Y-173110714D01*
X171614880Y-173110714D01*
X172614880Y-173586904D02*
X171614880Y-173586904D01*
X171614880Y-173825000D01*
X171662500Y-173967857D01*
X171757738Y-174063095D01*
X171852976Y-174110714D01*
X172043452Y-174158333D01*
X172186309Y-174158333D01*
X172376785Y-174110714D01*
X172472023Y-174063095D01*
X172567261Y-173967857D01*
X172614880Y-173825000D01*
X172614880Y-173586904D01*
X162633928Y-170586904D02*
X162633928Y-171348809D01*
X163014880Y-170967857D02*
X162252976Y-170967857D01*
X162014880Y-172301190D02*
X162014880Y-171825000D01*
X162491071Y-171777380D01*
X162443452Y-171825000D01*
X162395833Y-171920238D01*
X162395833Y-172158333D01*
X162443452Y-172253571D01*
X162491071Y-172301190D01*
X162586309Y-172348809D01*
X162824404Y-172348809D01*
X162919642Y-172301190D01*
X162967261Y-172253571D01*
X163014880Y-172158333D01*
X163014880Y-171920238D01*
X162967261Y-171825000D01*
X162919642Y-171777380D01*
X162348214Y-172682142D02*
X163014880Y-172920238D01*
X162348214Y-173158333D01*
X169690178Y-171110714D02*
X169690178Y-171872619D01*
X170071130Y-171491666D02*
X169309226Y-171491666D01*
X170071130Y-172872619D02*
X170071130Y-172301190D01*
X170071130Y-172586904D02*
X169071130Y-172586904D01*
X169213988Y-172491666D01*
X169309226Y-172396428D01*
X169356845Y-172301190D01*
X169166369Y-173253571D02*
X169118750Y-173301190D01*
X169071130Y-173396428D01*
X169071130Y-173634523D01*
X169118750Y-173729761D01*
X169166369Y-173777380D01*
X169261607Y-173825000D01*
X169356845Y-173825000D01*
X169499702Y-173777380D01*
X170071130Y-173205952D01*
X170071130Y-173825000D01*
X169404464Y-174158333D02*
X170071130Y-174396428D01*
X169404464Y-174634523D01*
D12*
X123767857Y-143178571D02*
X123767857Y-141678571D01*
X122910714Y-143178571D02*
X123553571Y-142321428D01*
X122910714Y-141678571D02*
X123767857Y-142535714D01*
X98507142Y-172725000D02*
X97792857Y-172725000D01*
X98650000Y-173153571D02*
X98150000Y-171653571D01*
X97650000Y-173153571D01*
X87692857Y-173178571D02*
X87692857Y-171678571D01*
X86835714Y-173178571D02*
X87478571Y-172321428D01*
X86835714Y-171678571D02*
X87692857Y-172535714D01*
X85053571Y-180832142D02*
X86196428Y-180832142D01*
X85625000Y-181403571D02*
X85625000Y-180260714D01*
D11*
X115055576Y-143600000D02*
G75*
G03*
X115055576Y-143600000I-325576J0D01*
G01*
%TO.C,D2*%
X94700000Y-52350000D02*
X101600000Y-52350000D01*
X94700000Y-49050000D02*
X101600000Y-49050000D01*
X94700000Y-52350000D02*
X94700000Y-49050000D01*
%TO.C,D3*%
X103500000Y-45250000D02*
X103500000Y-48550000D01*
X103500000Y-48550000D02*
X96600000Y-48550000D01*
X103500000Y-45250000D02*
X96600000Y-45250000D01*
D13*
%TO.C,F1*%
X175325599Y-70300000D02*
G75*
G03*
X175325599Y-70300000I-381000J0D01*
G01*
D11*
%TO.C,J4*%
X179850000Y-174920000D02*
X179850000Y-176170000D01*
X178600000Y-174920000D02*
X179850000Y-174920000D01*
X160200000Y-180420000D02*
X169500000Y-180420000D01*
X160200000Y-177470000D02*
X160200000Y-180420000D01*
X159450000Y-177470000D02*
X160200000Y-177470000D01*
X178800000Y-180420000D02*
X169500000Y-180420000D01*
X178800000Y-177470000D02*
X178800000Y-180420000D01*
X179550000Y-177470000D02*
X178800000Y-177470000D01*
X159450000Y-175220000D02*
X161250000Y-175220000D01*
X159450000Y-175970000D02*
X159450000Y-175220000D01*
X161250000Y-175970000D02*
X159450000Y-175970000D01*
X161250000Y-175220000D02*
X161250000Y-175970000D01*
X177750000Y-175220000D02*
X179550000Y-175220000D01*
X177750000Y-175970000D02*
X177750000Y-175220000D01*
X179550000Y-175970000D02*
X177750000Y-175970000D01*
X179550000Y-175220000D02*
X179550000Y-175970000D01*
X162750000Y-175220000D02*
X176250000Y-175220000D01*
X162750000Y-175970000D02*
X162750000Y-175220000D01*
X176250000Y-175970000D02*
X162750000Y-175970000D01*
X176250000Y-175220000D02*
X176250000Y-175970000D01*
X159440000Y-175210000D02*
X179560000Y-175210000D01*
X159440000Y-181180000D02*
X159440000Y-175210000D01*
X179560000Y-181180000D02*
X159440000Y-181180000D01*
X179560000Y-175210000D02*
X179560000Y-181180000D01*
%TO.C,J6*%
X85970000Y-142230000D02*
X85970000Y-147430000D01*
X70670000Y-142230000D02*
X85970000Y-142230000D01*
X68070000Y-147430000D02*
X85970000Y-147430000D01*
X70670000Y-142230000D02*
X70670000Y-144830000D01*
X70670000Y-144830000D02*
X68070000Y-144830000D01*
X68070000Y-144830000D02*
X68070000Y-147430000D01*
X69400000Y-142230000D02*
X68070000Y-142230000D01*
X68070000Y-142230000D02*
X68070000Y-143560000D01*
%TO.C,U3*%
X104142887Y-143558198D02*
X103824689Y-143240000D01*
X103824689Y-143240000D02*
X104142887Y-142921802D01*
X108611802Y-148027113D02*
X108930000Y-148345311D01*
X108930000Y-148345311D02*
X109248198Y-148027113D01*
X109248198Y-138452887D02*
X108930000Y-138134689D01*
X108930000Y-138134689D02*
X108611802Y-138452887D01*
X113717113Y-142921802D02*
X114035311Y-143240000D01*
X114035311Y-143240000D02*
X113717113Y-143558198D01*
X113717113Y-143558198D02*
X114629281Y-144470366D01*
%TO.C,Q2*%
X106260000Y-177640000D02*
X106030000Y-177640000D01*
X101540000Y-177640000D02*
X101770000Y-177640000D01*
X101540000Y-177640000D02*
X101540000Y-180360000D01*
X101540000Y-180360000D02*
X102850000Y-180360000D01*
X101770000Y-176500000D02*
X101770000Y-177640000D01*
X106260000Y-180360000D02*
X106260000Y-177640000D01*
X104950000Y-180360000D02*
X106260000Y-180360000D01*
%TO.C,C5*%
X106800447Y-136370802D02*
X106558238Y-136613011D01*
X106079198Y-135649553D02*
X105836989Y-135891762D01*
%TO.C,C15*%
X104943733Y-158850000D02*
X105286267Y-158850000D01*
X104943733Y-157830000D02*
X105286267Y-157830000D01*
%TO.C,C12*%
X100630000Y-154418733D02*
X100630000Y-154761267D01*
X101650000Y-154418733D02*
X101650000Y-154761267D01*
%TO.C,U4*%
X103340000Y-152470000D02*
X106940000Y-152470000D01*
X103301522Y-152481522D02*
G75*
G03*
X105140000Y-156920000I1838478J-1838478D01*
G01*
X106978478Y-152481522D02*
G75*
G02*
X105140000Y-156920000I-1838478J-1838478D01*
G01*
%TO.C,C2*%
X125492529Y-145398437D02*
X125861995Y-145767903D01*
X124488437Y-146402529D02*
X124857903Y-146771995D01*
%TO.C,C4*%
X146645000Y-150665000D02*
X146645000Y-153550000D01*
X145075000Y-150665000D02*
X146645000Y-150665000D01*
X145075000Y-153550000D02*
X145075000Y-150665000D01*
%TO.C,C11*%
X146860000Y-138765000D02*
X149745000Y-138765000D01*
X149745000Y-138765000D02*
X149745000Y-140335000D01*
X149745000Y-140335000D02*
X146860000Y-140335000D01*
%TO.C,D1*%
X122522500Y-143320000D02*
X119837500Y-143320000D01*
X122522500Y-141400000D02*
X122522500Y-143320000D01*
X119837500Y-141400000D02*
X122522500Y-141400000D01*
%TO.C,D2*%
X88245001Y-174050000D02*
X95145001Y-174050000D01*
X88245001Y-170750000D02*
X95145001Y-170750000D01*
X88245001Y-174050000D02*
X88245001Y-170750000D01*
%TO.C,FB1*%
X44036252Y-132140000D02*
X43513748Y-132140000D01*
X44036252Y-133560000D02*
X43513748Y-133560000D01*
%TO.C,FB2*%
X114366252Y-154100000D02*
X113843748Y-154100000D01*
X114366252Y-152680000D02*
X113843748Y-152680000D01*
%TO.C,FB3*%
X109441252Y-118250000D02*
X108918748Y-118250000D01*
X109441252Y-116830000D02*
X108918748Y-116830000D01*
D13*
%TO.C,J2*%
X121710800Y-131440000D02*
G75*
G03*
X121710800Y-131440000I-381000J0D01*
G01*
X106105040Y-121813202D02*
X106734960Y-121813202D01*
X104194960Y-131566802D02*
X99765200Y-131566802D01*
X108645040Y-121813202D02*
X109274960Y-121813202D01*
X106734960Y-131566802D02*
X106105040Y-131566802D01*
X111185040Y-121813202D02*
X111814960Y-121813202D01*
X109274960Y-131566802D02*
X108645040Y-131566802D01*
X113725040Y-121813202D02*
X114354960Y-121813202D01*
X111814960Y-131566802D02*
X111185040Y-131566802D01*
X116265040Y-121813202D02*
X120694800Y-121813202D01*
X114354960Y-131566802D02*
X113725040Y-131566802D01*
X120694800Y-121813202D02*
X120694800Y-131566802D01*
X99765200Y-121813202D02*
X104194960Y-121813202D01*
X99765200Y-131566802D02*
X99765200Y-121813202D01*
X120694800Y-131566802D02*
X116265040Y-131566802D01*
D11*
%TO.C,J5*%
X86840000Y-174800000D02*
X87340000Y-174800000D01*
X86840000Y-175540000D02*
X86840000Y-174800000D01*
X93502000Y-179408000D02*
X93107000Y-179012000D01*
X96148000Y-182054000D02*
X95768000Y-181674000D01*
X93753000Y-179126000D02*
X93373000Y-178746000D01*
X96414000Y-181788000D02*
X96019000Y-181392000D01*
X88132000Y-179119000D02*
X88026000Y-179012000D01*
X91068000Y-182054000D02*
X90961000Y-181947000D01*
X88398000Y-178853000D02*
X88292000Y-178746000D01*
X91334000Y-181788000D02*
X91227000Y-181681000D01*
X97360000Y-186360000D02*
X97360000Y-175040000D01*
X87080000Y-186360000D02*
X87080000Y-175040000D01*
X87080000Y-175040000D02*
X97360000Y-175040000D01*
X87080000Y-186360000D02*
X97360000Y-186360000D01*
X87080000Y-184300000D02*
X97360000Y-184300000D01*
X87080000Y-178100000D02*
X97360000Y-178100000D01*
X87080000Y-175600000D02*
X97360000Y-175600000D01*
X96940000Y-180400000D02*
G75*
G03*
X96940000Y-180400000I-2180000J0D01*
G01*
X91860000Y-180400000D02*
G75*
G03*
X91860000Y-180400000I-2180000J0D01*
G01*
%TO.C,Q1*%
X104140000Y-174330000D02*
X105600000Y-174330000D01*
X104140000Y-171170000D02*
X106300000Y-171170000D01*
X104140000Y-171170000D02*
X104140000Y-172100000D01*
X104140000Y-174330000D02*
X104140000Y-173400000D01*
D14*
%TO.C,RV1*%
X46325000Y-121175000D02*
X50125000Y-121175000D01*
X50125000Y-124775000D02*
X46325000Y-124775000D01*
X50872000Y-121934000D02*
G75*
G03*
X50872000Y-121934000I-22000J0D01*
G01*
D11*
%TO.C,SW1*%
X132660000Y-151380000D02*
X130160000Y-151380000D01*
X134160000Y-153130000D02*
X134160000Y-155130000D01*
X132660000Y-156880000D02*
X130160000Y-156880000D01*
X128660000Y-153130000D02*
X128660000Y-155130000D01*
X133110000Y-151830000D02*
X132660000Y-151380000D01*
X129710000Y-151830000D02*
X130160000Y-151380000D01*
X129710000Y-156430000D02*
X130160000Y-156880000D01*
X133110000Y-156430000D02*
X132660000Y-156880000D01*
%TO.C,U1*%
X154270000Y-149650000D02*
X154270000Y-143640000D01*
X147450000Y-147400000D02*
X147450000Y-143640000D01*
X154270000Y-143640000D02*
X153010000Y-143640000D01*
X147450000Y-143640000D02*
X148710000Y-143640000D01*
%TO.C,U2*%
X56350000Y-141710000D02*
X53900000Y-141710000D01*
X54550000Y-138490000D02*
X56350000Y-138490000D01*
%TO.C,Y1*%
X118410000Y-152130000D02*
X118410000Y-152370000D01*
X116610000Y-152130000D02*
X118410000Y-152130000D01*
X118410000Y-148530000D02*
X116610000Y-148530000D01*
X114810000Y-149930000D02*
X114810000Y-150730000D01*
X120210000Y-150730000D02*
X120210000Y-149930000D01*
X120610000Y-150730000D02*
X120210000Y-150730000D01*
%TO.C,C1*%
X125510000Y-154406267D02*
X125510000Y-154063733D01*
X126530000Y-154406267D02*
X126530000Y-154063733D01*
%TO.C,C3*%
X121060000Y-150551267D02*
X121060000Y-150208733D01*
X122080000Y-150551267D02*
X122080000Y-150208733D01*
%TO.C,C6*%
X149370000Y-152353733D02*
X149370000Y-152696267D01*
X148350000Y-152353733D02*
X148350000Y-152696267D01*
%TO.C,C7*%
X113960000Y-150023733D02*
X113960000Y-150366267D01*
X112940000Y-150023733D02*
X112940000Y-150366267D01*
%TO.C,C8*%
X116233271Y-145339520D02*
X116475480Y-145581729D01*
X116954520Y-144618271D02*
X117196729Y-144860480D01*
%TO.C,C9*%
X116669520Y-140916729D02*
X116911729Y-140674520D01*
X115948271Y-140195480D02*
X116190480Y-139953271D01*
%TO.C,C10*%
X101820480Y-143753271D02*
X101578271Y-143995480D01*
X102541729Y-144474520D02*
X102299520Y-144716729D01*
%TO.C,C13*%
X177940000Y-144703733D02*
X177940000Y-145046267D01*
X178960000Y-144703733D02*
X178960000Y-145046267D01*
%TO.C,C14*%
X184003733Y-164310000D02*
X184346267Y-164310000D01*
X184003733Y-163290000D02*
X184346267Y-163290000D01*
%TO.C,C16*%
X187440000Y-163046267D02*
X187440000Y-162703733D01*
X188460000Y-163046267D02*
X188460000Y-162703733D01*
%TO.C,R1*%
X136290000Y-155206267D02*
X136290000Y-154863733D01*
X137310000Y-155206267D02*
X137310000Y-154863733D01*
%TO.C,R2*%
X117645480Y-144391729D02*
X117403271Y-144149520D01*
X118366729Y-143670480D02*
X118124520Y-143428271D01*
%TO.C,R3*%
X120738733Y-146230000D02*
X121081267Y-146230000D01*
X120738733Y-145210000D02*
X121081267Y-145210000D01*
%TO.C,R4*%
X97040000Y-133403733D02*
X97040000Y-133746267D01*
X98060000Y-133403733D02*
X98060000Y-133746267D01*
%TO.C,R5*%
X106950000Y-170996267D02*
X106950000Y-170653733D01*
X107970000Y-170996267D02*
X107970000Y-170653733D01*
%TO.C,R6*%
X184003733Y-162610000D02*
X184346267Y-162610000D01*
X184003733Y-161590000D02*
X184346267Y-161590000D01*
%TO.C,R7*%
X179840000Y-145046267D02*
X179840000Y-144703733D01*
X180860000Y-145046267D02*
X180860000Y-144703733D01*
%TO.C,R8*%
X186171267Y-139490000D02*
X185828733Y-139490000D01*
X186171267Y-140510000D02*
X185828733Y-140510000D01*
%TO.C,R9*%
X179590000Y-158746267D02*
X179590000Y-158403733D01*
X180610000Y-158746267D02*
X180610000Y-158403733D01*
%TO.C,R10*%
X193253733Y-162310000D02*
X193596267Y-162310000D01*
X193253733Y-161290000D02*
X193596267Y-161290000D01*
%TO.C,R11*%
X184003733Y-165240000D02*
X184346267Y-165240000D01*
X184003733Y-166260000D02*
X184346267Y-166260000D01*
%TO.C,D2*%
D10*
X99838095Y-53652380D02*
X99838095Y-52652380D01*
X99600000Y-52652380D01*
X99457142Y-52700000D01*
X99361904Y-52795238D01*
X99314285Y-52890476D01*
X99266666Y-53080952D01*
X99266666Y-53223809D01*
X99314285Y-53414285D01*
X99361904Y-53509523D01*
X99457142Y-53604761D01*
X99600000Y-53652380D01*
X99838095Y-53652380D01*
X98885714Y-52747619D02*
X98838095Y-52700000D01*
X98742857Y-52652380D01*
X98504761Y-52652380D01*
X98409523Y-52700000D01*
X98361904Y-52747619D01*
X98314285Y-52842857D01*
X98314285Y-52938095D01*
X98361904Y-53080952D01*
X98933333Y-53652380D01*
X98314285Y-53652380D01*
%TO.C,D3*%
X99838095Y-44852380D02*
X99838095Y-43852380D01*
X99600000Y-43852380D01*
X99457142Y-43900000D01*
X99361904Y-43995238D01*
X99314285Y-44090476D01*
X99266666Y-44280952D01*
X99266666Y-44423809D01*
X99314285Y-44614285D01*
X99361904Y-44709523D01*
X99457142Y-44804761D01*
X99600000Y-44852380D01*
X99838095Y-44852380D01*
X98933333Y-43852380D02*
X98314285Y-43852380D01*
X98647619Y-44233333D01*
X98504761Y-44233333D01*
X98409523Y-44280952D01*
X98361904Y-44328571D01*
X98314285Y-44423809D01*
X98314285Y-44661904D01*
X98361904Y-44757142D01*
X98409523Y-44804761D01*
X98504761Y-44852380D01*
X98790476Y-44852380D01*
X98885714Y-44804761D01*
X98933333Y-44757142D01*
%TO.C,J4*%
X183883333Y-177027380D02*
X183883333Y-177741666D01*
X183930952Y-177884523D01*
X184026190Y-177979761D01*
X184169047Y-178027380D01*
X184264285Y-178027380D01*
X182978571Y-177360714D02*
X182978571Y-178027380D01*
X183216666Y-176979761D02*
X183454761Y-177694047D01*
X182835714Y-177694047D01*
%TO.C,J6*%
X66522380Y-144496666D02*
X67236666Y-144496666D01*
X67379523Y-144449047D01*
X67474761Y-144353809D01*
X67522380Y-144210952D01*
X67522380Y-144115714D01*
X66522380Y-145401428D02*
X66522380Y-145210952D01*
X66570000Y-145115714D01*
X66617619Y-145068095D01*
X66760476Y-144972857D01*
X66950952Y-144925238D01*
X67331904Y-144925238D01*
X67427142Y-144972857D01*
X67474761Y-145020476D01*
X67522380Y-145115714D01*
X67522380Y-145306190D01*
X67474761Y-145401428D01*
X67427142Y-145449047D01*
X67331904Y-145496666D01*
X67093809Y-145496666D01*
X66998571Y-145449047D01*
X66950952Y-145401428D01*
X66903333Y-145306190D01*
X66903333Y-145115714D01*
X66950952Y-145020476D01*
X66998571Y-144972857D01*
X67093809Y-144925238D01*
%TO.C,U3*%
X111025973Y-136901522D02*
X110453553Y-137473942D01*
X110352538Y-137507614D01*
X110285194Y-137507614D01*
X110184179Y-137473942D01*
X110049492Y-137339255D01*
X110015820Y-137238240D01*
X110015820Y-137170896D01*
X110049492Y-137069881D01*
X110621912Y-136497461D01*
X110352538Y-136228087D02*
X109914805Y-135790355D01*
X109881133Y-136295431D01*
X109780118Y-136194416D01*
X109679103Y-136160744D01*
X109611759Y-136160744D01*
X109510744Y-136194416D01*
X109342385Y-136362774D01*
X109308713Y-136463790D01*
X109308713Y-136531133D01*
X109342385Y-136632148D01*
X109544416Y-136834179D01*
X109645431Y-136867851D01*
X109712774Y-136867851D01*
%TO.C,J3*%
X63883333Y-120452380D02*
X63883333Y-121166666D01*
X63930952Y-121309523D01*
X64026190Y-121404761D01*
X64169047Y-121452380D01*
X64264285Y-121452380D01*
X63502380Y-120452380D02*
X62883333Y-120452380D01*
X63216666Y-120833333D01*
X63073809Y-120833333D01*
X62978571Y-120880952D01*
X62930952Y-120928571D01*
X62883333Y-121023809D01*
X62883333Y-121261904D01*
X62930952Y-121357142D01*
X62978571Y-121404761D01*
X63073809Y-121452380D01*
X63359523Y-121452380D01*
X63454761Y-121404761D01*
X63502380Y-121357142D01*
%TO.C,Q2*%
X106447619Y-183604761D02*
X106400000Y-183509523D01*
X106304761Y-183414285D01*
X106161904Y-183271428D01*
X106114285Y-183176190D01*
X106114285Y-183080952D01*
X106352380Y-183128571D02*
X106304761Y-183033333D01*
X106209523Y-182938095D01*
X106019047Y-182890476D01*
X105685714Y-182890476D01*
X105495238Y-182938095D01*
X105400000Y-183033333D01*
X105352380Y-183128571D01*
X105352380Y-183319047D01*
X105400000Y-183414285D01*
X105495238Y-183509523D01*
X105685714Y-183557142D01*
X106019047Y-183557142D01*
X106209523Y-183509523D01*
X106304761Y-183414285D01*
X106352380Y-183319047D01*
X106352380Y-183128571D01*
X105447619Y-183938095D02*
X105400000Y-183985714D01*
X105352380Y-184080952D01*
X105352380Y-184319047D01*
X105400000Y-184414285D01*
X105447619Y-184461904D01*
X105542857Y-184509523D01*
X105638095Y-184509523D01*
X105780952Y-184461904D01*
X106352380Y-183890476D01*
X106352380Y-184509523D01*
%TO.C,C5*%
X105677944Y-135254806D02*
X105745287Y-135254806D01*
X105879974Y-135187462D01*
X105947318Y-135120119D01*
X106014661Y-134985431D01*
X106014661Y-134850744D01*
X105980990Y-134749729D01*
X105879974Y-134581370D01*
X105778959Y-134480355D01*
X105610600Y-134379340D01*
X105509585Y-134345668D01*
X105374898Y-134345668D01*
X105240211Y-134413012D01*
X105172867Y-134480355D01*
X105105524Y-134615042D01*
X105105524Y-134682386D01*
X104398417Y-135254806D02*
X104735135Y-134918088D01*
X105105524Y-135221134D01*
X105038180Y-135221134D01*
X104937165Y-135254806D01*
X104768806Y-135423164D01*
X104735135Y-135524180D01*
X104735135Y-135591523D01*
X104768806Y-135692538D01*
X104937165Y-135860897D01*
X105038180Y-135894569D01*
X105105524Y-135894569D01*
X105206539Y-135860897D01*
X105374898Y-135692538D01*
X105408570Y-135591523D01*
X105408570Y-135524180D01*
%TO.C,C15*%
X103157142Y-157957142D02*
X103204761Y-157909523D01*
X103252380Y-157766666D01*
X103252380Y-157671428D01*
X103204761Y-157528571D01*
X103109523Y-157433333D01*
X103014285Y-157385714D01*
X102823809Y-157338095D01*
X102680952Y-157338095D01*
X102490476Y-157385714D01*
X102395238Y-157433333D01*
X102300000Y-157528571D01*
X102252380Y-157671428D01*
X102252380Y-157766666D01*
X102300000Y-157909523D01*
X102347619Y-157957142D01*
X103252380Y-158909523D02*
X103252380Y-158338095D01*
X103252380Y-158623809D02*
X102252380Y-158623809D01*
X102395238Y-158528571D01*
X102490476Y-158433333D01*
X102538095Y-158338095D01*
X102252380Y-159814285D02*
X102252380Y-159338095D01*
X102728571Y-159290476D01*
X102680952Y-159338095D01*
X102633333Y-159433333D01*
X102633333Y-159671428D01*
X102680952Y-159766666D01*
X102728571Y-159814285D01*
X102823809Y-159861904D01*
X103061904Y-159861904D01*
X103157142Y-159814285D01*
X103204761Y-159766666D01*
X103252380Y-159671428D01*
X103252380Y-159433333D01*
X103204761Y-159338095D01*
X103157142Y-159290476D01*
%TO.C,C12*%
X100067142Y-153947142D02*
X100114761Y-153899523D01*
X100162380Y-153756666D01*
X100162380Y-153661428D01*
X100114761Y-153518571D01*
X100019523Y-153423333D01*
X99924285Y-153375714D01*
X99733809Y-153328095D01*
X99590952Y-153328095D01*
X99400476Y-153375714D01*
X99305238Y-153423333D01*
X99210000Y-153518571D01*
X99162380Y-153661428D01*
X99162380Y-153756666D01*
X99210000Y-153899523D01*
X99257619Y-153947142D01*
X100162380Y-154899523D02*
X100162380Y-154328095D01*
X100162380Y-154613809D02*
X99162380Y-154613809D01*
X99305238Y-154518571D01*
X99400476Y-154423333D01*
X99448095Y-154328095D01*
X99257619Y-155280476D02*
X99210000Y-155328095D01*
X99162380Y-155423333D01*
X99162380Y-155661428D01*
X99210000Y-155756666D01*
X99257619Y-155804285D01*
X99352857Y-155851904D01*
X99448095Y-155851904D01*
X99590952Y-155804285D01*
X100162380Y-155232857D01*
X100162380Y-155851904D01*
%TO.C,U4*%
X105901904Y-151042380D02*
X105901904Y-151851904D01*
X105854285Y-151947142D01*
X105806666Y-151994761D01*
X105711428Y-152042380D01*
X105520952Y-152042380D01*
X105425714Y-151994761D01*
X105378095Y-151947142D01*
X105330476Y-151851904D01*
X105330476Y-151042380D01*
X104425714Y-151375714D02*
X104425714Y-152042380D01*
X104663809Y-150994761D02*
X104901904Y-151709047D01*
X104282857Y-151709047D01*
%TO.C,C2*%
X123873802Y-147622331D02*
X123873802Y-147689674D01*
X123941146Y-147824361D01*
X124008490Y-147891705D01*
X124143177Y-147959048D01*
X124277864Y-147959048D01*
X124378879Y-147925377D01*
X124547238Y-147824361D01*
X124648253Y-147723346D01*
X124749268Y-147554987D01*
X124782940Y-147453972D01*
X124782940Y-147319285D01*
X124715596Y-147184598D01*
X124648253Y-147117254D01*
X124513566Y-147049911D01*
X124446222Y-147049911D01*
X124176848Y-146780537D02*
X124176848Y-146713193D01*
X124143177Y-146612178D01*
X123974818Y-146443819D01*
X123873802Y-146410148D01*
X123806459Y-146410148D01*
X123705444Y-146443819D01*
X123638100Y-146511163D01*
X123570757Y-146645850D01*
X123570757Y-147453972D01*
X123133024Y-147016239D01*
%TO.C,C4*%
X144607142Y-151783333D02*
X144654761Y-151735714D01*
X144702380Y-151592857D01*
X144702380Y-151497619D01*
X144654761Y-151354761D01*
X144559523Y-151259523D01*
X144464285Y-151211904D01*
X144273809Y-151164285D01*
X144130952Y-151164285D01*
X143940476Y-151211904D01*
X143845238Y-151259523D01*
X143750000Y-151354761D01*
X143702380Y-151497619D01*
X143702380Y-151592857D01*
X143750000Y-151735714D01*
X143797619Y-151783333D01*
X144035714Y-152640476D02*
X144702380Y-152640476D01*
X143654761Y-152402380D02*
X144369047Y-152164285D01*
X144369047Y-152783333D01*
%TO.C,C11*%
X149692857Y-138407142D02*
X149740476Y-138454761D01*
X149883333Y-138502380D01*
X149978571Y-138502380D01*
X150121428Y-138454761D01*
X150216666Y-138359523D01*
X150264285Y-138264285D01*
X150311904Y-138073809D01*
X150311904Y-137930952D01*
X150264285Y-137740476D01*
X150216666Y-137645238D01*
X150121428Y-137550000D01*
X149978571Y-137502380D01*
X149883333Y-137502380D01*
X149740476Y-137550000D01*
X149692857Y-137597619D01*
X148740476Y-138502380D02*
X149311904Y-138502380D01*
X149026190Y-138502380D02*
X149026190Y-137502380D01*
X149121428Y-137645238D01*
X149216666Y-137740476D01*
X149311904Y-137788095D01*
X147788095Y-138502380D02*
X148359523Y-138502380D01*
X148073809Y-138502380D02*
X148073809Y-137502380D01*
X148169047Y-137645238D01*
X148264285Y-137740476D01*
X148359523Y-137788095D01*
%TO.C,D1*%
X122088095Y-141052380D02*
X122088095Y-140052380D01*
X121850000Y-140052380D01*
X121707142Y-140100000D01*
X121611904Y-140195238D01*
X121564285Y-140290476D01*
X121516666Y-140480952D01*
X121516666Y-140623809D01*
X121564285Y-140814285D01*
X121611904Y-140909523D01*
X121707142Y-141004761D01*
X121850000Y-141052380D01*
X122088095Y-141052380D01*
X120564285Y-141052380D02*
X121135714Y-141052380D01*
X120850000Y-141052380D02*
X120850000Y-140052380D01*
X120945238Y-140195238D01*
X121040476Y-140290476D01*
X121135714Y-140338095D01*
%TO.C,D2*%
X96963095Y-170527380D02*
X96963095Y-169527380D01*
X96725000Y-169527380D01*
X96582142Y-169575000D01*
X96486904Y-169670238D01*
X96439285Y-169765476D01*
X96391666Y-169955952D01*
X96391666Y-170098809D01*
X96439285Y-170289285D01*
X96486904Y-170384523D01*
X96582142Y-170479761D01*
X96725000Y-170527380D01*
X96963095Y-170527380D01*
X96010714Y-169622619D02*
X95963095Y-169575000D01*
X95867857Y-169527380D01*
X95629761Y-169527380D01*
X95534523Y-169575000D01*
X95486904Y-169622619D01*
X95439285Y-169717857D01*
X95439285Y-169813095D01*
X95486904Y-169955952D01*
X96058333Y-170527380D01*
X95439285Y-170527380D01*
%TO.C,FB1*%
X45703571Y-135016666D02*
X45703571Y-134683333D01*
X46227380Y-134683333D02*
X45227380Y-134683333D01*
X45227380Y-135159523D01*
X45703571Y-135873809D02*
X45751190Y-136016666D01*
X45798809Y-136064285D01*
X45894047Y-136111904D01*
X46036904Y-136111904D01*
X46132142Y-136064285D01*
X46179761Y-136016666D01*
X46227380Y-135921428D01*
X46227380Y-135540476D01*
X45227380Y-135540476D01*
X45227380Y-135873809D01*
X45275000Y-135969047D01*
X45322619Y-136016666D01*
X45417857Y-136064285D01*
X45513095Y-136064285D01*
X45608333Y-136016666D01*
X45655952Y-135969047D01*
X45703571Y-135873809D01*
X45703571Y-135540476D01*
X46227380Y-137064285D02*
X46227380Y-136492857D01*
X46227380Y-136778571D02*
X45227380Y-136778571D01*
X45370238Y-136683333D01*
X45465476Y-136588095D01*
X45513095Y-136492857D01*
%TO.C,FB2*%
X113833333Y-154778571D02*
X114166666Y-154778571D01*
X114166666Y-155302380D02*
X114166666Y-154302380D01*
X113690476Y-154302380D01*
X112976190Y-154778571D02*
X112833333Y-154826190D01*
X112785714Y-154873809D01*
X112738095Y-154969047D01*
X112738095Y-155111904D01*
X112785714Y-155207142D01*
X112833333Y-155254761D01*
X112928571Y-155302380D01*
X113309523Y-155302380D01*
X113309523Y-154302380D01*
X112976190Y-154302380D01*
X112880952Y-154350000D01*
X112833333Y-154397619D01*
X112785714Y-154492857D01*
X112785714Y-154588095D01*
X112833333Y-154683333D01*
X112880952Y-154730952D01*
X112976190Y-154778571D01*
X113309523Y-154778571D01*
X112357142Y-154397619D02*
X112309523Y-154350000D01*
X112214285Y-154302380D01*
X111976190Y-154302380D01*
X111880952Y-154350000D01*
X111833333Y-154397619D01*
X111785714Y-154492857D01*
X111785714Y-154588095D01*
X111833333Y-154730952D01*
X112404761Y-155302380D01*
X111785714Y-155302380D01*
%TO.C,FB3*%
X113333333Y-117528571D02*
X113666666Y-117528571D01*
X113666666Y-118052380D02*
X113666666Y-117052380D01*
X113190476Y-117052380D01*
X112476190Y-117528571D02*
X112333333Y-117576190D01*
X112285714Y-117623809D01*
X112238095Y-117719047D01*
X112238095Y-117861904D01*
X112285714Y-117957142D01*
X112333333Y-118004761D01*
X112428571Y-118052380D01*
X112809523Y-118052380D01*
X112809523Y-117052380D01*
X112476190Y-117052380D01*
X112380952Y-117100000D01*
X112333333Y-117147619D01*
X112285714Y-117242857D01*
X112285714Y-117338095D01*
X112333333Y-117433333D01*
X112380952Y-117480952D01*
X112476190Y-117528571D01*
X112809523Y-117528571D01*
X111904761Y-117052380D02*
X111285714Y-117052380D01*
X111619047Y-117433333D01*
X111476190Y-117433333D01*
X111380952Y-117480952D01*
X111333333Y-117528571D01*
X111285714Y-117623809D01*
X111285714Y-117861904D01*
X111333333Y-117957142D01*
X111380952Y-118004761D01*
X111476190Y-118052380D01*
X111761904Y-118052380D01*
X111857142Y-118004761D01*
X111904761Y-117957142D01*
%TO.C,J2*%
X122833333Y-119452380D02*
X122833333Y-120166666D01*
X122880952Y-120309523D01*
X122976190Y-120404761D01*
X123119047Y-120452380D01*
X123214285Y-120452380D01*
X122404761Y-119547619D02*
X122357142Y-119500000D01*
X122261904Y-119452380D01*
X122023809Y-119452380D01*
X121928571Y-119500000D01*
X121880952Y-119547619D01*
X121833333Y-119642857D01*
X121833333Y-119738095D01*
X121880952Y-119880952D01*
X122452380Y-120452380D01*
X121833333Y-120452380D01*
X98452380Y-119373809D02*
X97452380Y-119373809D01*
X97452380Y-119754761D01*
X97500000Y-119850000D01*
X97547619Y-119897619D01*
X97642857Y-119945238D01*
X97785714Y-119945238D01*
X97880952Y-119897619D01*
X97928571Y-119850000D01*
X97976190Y-119754761D01*
X97976190Y-119373809D01*
X98452380Y-120373809D02*
X97785714Y-120373809D01*
X97976190Y-120373809D02*
X97880952Y-120421428D01*
X97833333Y-120469047D01*
X97785714Y-120564285D01*
X97785714Y-120659523D01*
X98452380Y-121135714D02*
X98404761Y-121040476D01*
X98357142Y-120992857D01*
X98261904Y-120945238D01*
X97976190Y-120945238D01*
X97880952Y-120992857D01*
X97833333Y-121040476D01*
X97785714Y-121135714D01*
X97785714Y-121278571D01*
X97833333Y-121373809D01*
X97880952Y-121421428D01*
X97976190Y-121469047D01*
X98261904Y-121469047D01*
X98357142Y-121421428D01*
X98404761Y-121373809D01*
X98452380Y-121278571D01*
X98452380Y-121135714D01*
X97785714Y-122326190D02*
X98595238Y-122326190D01*
X98690476Y-122278571D01*
X98738095Y-122230952D01*
X98785714Y-122135714D01*
X98785714Y-121992857D01*
X98738095Y-121897619D01*
X98404761Y-122326190D02*
X98452380Y-122230952D01*
X98452380Y-122040476D01*
X98404761Y-121945238D01*
X98357142Y-121897619D01*
X98261904Y-121850000D01*
X97976190Y-121850000D01*
X97880952Y-121897619D01*
X97833333Y-121945238D01*
X97785714Y-122040476D01*
X97785714Y-122230952D01*
X97833333Y-122326190D01*
X97404761Y-123516666D02*
X98690476Y-122659523D01*
X98452380Y-123850000D02*
X97452380Y-123850000D01*
X97452380Y-124088095D01*
X97500000Y-124230952D01*
X97595238Y-124326190D01*
X97690476Y-124373809D01*
X97880952Y-124421428D01*
X98023809Y-124421428D01*
X98214285Y-124373809D01*
X98309523Y-124326190D01*
X98404761Y-124230952D01*
X98452380Y-124088095D01*
X98452380Y-123850000D01*
X98404761Y-125230952D02*
X98452380Y-125135714D01*
X98452380Y-124945238D01*
X98404761Y-124850000D01*
X98309523Y-124802380D01*
X97928571Y-124802380D01*
X97833333Y-124850000D01*
X97785714Y-124945238D01*
X97785714Y-125135714D01*
X97833333Y-125230952D01*
X97928571Y-125278571D01*
X98023809Y-125278571D01*
X98119047Y-124802380D01*
X98452380Y-125707142D02*
X97452380Y-125707142D01*
X97833333Y-125707142D02*
X97785714Y-125802380D01*
X97785714Y-125992857D01*
X97833333Y-126088095D01*
X97880952Y-126135714D01*
X97976190Y-126183333D01*
X98261904Y-126183333D01*
X98357142Y-126135714D01*
X98404761Y-126088095D01*
X98452380Y-125992857D01*
X98452380Y-125802380D01*
X98404761Y-125707142D01*
X97785714Y-127040476D02*
X98452380Y-127040476D01*
X97785714Y-126611904D02*
X98309523Y-126611904D01*
X98404761Y-126659523D01*
X98452380Y-126754761D01*
X98452380Y-126897619D01*
X98404761Y-126992857D01*
X98357142Y-127040476D01*
X97785714Y-127945238D02*
X98595238Y-127945238D01*
X98690476Y-127897619D01*
X98738095Y-127850000D01*
X98785714Y-127754761D01*
X98785714Y-127611904D01*
X98738095Y-127516666D01*
X98404761Y-127945238D02*
X98452380Y-127850000D01*
X98452380Y-127659523D01*
X98404761Y-127564285D01*
X98357142Y-127516666D01*
X98261904Y-127469047D01*
X97976190Y-127469047D01*
X97880952Y-127516666D01*
X97833333Y-127564285D01*
X97785714Y-127659523D01*
X97785714Y-127850000D01*
X97833333Y-127945238D01*
X97785714Y-128850000D02*
X98595238Y-128850000D01*
X98690476Y-128802380D01*
X98738095Y-128754761D01*
X98785714Y-128659523D01*
X98785714Y-128516666D01*
X98738095Y-128421428D01*
X98404761Y-128850000D02*
X98452380Y-128754761D01*
X98452380Y-128564285D01*
X98404761Y-128469047D01*
X98357142Y-128421428D01*
X98261904Y-128373809D01*
X97976190Y-128373809D01*
X97880952Y-128421428D01*
X97833333Y-128469047D01*
X97785714Y-128564285D01*
X97785714Y-128754761D01*
X97833333Y-128850000D01*
X98404761Y-129707142D02*
X98452380Y-129611904D01*
X98452380Y-129421428D01*
X98404761Y-129326190D01*
X98309523Y-129278571D01*
X97928571Y-129278571D01*
X97833333Y-129326190D01*
X97785714Y-129421428D01*
X97785714Y-129611904D01*
X97833333Y-129707142D01*
X97928571Y-129754761D01*
X98023809Y-129754761D01*
X98119047Y-129278571D01*
X98452380Y-130183333D02*
X97785714Y-130183333D01*
X97976190Y-130183333D02*
X97880952Y-130230952D01*
X97833333Y-130278571D01*
X97785714Y-130373809D01*
X97785714Y-130469047D01*
X110230000Y-126142382D02*
X110230000Y-126380478D01*
X110468095Y-126285240D02*
X110230000Y-126380478D01*
X109991904Y-126285240D01*
X110372857Y-126570954D02*
X110230000Y-126380478D01*
X110087142Y-126570954D01*
%TO.C,J5*%
X84608333Y-175102380D02*
X84608333Y-175816666D01*
X84655952Y-175959523D01*
X84751190Y-176054761D01*
X84894047Y-176102380D01*
X84989285Y-176102380D01*
X83655952Y-175102380D02*
X84132142Y-175102380D01*
X84179761Y-175578571D01*
X84132142Y-175530952D01*
X84036904Y-175483333D01*
X83798809Y-175483333D01*
X83703571Y-175530952D01*
X83655952Y-175578571D01*
X83608333Y-175673809D01*
X83608333Y-175911904D01*
X83655952Y-176007142D01*
X83703571Y-176054761D01*
X83798809Y-176102380D01*
X84036904Y-176102380D01*
X84132142Y-176054761D01*
X84179761Y-176007142D01*
%TO.C,J7*%
X179583333Y-121102380D02*
X179583333Y-121816666D01*
X179630952Y-121959523D01*
X179726190Y-122054761D01*
X179869047Y-122102380D01*
X179964285Y-122102380D01*
X179202380Y-121102380D02*
X178535714Y-121102380D01*
X178964285Y-122102380D01*
%TO.C,Q1*%
X105477619Y-169904761D02*
X105430000Y-169809523D01*
X105334761Y-169714285D01*
X105191904Y-169571428D01*
X105144285Y-169476190D01*
X105144285Y-169380952D01*
X105382380Y-169428571D02*
X105334761Y-169333333D01*
X105239523Y-169238095D01*
X105049047Y-169190476D01*
X104715714Y-169190476D01*
X104525238Y-169238095D01*
X104430000Y-169333333D01*
X104382380Y-169428571D01*
X104382380Y-169619047D01*
X104430000Y-169714285D01*
X104525238Y-169809523D01*
X104715714Y-169857142D01*
X105049047Y-169857142D01*
X105239523Y-169809523D01*
X105334761Y-169714285D01*
X105382380Y-169619047D01*
X105382380Y-169428571D01*
X105382380Y-170809523D02*
X105382380Y-170238095D01*
X105382380Y-170523809D02*
X104382380Y-170523809D01*
X104525238Y-170428571D01*
X104620476Y-170333333D01*
X104668095Y-170238095D01*
%TO.C,RV1*%
D15*
X49480952Y-126224523D02*
X49904285Y-125619761D01*
X50206666Y-126224523D02*
X50206666Y-124954523D01*
X49722857Y-124954523D01*
X49601904Y-125015000D01*
X49541428Y-125075476D01*
X49480952Y-125196428D01*
X49480952Y-125377857D01*
X49541428Y-125498809D01*
X49601904Y-125559285D01*
X49722857Y-125619761D01*
X50206666Y-125619761D01*
X49118095Y-124954523D02*
X48694761Y-126224523D01*
X48271428Y-124954523D01*
X47182857Y-126224523D02*
X47908571Y-126224523D01*
X47545714Y-126224523D02*
X47545714Y-124954523D01*
X47666666Y-125135952D01*
X47787619Y-125256904D01*
X47908571Y-125317380D01*
%TO.C,SW1*%
D10*
X132743333Y-150784761D02*
X132600476Y-150832380D01*
X132362380Y-150832380D01*
X132267142Y-150784761D01*
X132219523Y-150737142D01*
X132171904Y-150641904D01*
X132171904Y-150546666D01*
X132219523Y-150451428D01*
X132267142Y-150403809D01*
X132362380Y-150356190D01*
X132552857Y-150308571D01*
X132648095Y-150260952D01*
X132695714Y-150213333D01*
X132743333Y-150118095D01*
X132743333Y-150022857D01*
X132695714Y-149927619D01*
X132648095Y-149880000D01*
X132552857Y-149832380D01*
X132314761Y-149832380D01*
X132171904Y-149880000D01*
X131838571Y-149832380D02*
X131600476Y-150832380D01*
X131410000Y-150118095D01*
X131219523Y-150832380D01*
X130981428Y-149832380D01*
X130076666Y-150832380D02*
X130648095Y-150832380D01*
X130362380Y-150832380D02*
X130362380Y-149832380D01*
X130457619Y-149975238D01*
X130552857Y-150070476D01*
X130648095Y-150118095D01*
%TO.C,U1*%
X154086904Y-139452380D02*
X154086904Y-140261904D01*
X154039285Y-140357142D01*
X153991666Y-140404761D01*
X153896428Y-140452380D01*
X153705952Y-140452380D01*
X153610714Y-140404761D01*
X153563095Y-140357142D01*
X153515476Y-140261904D01*
X153515476Y-139452380D01*
X152515476Y-140452380D02*
X153086904Y-140452380D01*
X152801190Y-140452380D02*
X152801190Y-139452380D01*
X152896428Y-139595238D01*
X152991666Y-139690476D01*
X153086904Y-139738095D01*
%TO.C,U2*%
X56211904Y-136452380D02*
X56211904Y-137261904D01*
X56164285Y-137357142D01*
X56116666Y-137404761D01*
X56021428Y-137452380D01*
X55830952Y-137452380D01*
X55735714Y-137404761D01*
X55688095Y-137357142D01*
X55640476Y-137261904D01*
X55640476Y-136452380D01*
X55211904Y-136547619D02*
X55164285Y-136500000D01*
X55069047Y-136452380D01*
X54830952Y-136452380D01*
X54735714Y-136500000D01*
X54688095Y-136547619D01*
X54640476Y-136642857D01*
X54640476Y-136738095D01*
X54688095Y-136880952D01*
X55259523Y-137452380D01*
X54640476Y-137452380D01*
%TO.C,Y1*%
X119326190Y-153176190D02*
X119326190Y-153652380D01*
X119659523Y-152652380D02*
X119326190Y-153176190D01*
X118992857Y-152652380D01*
X118135714Y-153652380D02*
X118707142Y-153652380D01*
X118421428Y-153652380D02*
X118421428Y-152652380D01*
X118516666Y-152795238D01*
X118611904Y-152890476D01*
X118707142Y-152938095D01*
%TO.C,C1*%
X125007142Y-153933333D02*
X125054761Y-153885714D01*
X125102380Y-153742857D01*
X125102380Y-153647619D01*
X125054761Y-153504761D01*
X124959523Y-153409523D01*
X124864285Y-153361904D01*
X124673809Y-153314285D01*
X124530952Y-153314285D01*
X124340476Y-153361904D01*
X124245238Y-153409523D01*
X124150000Y-153504761D01*
X124102380Y-153647619D01*
X124102380Y-153742857D01*
X124150000Y-153885714D01*
X124197619Y-153933333D01*
X125102380Y-154885714D02*
X125102380Y-154314285D01*
X125102380Y-154600000D02*
X124102380Y-154600000D01*
X124245238Y-154504761D01*
X124340476Y-154409523D01*
X124388095Y-154314285D01*
%TO.C,C3*%
X123357142Y-150213333D02*
X123404761Y-150165714D01*
X123452380Y-150022857D01*
X123452380Y-149927619D01*
X123404761Y-149784761D01*
X123309523Y-149689523D01*
X123214285Y-149641904D01*
X123023809Y-149594285D01*
X122880952Y-149594285D01*
X122690476Y-149641904D01*
X122595238Y-149689523D01*
X122500000Y-149784761D01*
X122452380Y-149927619D01*
X122452380Y-150022857D01*
X122500000Y-150165714D01*
X122547619Y-150213333D01*
X122452380Y-150546666D02*
X122452380Y-151165714D01*
X122833333Y-150832380D01*
X122833333Y-150975238D01*
X122880952Y-151070476D01*
X122928571Y-151118095D01*
X123023809Y-151165714D01*
X123261904Y-151165714D01*
X123357142Y-151118095D01*
X123404761Y-151070476D01*
X123452380Y-150975238D01*
X123452380Y-150689523D01*
X123404761Y-150594285D01*
X123357142Y-150546666D01*
%TO.C,C6*%
X148966666Y-155157142D02*
X149014285Y-155204761D01*
X149157142Y-155252380D01*
X149252380Y-155252380D01*
X149395238Y-155204761D01*
X149490476Y-155109523D01*
X149538095Y-155014285D01*
X149585714Y-154823809D01*
X149585714Y-154680952D01*
X149538095Y-154490476D01*
X149490476Y-154395238D01*
X149395238Y-154300000D01*
X149252380Y-154252380D01*
X149157142Y-154252380D01*
X149014285Y-154300000D01*
X148966666Y-154347619D01*
X148109523Y-154252380D02*
X148300000Y-154252380D01*
X148395238Y-154300000D01*
X148442857Y-154347619D01*
X148538095Y-154490476D01*
X148585714Y-154680952D01*
X148585714Y-155061904D01*
X148538095Y-155157142D01*
X148490476Y-155204761D01*
X148395238Y-155252380D01*
X148204761Y-155252380D01*
X148109523Y-155204761D01*
X148061904Y-155157142D01*
X148014285Y-155061904D01*
X148014285Y-154823809D01*
X148061904Y-154728571D01*
X148109523Y-154680952D01*
X148204761Y-154633333D01*
X148395238Y-154633333D01*
X148490476Y-154680952D01*
X148538095Y-154728571D01*
X148585714Y-154823809D01*
%TO.C,C7*%
X112607142Y-149483333D02*
X112654761Y-149435714D01*
X112702380Y-149292857D01*
X112702380Y-149197619D01*
X112654761Y-149054761D01*
X112559523Y-148959523D01*
X112464285Y-148911904D01*
X112273809Y-148864285D01*
X112130952Y-148864285D01*
X111940476Y-148911904D01*
X111845238Y-148959523D01*
X111750000Y-149054761D01*
X111702380Y-149197619D01*
X111702380Y-149292857D01*
X111750000Y-149435714D01*
X111797619Y-149483333D01*
X111702380Y-149816666D02*
X111702380Y-150483333D01*
X112702380Y-150054761D01*
%TO.C,C8*%
X115569149Y-146481552D02*
X115569149Y-146548895D01*
X115636493Y-146683582D01*
X115703837Y-146750926D01*
X115838524Y-146818269D01*
X115973211Y-146818269D01*
X116074226Y-146784598D01*
X116242585Y-146683582D01*
X116343600Y-146582567D01*
X116444615Y-146414208D01*
X116478287Y-146313193D01*
X116478287Y-146178506D01*
X116410943Y-146043819D01*
X116343600Y-145976475D01*
X116208913Y-145909132D01*
X116141569Y-145909132D01*
X115501806Y-145740773D02*
X115602821Y-145774445D01*
X115670165Y-145774445D01*
X115771180Y-145740773D01*
X115804852Y-145707101D01*
X115838524Y-145606086D01*
X115838524Y-145538743D01*
X115804852Y-145437727D01*
X115670165Y-145303040D01*
X115569149Y-145269369D01*
X115501806Y-145269369D01*
X115400791Y-145303040D01*
X115367119Y-145336712D01*
X115333447Y-145437727D01*
X115333447Y-145505071D01*
X115367119Y-145606086D01*
X115501806Y-145740773D01*
X115535478Y-145841788D01*
X115535478Y-145909132D01*
X115501806Y-146010147D01*
X115367119Y-146144834D01*
X115266104Y-146178506D01*
X115198760Y-146178506D01*
X115097745Y-146144834D01*
X114963058Y-146010147D01*
X114929386Y-145909132D01*
X114929386Y-145841788D01*
X114963058Y-145740773D01*
X115097745Y-145606086D01*
X115198760Y-145572414D01*
X115266104Y-145572414D01*
X115367119Y-145606086D01*
%TO.C,C9*%
X115870389Y-139784687D02*
X115937732Y-139784687D01*
X116072419Y-139717343D01*
X116139763Y-139650000D01*
X116207106Y-139515312D01*
X116207106Y-139380625D01*
X116173435Y-139279610D01*
X116072419Y-139111251D01*
X115971404Y-139010236D01*
X115803045Y-138909221D01*
X115702030Y-138875549D01*
X115567343Y-138875549D01*
X115432656Y-138942893D01*
X115365312Y-139010236D01*
X115297969Y-139144923D01*
X115297969Y-139212267D01*
X115601015Y-140188748D02*
X115466328Y-140323435D01*
X115365312Y-140357106D01*
X115297969Y-140357106D01*
X115129610Y-140323435D01*
X114961251Y-140222419D01*
X114691877Y-139953045D01*
X114658206Y-139852030D01*
X114658206Y-139784687D01*
X114691877Y-139683671D01*
X114826564Y-139548984D01*
X114927580Y-139515312D01*
X114994923Y-139515312D01*
X115095938Y-139548984D01*
X115264297Y-139717343D01*
X115297969Y-139818358D01*
X115297969Y-139885702D01*
X115264297Y-139986717D01*
X115129610Y-140121404D01*
X115028595Y-140155076D01*
X114961251Y-140155076D01*
X114860236Y-140121404D01*
%TO.C,C10*%
X101755943Y-143021806D02*
X101823287Y-143021806D01*
X101957974Y-142954462D01*
X102025317Y-142887119D01*
X102092661Y-142752432D01*
X102092661Y-142617745D01*
X102058989Y-142516730D01*
X101957974Y-142348371D01*
X101856959Y-142247356D01*
X101688600Y-142146340D01*
X101587585Y-142112669D01*
X101452898Y-142112669D01*
X101318211Y-142180012D01*
X101250867Y-142247356D01*
X101183524Y-142382043D01*
X101183524Y-142449386D01*
X101149852Y-143762585D02*
X101553913Y-143358524D01*
X101351882Y-143560554D02*
X100644775Y-142853447D01*
X100813134Y-142887119D01*
X100947821Y-142887119D01*
X101048836Y-142853447D01*
X100005012Y-143493211D02*
X99937669Y-143560554D01*
X99903997Y-143661569D01*
X99903997Y-143728913D01*
X99937669Y-143829928D01*
X100038684Y-143998287D01*
X100207043Y-144166646D01*
X100375401Y-144267661D01*
X100476417Y-144301333D01*
X100543760Y-144301333D01*
X100644775Y-144267661D01*
X100712119Y-144200317D01*
X100745791Y-144099302D01*
X100745791Y-144031959D01*
X100712119Y-143930943D01*
X100611104Y-143762585D01*
X100442745Y-143594226D01*
X100274386Y-143493211D01*
X100173371Y-143459539D01*
X100106027Y-143459539D01*
X100005012Y-143493211D01*
%TO.C,C13*%
X177157142Y-144407142D02*
X177204761Y-144359523D01*
X177252380Y-144216666D01*
X177252380Y-144121428D01*
X177204761Y-143978571D01*
X177109523Y-143883333D01*
X177014285Y-143835714D01*
X176823809Y-143788095D01*
X176680952Y-143788095D01*
X176490476Y-143835714D01*
X176395238Y-143883333D01*
X176300000Y-143978571D01*
X176252380Y-144121428D01*
X176252380Y-144216666D01*
X176300000Y-144359523D01*
X176347619Y-144407142D01*
X177252380Y-145359523D02*
X177252380Y-144788095D01*
X177252380Y-145073809D02*
X176252380Y-145073809D01*
X176395238Y-144978571D01*
X176490476Y-144883333D01*
X176538095Y-144788095D01*
X176252380Y-145692857D02*
X176252380Y-146311904D01*
X176633333Y-145978571D01*
X176633333Y-146121428D01*
X176680952Y-146216666D01*
X176728571Y-146264285D01*
X176823809Y-146311904D01*
X177061904Y-146311904D01*
X177157142Y-146264285D01*
X177204761Y-146216666D01*
X177252380Y-146121428D01*
X177252380Y-145835714D01*
X177204761Y-145740476D01*
X177157142Y-145692857D01*
%TO.C,C14*%
X181742857Y-164357142D02*
X181790476Y-164404761D01*
X181933333Y-164452380D01*
X182028571Y-164452380D01*
X182171428Y-164404761D01*
X182266666Y-164309523D01*
X182314285Y-164214285D01*
X182361904Y-164023809D01*
X182361904Y-163880952D01*
X182314285Y-163690476D01*
X182266666Y-163595238D01*
X182171428Y-163500000D01*
X182028571Y-163452380D01*
X181933333Y-163452380D01*
X181790476Y-163500000D01*
X181742857Y-163547619D01*
X180790476Y-164452380D02*
X181361904Y-164452380D01*
X181076190Y-164452380D02*
X181076190Y-163452380D01*
X181171428Y-163595238D01*
X181266666Y-163690476D01*
X181361904Y-163738095D01*
X179933333Y-163785714D02*
X179933333Y-164452380D01*
X180171428Y-163404761D02*
X180409523Y-164119047D01*
X179790476Y-164119047D01*
%TO.C,C16*%
X189707142Y-163157142D02*
X189754761Y-163109523D01*
X189802380Y-162966666D01*
X189802380Y-162871428D01*
X189754761Y-162728571D01*
X189659523Y-162633333D01*
X189564285Y-162585714D01*
X189373809Y-162538095D01*
X189230952Y-162538095D01*
X189040476Y-162585714D01*
X188945238Y-162633333D01*
X188850000Y-162728571D01*
X188802380Y-162871428D01*
X188802380Y-162966666D01*
X188850000Y-163109523D01*
X188897619Y-163157142D01*
X189802380Y-164109523D02*
X189802380Y-163538095D01*
X189802380Y-163823809D02*
X188802380Y-163823809D01*
X188945238Y-163728571D01*
X189040476Y-163633333D01*
X189088095Y-163538095D01*
X188802380Y-164966666D02*
X188802380Y-164776190D01*
X188850000Y-164680952D01*
X188897619Y-164633333D01*
X189040476Y-164538095D01*
X189230952Y-164490476D01*
X189611904Y-164490476D01*
X189707142Y-164538095D01*
X189754761Y-164585714D01*
X189802380Y-164680952D01*
X189802380Y-164871428D01*
X189754761Y-164966666D01*
X189707142Y-165014285D01*
X189611904Y-165061904D01*
X189373809Y-165061904D01*
X189278571Y-165014285D01*
X189230952Y-164966666D01*
X189183333Y-164871428D01*
X189183333Y-164680952D01*
X189230952Y-164585714D01*
X189278571Y-164538095D01*
X189373809Y-164490476D01*
%TO.C,R1*%
X136866666Y-157852380D02*
X137200000Y-157376190D01*
X137438095Y-157852380D02*
X137438095Y-156852380D01*
X137057142Y-156852380D01*
X136961904Y-156900000D01*
X136914285Y-156947619D01*
X136866666Y-157042857D01*
X136866666Y-157185714D01*
X136914285Y-157280952D01*
X136961904Y-157328571D01*
X137057142Y-157376190D01*
X137438095Y-157376190D01*
X135914285Y-157852380D02*
X136485714Y-157852380D01*
X136200000Y-157852380D02*
X136200000Y-156852380D01*
X136295238Y-156995238D01*
X136390476Y-157090476D01*
X136485714Y-157138095D01*
%TO.C,R2*%
X115497969Y-143087732D02*
X116070389Y-142986717D01*
X115902030Y-143491793D02*
X116609137Y-142784687D01*
X116339763Y-142515312D01*
X116238748Y-142481641D01*
X116171404Y-142481641D01*
X116070389Y-142515312D01*
X115969374Y-142616328D01*
X115935702Y-142717343D01*
X115935702Y-142784687D01*
X115969374Y-142885702D01*
X116238748Y-143155076D01*
X115868358Y-142178595D02*
X115868358Y-142111251D01*
X115834687Y-142010236D01*
X115666328Y-141841877D01*
X115565312Y-141808206D01*
X115497969Y-141808206D01*
X115396954Y-141841877D01*
X115329610Y-141909221D01*
X115262267Y-142043908D01*
X115262267Y-142852030D01*
X114824534Y-142414297D01*
%TO.C,R3*%
X121076666Y-147602380D02*
X121410000Y-147126190D01*
X121648095Y-147602380D02*
X121648095Y-146602380D01*
X121267142Y-146602380D01*
X121171904Y-146650000D01*
X121124285Y-146697619D01*
X121076666Y-146792857D01*
X121076666Y-146935714D01*
X121124285Y-147030952D01*
X121171904Y-147078571D01*
X121267142Y-147126190D01*
X121648095Y-147126190D01*
X120743333Y-146602380D02*
X120124285Y-146602380D01*
X120457619Y-146983333D01*
X120314761Y-146983333D01*
X120219523Y-147030952D01*
X120171904Y-147078571D01*
X120124285Y-147173809D01*
X120124285Y-147411904D01*
X120171904Y-147507142D01*
X120219523Y-147554761D01*
X120314761Y-147602380D01*
X120600476Y-147602380D01*
X120695714Y-147554761D01*
X120743333Y-147507142D01*
%TO.C,R4*%
X96572380Y-133408333D02*
X96096190Y-133075000D01*
X96572380Y-132836904D02*
X95572380Y-132836904D01*
X95572380Y-133217857D01*
X95620000Y-133313095D01*
X95667619Y-133360714D01*
X95762857Y-133408333D01*
X95905714Y-133408333D01*
X96000952Y-133360714D01*
X96048571Y-133313095D01*
X96096190Y-133217857D01*
X96096190Y-132836904D01*
X95905714Y-134265476D02*
X96572380Y-134265476D01*
X95524761Y-134027380D02*
X96239047Y-133789285D01*
X96239047Y-134408333D01*
%TO.C,R5*%
X109352380Y-170873333D02*
X108876190Y-170540000D01*
X109352380Y-170301904D02*
X108352380Y-170301904D01*
X108352380Y-170682857D01*
X108400000Y-170778095D01*
X108447619Y-170825714D01*
X108542857Y-170873333D01*
X108685714Y-170873333D01*
X108780952Y-170825714D01*
X108828571Y-170778095D01*
X108876190Y-170682857D01*
X108876190Y-170301904D01*
X108352380Y-171778095D02*
X108352380Y-171301904D01*
X108828571Y-171254285D01*
X108780952Y-171301904D01*
X108733333Y-171397142D01*
X108733333Y-171635238D01*
X108780952Y-171730476D01*
X108828571Y-171778095D01*
X108923809Y-171825714D01*
X109161904Y-171825714D01*
X109257142Y-171778095D01*
X109304761Y-171730476D01*
X109352380Y-171635238D01*
X109352380Y-171397142D01*
X109304761Y-171301904D01*
X109257142Y-171254285D01*
%TO.C,R6*%
X181766666Y-162652380D02*
X182100000Y-162176190D01*
X182338095Y-162652380D02*
X182338095Y-161652380D01*
X181957142Y-161652380D01*
X181861904Y-161700000D01*
X181814285Y-161747619D01*
X181766666Y-161842857D01*
X181766666Y-161985714D01*
X181814285Y-162080952D01*
X181861904Y-162128571D01*
X181957142Y-162176190D01*
X182338095Y-162176190D01*
X180909523Y-161652380D02*
X181100000Y-161652380D01*
X181195238Y-161700000D01*
X181242857Y-161747619D01*
X181338095Y-161890476D01*
X181385714Y-162080952D01*
X181385714Y-162461904D01*
X181338095Y-162557142D01*
X181290476Y-162604761D01*
X181195238Y-162652380D01*
X181004761Y-162652380D01*
X180909523Y-162604761D01*
X180861904Y-162557142D01*
X180814285Y-162461904D01*
X180814285Y-162223809D01*
X180861904Y-162128571D01*
X180909523Y-162080952D01*
X181004761Y-162033333D01*
X181195238Y-162033333D01*
X181290476Y-162080952D01*
X181338095Y-162128571D01*
X181385714Y-162223809D01*
%TO.C,R7*%
X182552380Y-144683333D02*
X182076190Y-144350000D01*
X182552380Y-144111904D02*
X181552380Y-144111904D01*
X181552380Y-144492857D01*
X181600000Y-144588095D01*
X181647619Y-144635714D01*
X181742857Y-144683333D01*
X181885714Y-144683333D01*
X181980952Y-144635714D01*
X182028571Y-144588095D01*
X182076190Y-144492857D01*
X182076190Y-144111904D01*
X181552380Y-145016666D02*
X181552380Y-145683333D01*
X182552380Y-145254761D01*
%TO.C,R8*%
X186166666Y-139022380D02*
X186500000Y-138546190D01*
X186738095Y-139022380D02*
X186738095Y-138022380D01*
X186357142Y-138022380D01*
X186261904Y-138070000D01*
X186214285Y-138117619D01*
X186166666Y-138212857D01*
X186166666Y-138355714D01*
X186214285Y-138450952D01*
X186261904Y-138498571D01*
X186357142Y-138546190D01*
X186738095Y-138546190D01*
X185595238Y-138450952D02*
X185690476Y-138403333D01*
X185738095Y-138355714D01*
X185785714Y-138260476D01*
X185785714Y-138212857D01*
X185738095Y-138117619D01*
X185690476Y-138070000D01*
X185595238Y-138022380D01*
X185404761Y-138022380D01*
X185309523Y-138070000D01*
X185261904Y-138117619D01*
X185214285Y-138212857D01*
X185214285Y-138260476D01*
X185261904Y-138355714D01*
X185309523Y-138403333D01*
X185404761Y-138450952D01*
X185595238Y-138450952D01*
X185690476Y-138498571D01*
X185738095Y-138546190D01*
X185785714Y-138641428D01*
X185785714Y-138831904D01*
X185738095Y-138927142D01*
X185690476Y-138974761D01*
X185595238Y-139022380D01*
X185404761Y-139022380D01*
X185309523Y-138974761D01*
X185261904Y-138927142D01*
X185214285Y-138831904D01*
X185214285Y-138641428D01*
X185261904Y-138546190D01*
X185309523Y-138498571D01*
X185404761Y-138450952D01*
%TO.C,R9*%
X181982380Y-158408333D02*
X181506190Y-158075000D01*
X181982380Y-157836904D02*
X180982380Y-157836904D01*
X180982380Y-158217857D01*
X181030000Y-158313095D01*
X181077619Y-158360714D01*
X181172857Y-158408333D01*
X181315714Y-158408333D01*
X181410952Y-158360714D01*
X181458571Y-158313095D01*
X181506190Y-158217857D01*
X181506190Y-157836904D01*
X181982380Y-158884523D02*
X181982380Y-159075000D01*
X181934761Y-159170238D01*
X181887142Y-159217857D01*
X181744285Y-159313095D01*
X181553809Y-159360714D01*
X181172857Y-159360714D01*
X181077619Y-159313095D01*
X181030000Y-159265476D01*
X180982380Y-159170238D01*
X180982380Y-158979761D01*
X181030000Y-158884523D01*
X181077619Y-158836904D01*
X181172857Y-158789285D01*
X181410952Y-158789285D01*
X181506190Y-158836904D01*
X181553809Y-158884523D01*
X181601428Y-158979761D01*
X181601428Y-159170238D01*
X181553809Y-159265476D01*
X181506190Y-159313095D01*
X181410952Y-159360714D01*
%TO.C,R10*%
X194067857Y-163682380D02*
X194401190Y-163206190D01*
X194639285Y-163682380D02*
X194639285Y-162682380D01*
X194258333Y-162682380D01*
X194163095Y-162730000D01*
X194115476Y-162777619D01*
X194067857Y-162872857D01*
X194067857Y-163015714D01*
X194115476Y-163110952D01*
X194163095Y-163158571D01*
X194258333Y-163206190D01*
X194639285Y-163206190D01*
X193115476Y-163682380D02*
X193686904Y-163682380D01*
X193401190Y-163682380D02*
X193401190Y-162682380D01*
X193496428Y-162825238D01*
X193591666Y-162920476D01*
X193686904Y-162968095D01*
X192496428Y-162682380D02*
X192401190Y-162682380D01*
X192305952Y-162730000D01*
X192258333Y-162777619D01*
X192210714Y-162872857D01*
X192163095Y-163063333D01*
X192163095Y-163301428D01*
X192210714Y-163491904D01*
X192258333Y-163587142D01*
X192305952Y-163634761D01*
X192401190Y-163682380D01*
X192496428Y-163682380D01*
X192591666Y-163634761D01*
X192639285Y-163587142D01*
X192686904Y-163491904D01*
X192734523Y-163301428D01*
X192734523Y-163063333D01*
X192686904Y-162872857D01*
X192639285Y-162777619D01*
X192591666Y-162730000D01*
X192496428Y-162682380D01*
%TO.C,R11*%
X184817857Y-167632380D02*
X185151190Y-167156190D01*
X185389285Y-167632380D02*
X185389285Y-166632380D01*
X185008333Y-166632380D01*
X184913095Y-166680000D01*
X184865476Y-166727619D01*
X184817857Y-166822857D01*
X184817857Y-166965714D01*
X184865476Y-167060952D01*
X184913095Y-167108571D01*
X185008333Y-167156190D01*
X185389285Y-167156190D01*
X183865476Y-167632380D02*
X184436904Y-167632380D01*
X184151190Y-167632380D02*
X184151190Y-166632380D01*
X184246428Y-166775238D01*
X184341666Y-166870476D01*
X184436904Y-166918095D01*
X182913095Y-167632380D02*
X183484523Y-167632380D01*
X183198809Y-167632380D02*
X183198809Y-166632380D01*
X183294047Y-166775238D01*
X183389285Y-166870476D01*
X183484523Y-166918095D01*
%TD*%
M02*
