M48
; DRILL file {KiCad (5.1.6)-1} date 12/09/20 08:14:31
; FORMAT={-:-/ absolute / metric / decimal}
; #@! TF.CreationDate,2020-12-09T08:14:31-03:00
; #@! TF.GenerationSoftware,Kicad,Pcbnew,(5.1.6)-1
; #@! TF.FileFunction,Plated,1,4,PTH
FMAT,2
METRIC
T1C0.400
T2C0.500
T3C0.750
T4C0.900
T5C0.950
T6C1.000
T7C1.200
T8C1.300
T9C2.300
T10C2.524
%
G90
G05
T1
X50.39Y-102.89
X51.75Y-101.5
X53.0Y-90.2
X55.5Y-90.2
X57.575Y-91.925
X60.175Y-93.95
X63.15Y-90.2
X64.4Y-108.35
X64.45Y-111.9
X78.45Y-108.4
X81.05Y-108.35
X86.1Y-108.55
X88.6Y-108.55
X91.1Y-90.2
X91.15Y-108.5
X93.65Y-108.45
X97.9Y-143.55
X97.95Y-144.7
X98.05Y-103.5
X98.05Y-106.5
X99.05Y-103.5
X99.05Y-106.5
X99.85Y-144.65
X100.05Y-103.5
X100.05Y-106.5
X101.05Y-103.5
X101.05Y-106.5
X102.05Y-103.5
X102.05Y-106.5
X103.05Y-103.5
X103.05Y-106.5
X106.6Y-101.45
X109.5Y-115.05
X110.0Y-126.85
X110.2Y-122.6
X110.75Y-116.35
X112.95Y-122.95
X115.2Y-113.75
X115.95Y-87.5
X116.0Y-107.1
X116.05Y-114.35
X116.15Y-128.3
X116.75Y-124.3
X116.85Y-106.25
X117.0Y-115.4
X117.05Y-88.85
X118.95Y-115.2
X120.65Y-113.35
X121.15Y-125.95
X121.225Y-121.075
X121.9Y-117.85
X124.15Y-124.85
X124.3Y-115.2
X125.675Y-122.975
X125.9Y-111.4
X126.8Y-110.6
X127.25Y-112.2
X127.575Y-116.4
X127.95Y-109.0
X128.025Y-115.425
X128.5Y-117.725
X128.975Y-114.225
X129.3Y-107.65
X130.575Y-118.225
X131.4Y-108.3
X134.475Y-114.35
X135.025Y-122.05
X136.025Y-115.9
X137.25Y-120.975
X143.575Y-121.1
X147.73Y-124.16
X153.2Y-123.7
X155.0Y-120.0
X155.9Y-108.15
X156.4Y-121.6
X159.2Y-123.5
X159.5Y-121.5
X162.1Y-120.6
X164.1Y-118.7
X176.5Y-153.5
X176.5Y-155.0
X178.5Y-153.5
X178.5Y-155.0
X180.5Y-153.5
X180.5Y-155.0
X187.45Y-117.05
X189.1Y-126.35
X192.9Y-110.0
X195.35Y-133.8
X198.2Y-131.95
X199.25Y-126.5
X204.0Y-113.9
X204.6Y-131.85
T2
X153.225Y-112.425
X153.225Y-115.775
X157.6Y-115.425
X161.775Y-115.4
X166.175Y-115.9
X166.375Y-112.5
T3
X112.87Y-124.32
X114.14Y-125.59
X115.41Y-124.32
T4
X51.58Y-105.4
X51.58Y-108.6
X54.08Y-105.4
X54.08Y-108.6
T5
X177.9Y-157.17
X180.4Y-157.17
X182.9Y-157.17
X185.4Y-157.17
X187.9Y-157.17
X190.4Y-157.17
X192.9Y-157.17
T6
X178.52Y-94.0
X181.06Y-94.0
X183.6Y-94.0
X186.14Y-94.0
X188.68Y-94.0
X191.22Y-94.0
X193.76Y-94.0
X196.3Y-94.0
X53.0Y-88.5
X55.54Y-88.5
X58.08Y-88.5
X60.62Y-88.5
X63.16Y-88.5
X65.7Y-88.5
X68.24Y-88.5
X70.78Y-88.5
X73.32Y-88.5
X75.86Y-88.5
X78.4Y-88.5
X80.94Y-88.5
X83.48Y-88.5
X86.02Y-88.5
X88.56Y-88.5
X91.1Y-88.5
T7
X196.8Y-114.0
X196.8Y-128.5
X199.3Y-128.5
X201.8Y-114.0
X201.8Y-128.5
T8
X99.08Y-155.0
X104.16Y-155.0
T9
X46.81Y-105.9
X58.85Y-105.9
T10
X193.6Y-121.0
X205.0Y-121.0
T0
M30
