%TF.GenerationSoftware,KiCad,Pcbnew,(5.1.6)-1*%
%TF.CreationDate,2020-12-09T08:14:28-03:00*%
%TF.ProjectId,CargaElectr_nicaProgramable_Digital - 4Capas,43617267-6145-46c6-9563-7472f36e6963,rev?*%
%TF.SameCoordinates,Original*%
%TF.FileFunction,Copper,L4,Bot*%
%TF.FilePolarity,Positive*%
%FSLAX46Y46*%
G04 Gerber Fmt 4.6, Leading zero omitted, Abs format (unit mm)*
G04 Created by KiCad (PCBNEW (5.1.6)-1) date 2020-12-09 08:14:28*
%MOMM*%
%LPD*%
G01*
G04 APERTURE LIST*
%TA.AperFunction,ComponentPad*%
%ADD10C,1.422400*%
%TD*%
%TA.AperFunction,ComponentPad*%
%ADD11C,2.700000*%
%TD*%
%TA.AperFunction,ComponentPad*%
%ADD12R,1.700000X1.700000*%
%TD*%
%TA.AperFunction,ComponentPad*%
%ADD13O,1.700000X1.700000*%
%TD*%
%TA.AperFunction,SMDPad,CuDef*%
%ADD14R,2.200000X0.900000*%
%TD*%
%TA.AperFunction,SMDPad,CuDef*%
%ADD15C,0.100000*%
%TD*%
%TA.AperFunction,ComponentPad*%
%ADD16C,1.300000*%
%TD*%
%TA.AperFunction,ComponentPad*%
%ADD17R,1.300000X1.300000*%
%TD*%
%TA.AperFunction,SMDPad,CuDef*%
%ADD18R,3.500000X1.800000*%
%TD*%
%TA.AperFunction,ComponentPad*%
%ADD19C,1.800000*%
%TD*%
%TA.AperFunction,ComponentPad*%
%ADD20C,3.786000*%
%TD*%
%TA.AperFunction,SMDPad,CuDef*%
%ADD21R,1.244600X4.749800*%
%TD*%
%TA.AperFunction,ComponentPad*%
%ADD22O,1.700000X1.950000*%
%TD*%
%TA.AperFunction,ComponentPad*%
%ADD23R,2.600000X2.600000*%
%TD*%
%TA.AperFunction,ComponentPad*%
%ADD24C,2.600000*%
%TD*%
%TA.AperFunction,SMDPad,CuDef*%
%ADD25R,0.800000X0.900000*%
%TD*%
%TA.AperFunction,SMDPad,CuDef*%
%ADD26R,1.200000X1.200000*%
%TD*%
%TA.AperFunction,SMDPad,CuDef*%
%ADD27R,1.500000X1.600000*%
%TD*%
%TA.AperFunction,SMDPad,CuDef*%
%ADD28R,1.700000X1.000000*%
%TD*%
%TA.AperFunction,SMDPad,CuDef*%
%ADD29R,3.800000X2.000000*%
%TD*%
%TA.AperFunction,SMDPad,CuDef*%
%ADD30R,1.500000X2.000000*%
%TD*%
%TA.AperFunction,SMDPad,CuDef*%
%ADD31R,1.060000X0.650000*%
%TD*%
%TA.AperFunction,SMDPad,CuDef*%
%ADD32R,1.800000X1.200000*%
%TD*%
%TA.AperFunction,SMDPad,CuDef*%
%ADD33R,1.000000X3.150000*%
%TD*%
%TA.AperFunction,ViaPad*%
%ADD34C,0.800000*%
%TD*%
%TA.AperFunction,ViaPad*%
%ADD35C,1.500000*%
%TD*%
%TA.AperFunction,Conductor*%
%ADD36C,0.152400*%
%TD*%
%TA.AperFunction,Conductor*%
%ADD37C,1.000000*%
%TD*%
%TA.AperFunction,Conductor*%
%ADD38C,0.300000*%
%TD*%
%TA.AperFunction,Conductor*%
%ADD39C,1.500000*%
%TD*%
%TA.AperFunction,Conductor*%
%ADD40C,0.500000*%
%TD*%
%TA.AperFunction,Conductor*%
%ADD41C,0.261112*%
%TD*%
%TA.AperFunction,Conductor*%
%ADD42C,0.254000*%
%TD*%
G04 APERTURE END LIST*
D10*
%TO.P,J1,1*%
%TO.N,Net-(J1-Pad1)*%
X51580000Y-108600000D03*
%TO.P,J1,2*%
%TO.N,USB_COND-*%
X54080000Y-108600000D03*
%TO.P,J1,3*%
%TO.N,USB_COND+*%
X54080000Y-105400000D03*
%TO.P,J1,4*%
%TO.N,Net-(FB1-Pad1)*%
X51580000Y-105400000D03*
D11*
%TO.P,J1,5*%
X58850000Y-105900000D03*
X46810000Y-105900000D03*
%TD*%
D12*
%TO.P,LCD20x4,1*%
%TO.N,GNDD*%
X53000000Y-88500000D03*
D13*
%TO.P,LCD20x4,2*%
%TO.N,/+5vDIG*%
X55540000Y-88500000D03*
%TO.P,LCD20x4,3*%
%TO.N,V0*%
X58080000Y-88500000D03*
%TO.P,LCD20x4,4*%
%TO.N,RS*%
X60620000Y-88500000D03*
%TO.P,LCD20x4,5*%
%TO.N,GNDD*%
X63160000Y-88500000D03*
%TO.P,LCD20x4,6*%
%TO.N,E*%
X65700000Y-88500000D03*
%TO.P,LCD20x4,7*%
%TO.N,Net-(J3-Pad7)*%
X68240000Y-88500000D03*
%TO.P,LCD20x4,8*%
%TO.N,Net-(J3-Pad8)*%
X70780000Y-88500000D03*
%TO.P,LCD20x4,9*%
%TO.N,Net-(J3-Pad9)*%
X73320000Y-88500000D03*
%TO.P,LCD20x4,10*%
%TO.N,Net-(J3-Pad10)*%
X75860000Y-88500000D03*
%TO.P,LCD20x4,11*%
%TO.N,D4*%
X78400000Y-88500000D03*
%TO.P,LCD20x4,12*%
%TO.N,D5*%
X80940000Y-88500000D03*
%TO.P,LCD20x4,13*%
%TO.N,D6*%
X83480000Y-88500000D03*
%TO.P,LCD20x4,14*%
%TO.N,D7*%
X86020000Y-88500000D03*
%TO.P,LCD20x4,15*%
%TO.N,/+5vDIG*%
X88560000Y-88500000D03*
%TO.P,LCD20x4,16*%
%TO.N,GNDD*%
X91100000Y-88500000D03*
%TD*%
%TO.P,U3,1*%
%TO.N,/3.3vDIG*%
%TA.AperFunction,SMDPad,CuDef*%
G36*
G01*
X123392400Y-114707246D02*
X123286334Y-114813312D01*
G75*
G02*
X123180268Y-114813312I-53033J53033D01*
G01*
X122243352Y-113876396D01*
G75*
G02*
X122243352Y-113770330I53033J53033D01*
G01*
X122349418Y-113664264D01*
G75*
G02*
X122455484Y-113664264I53033J-53033D01*
G01*
X123392400Y-114601180D01*
G75*
G02*
X123392400Y-114707246I-53033J-53033D01*
G01*
G37*
%TD.AperFunction*%
%TO.P,U3,2*%
%TO.N,LedHeartBeat*%
%TA.AperFunction,SMDPad,CuDef*%
G36*
G01*
X123038846Y-115060800D02*
X122932780Y-115166866D01*
G75*
G02*
X122826714Y-115166866I-53033J53033D01*
G01*
X121889798Y-114229950D01*
G75*
G02*
X121889798Y-114123884I53033J53033D01*
G01*
X121995864Y-114017818D01*
G75*
G02*
X122101930Y-114017818I53033J-53033D01*
G01*
X123038846Y-114954734D01*
G75*
G02*
X123038846Y-115060800I-53033J-53033D01*
G01*
G37*
%TD.AperFunction*%
%TO.P,U3,3*%
%TO.N,Net-(U3-Pad3)*%
%TA.AperFunction,SMDPad,CuDef*%
G36*
G01*
X122685293Y-115414353D02*
X122579227Y-115520419D01*
G75*
G02*
X122473161Y-115520419I-53033J53033D01*
G01*
X121536245Y-114583503D01*
G75*
G02*
X121536245Y-114477437I53033J53033D01*
G01*
X121642311Y-114371371D01*
G75*
G02*
X121748377Y-114371371I53033J-53033D01*
G01*
X122685293Y-115308287D01*
G75*
G02*
X122685293Y-115414353I-53033J-53033D01*
G01*
G37*
%TD.AperFunction*%
%TO.P,U3,4*%
%TO.N,Net-(U3-Pad4)*%
%TA.AperFunction,SMDPad,CuDef*%
G36*
G01*
X122331739Y-115767907D02*
X122225673Y-115873973D01*
G75*
G02*
X122119607Y-115873973I-53033J53033D01*
G01*
X121182691Y-114937057D01*
G75*
G02*
X121182691Y-114830991I53033J53033D01*
G01*
X121288757Y-114724925D01*
G75*
G02*
X121394823Y-114724925I53033J-53033D01*
G01*
X122331739Y-115661841D01*
G75*
G02*
X122331739Y-115767907I-53033J-53033D01*
G01*
G37*
%TD.AperFunction*%
%TO.P,U3,5*%
%TO.N,Net-(C3-Pad1)*%
%TA.AperFunction,SMDPad,CuDef*%
G36*
G01*
X121978186Y-116121460D02*
X121872120Y-116227526D01*
G75*
G02*
X121766054Y-116227526I-53033J53033D01*
G01*
X120829138Y-115290610D01*
G75*
G02*
X120829138Y-115184544I53033J53033D01*
G01*
X120935204Y-115078478D01*
G75*
G02*
X121041270Y-115078478I53033J-53033D01*
G01*
X121978186Y-116015394D01*
G75*
G02*
X121978186Y-116121460I-53033J-53033D01*
G01*
G37*
%TD.AperFunction*%
%TO.P,U3,6*%
%TO.N,Net-(C7-Pad1)*%
%TA.AperFunction,SMDPad,CuDef*%
G36*
G01*
X121624633Y-116475013D02*
X121518567Y-116581079D01*
G75*
G02*
X121412501Y-116581079I-53033J53033D01*
G01*
X120475585Y-115644163D01*
G75*
G02*
X120475585Y-115538097I53033J53033D01*
G01*
X120581651Y-115432031D01*
G75*
G02*
X120687717Y-115432031I53033J-53033D01*
G01*
X121624633Y-116368947D01*
G75*
G02*
X121624633Y-116475013I-53033J-53033D01*
G01*
G37*
%TD.AperFunction*%
%TO.P,U3,7*%
%TO.N,/NRST*%
%TA.AperFunction,SMDPad,CuDef*%
G36*
G01*
X121271079Y-116828567D02*
X121165013Y-116934633D01*
G75*
G02*
X121058947Y-116934633I-53033J53033D01*
G01*
X120122031Y-115997717D01*
G75*
G02*
X120122031Y-115891651I53033J53033D01*
G01*
X120228097Y-115785585D01*
G75*
G02*
X120334163Y-115785585I53033J-53033D01*
G01*
X121271079Y-116722501D01*
G75*
G02*
X121271079Y-116828567I-53033J-53033D01*
G01*
G37*
%TD.AperFunction*%
%TO.P,U3,8*%
%TO.N,GNDD*%
%TA.AperFunction,SMDPad,CuDef*%
G36*
G01*
X120917526Y-117182120D02*
X120811460Y-117288186D01*
G75*
G02*
X120705394Y-117288186I-53033J53033D01*
G01*
X119768478Y-116351270D01*
G75*
G02*
X119768478Y-116245204I53033J53033D01*
G01*
X119874544Y-116139138D01*
G75*
G02*
X119980610Y-116139138I53033J-53033D01*
G01*
X120917526Y-117076054D01*
G75*
G02*
X120917526Y-117182120I-53033J-53033D01*
G01*
G37*
%TD.AperFunction*%
%TO.P,U3,9*%
%TO.N,Net-(FB2-Pad2)*%
%TA.AperFunction,SMDPad,CuDef*%
G36*
G01*
X120563973Y-117535673D02*
X120457907Y-117641739D01*
G75*
G02*
X120351841Y-117641739I-53033J53033D01*
G01*
X119414925Y-116704823D01*
G75*
G02*
X119414925Y-116598757I53033J53033D01*
G01*
X119520991Y-116492691D01*
G75*
G02*
X119627057Y-116492691I53033J-53033D01*
G01*
X120563973Y-117429607D01*
G75*
G02*
X120563973Y-117535673I-53033J-53033D01*
G01*
G37*
%TD.AperFunction*%
%TO.P,U3,10*%
%TO.N,Temp*%
%TA.AperFunction,SMDPad,CuDef*%
G36*
G01*
X120210419Y-117889227D02*
X120104353Y-117995293D01*
G75*
G02*
X119998287Y-117995293I-53033J53033D01*
G01*
X119061371Y-117058377D01*
G75*
G02*
X119061371Y-116952311I53033J53033D01*
G01*
X119167437Y-116846245D01*
G75*
G02*
X119273503Y-116846245I53033J-53033D01*
G01*
X120210419Y-117783161D01*
G75*
G02*
X120210419Y-117889227I-53033J-53033D01*
G01*
G37*
%TD.AperFunction*%
%TO.P,U3,11*%
%TO.N,FAN*%
%TA.AperFunction,SMDPad,CuDef*%
G36*
G01*
X119856866Y-118242780D02*
X119750800Y-118348846D01*
G75*
G02*
X119644734Y-118348846I-53033J53033D01*
G01*
X118707818Y-117411930D01*
G75*
G02*
X118707818Y-117305864I53033J53033D01*
G01*
X118813884Y-117199798D01*
G75*
G02*
X118919950Y-117199798I53033J-53033D01*
G01*
X119856866Y-118136714D01*
G75*
G02*
X119856866Y-118242780I-53033J-53033D01*
G01*
G37*
%TD.AperFunction*%
%TO.P,U3,12*%
%TO.N,CONVST*%
%TA.AperFunction,SMDPad,CuDef*%
G36*
G01*
X119503312Y-118596334D02*
X119397246Y-118702400D01*
G75*
G02*
X119291180Y-118702400I-53033J53033D01*
G01*
X118354264Y-117765484D01*
G75*
G02*
X118354264Y-117659418I53033J53033D01*
G01*
X118460330Y-117553352D01*
G75*
G02*
X118566396Y-117553352I53033J-53033D01*
G01*
X119503312Y-118490268D01*
G75*
G02*
X119503312Y-118596334I-53033J-53033D01*
G01*
G37*
%TD.AperFunction*%
%TO.P,U3,13*%
%TO.N,DAC_CS*%
%TA.AperFunction,SMDPad,CuDef*%
G36*
G01*
X117505736Y-117765484D02*
X116568820Y-118702400D01*
G75*
G02*
X116462754Y-118702400I-53033J53033D01*
G01*
X116356688Y-118596334D01*
G75*
G02*
X116356688Y-118490268I53033J53033D01*
G01*
X117293604Y-117553352D01*
G75*
G02*
X117399670Y-117553352I53033J-53033D01*
G01*
X117505736Y-117659418D01*
G75*
G02*
X117505736Y-117765484I-53033J-53033D01*
G01*
G37*
%TD.AperFunction*%
%TO.P,U3,14*%
%TO.N,EOC_INT*%
%TA.AperFunction,SMDPad,CuDef*%
G36*
G01*
X117152182Y-117411930D02*
X116215266Y-118348846D01*
G75*
G02*
X116109200Y-118348846I-53033J53033D01*
G01*
X116003134Y-118242780D01*
G75*
G02*
X116003134Y-118136714I53033J53033D01*
G01*
X116940050Y-117199798D01*
G75*
G02*
X117046116Y-117199798I53033J-53033D01*
G01*
X117152182Y-117305864D01*
G75*
G02*
X117152182Y-117411930I-53033J-53033D01*
G01*
G37*
%TD.AperFunction*%
%TO.P,U3,15*%
%TO.N,SCLK*%
%TA.AperFunction,SMDPad,CuDef*%
G36*
G01*
X116798629Y-117058377D02*
X115861713Y-117995293D01*
G75*
G02*
X115755647Y-117995293I-53033J53033D01*
G01*
X115649581Y-117889227D01*
G75*
G02*
X115649581Y-117783161I53033J53033D01*
G01*
X116586497Y-116846245D01*
G75*
G02*
X116692563Y-116846245I53033J-53033D01*
G01*
X116798629Y-116952311D01*
G75*
G02*
X116798629Y-117058377I-53033J-53033D01*
G01*
G37*
%TD.AperFunction*%
%TO.P,U3,16*%
%TO.N,MISO*%
%TA.AperFunction,SMDPad,CuDef*%
G36*
G01*
X116445075Y-116704823D02*
X115508159Y-117641739D01*
G75*
G02*
X115402093Y-117641739I-53033J53033D01*
G01*
X115296027Y-117535673D01*
G75*
G02*
X115296027Y-117429607I53033J53033D01*
G01*
X116232943Y-116492691D01*
G75*
G02*
X116339009Y-116492691I53033J-53033D01*
G01*
X116445075Y-116598757D01*
G75*
G02*
X116445075Y-116704823I-53033J-53033D01*
G01*
G37*
%TD.AperFunction*%
%TO.P,U3,17*%
%TO.N,MOSI*%
%TA.AperFunction,SMDPad,CuDef*%
G36*
G01*
X116091522Y-116351270D02*
X115154606Y-117288186D01*
G75*
G02*
X115048540Y-117288186I-53033J53033D01*
G01*
X114942474Y-117182120D01*
G75*
G02*
X114942474Y-117076054I53033J53033D01*
G01*
X115879390Y-116139138D01*
G75*
G02*
X115985456Y-116139138I53033J-53033D01*
G01*
X116091522Y-116245204D01*
G75*
G02*
X116091522Y-116351270I-53033J-53033D01*
G01*
G37*
%TD.AperFunction*%
%TO.P,U3,18*%
%TO.N,ADC_CS*%
%TA.AperFunction,SMDPad,CuDef*%
G36*
G01*
X115737969Y-115997717D02*
X114801053Y-116934633D01*
G75*
G02*
X114694987Y-116934633I-53033J53033D01*
G01*
X114588921Y-116828567D01*
G75*
G02*
X114588921Y-116722501I53033J53033D01*
G01*
X115525837Y-115785585D01*
G75*
G02*
X115631903Y-115785585I53033J-53033D01*
G01*
X115737969Y-115891651D01*
G75*
G02*
X115737969Y-115997717I-53033J-53033D01*
G01*
G37*
%TD.AperFunction*%
%TO.P,U3,19*%
%TO.N,ENC_CH_B*%
%TA.AperFunction,SMDPad,CuDef*%
G36*
G01*
X115384415Y-115644163D02*
X114447499Y-116581079D01*
G75*
G02*
X114341433Y-116581079I-53033J53033D01*
G01*
X114235367Y-116475013D01*
G75*
G02*
X114235367Y-116368947I53033J53033D01*
G01*
X115172283Y-115432031D01*
G75*
G02*
X115278349Y-115432031I53033J-53033D01*
G01*
X115384415Y-115538097D01*
G75*
G02*
X115384415Y-115644163I-53033J-53033D01*
G01*
G37*
%TD.AperFunction*%
%TO.P,U3,20*%
%TO.N,Net-(U3-Pad20)*%
%TA.AperFunction,SMDPad,CuDef*%
G36*
G01*
X115030862Y-115290610D02*
X114093946Y-116227526D01*
G75*
G02*
X113987880Y-116227526I-53033J53033D01*
G01*
X113881814Y-116121460D01*
G75*
G02*
X113881814Y-116015394I53033J53033D01*
G01*
X114818730Y-115078478D01*
G75*
G02*
X114924796Y-115078478I53033J-53033D01*
G01*
X115030862Y-115184544D01*
G75*
G02*
X115030862Y-115290610I-53033J-53033D01*
G01*
G37*
%TD.AperFunction*%
%TO.P,U3,21*%
%TO.N,ENC_CH_A*%
%TA.AperFunction,SMDPad,CuDef*%
G36*
G01*
X114677309Y-114937057D02*
X113740393Y-115873973D01*
G75*
G02*
X113634327Y-115873973I-53033J53033D01*
G01*
X113528261Y-115767907D01*
G75*
G02*
X113528261Y-115661841I53033J53033D01*
G01*
X114465177Y-114724925D01*
G75*
G02*
X114571243Y-114724925I53033J-53033D01*
G01*
X114677309Y-114830991D01*
G75*
G02*
X114677309Y-114937057I-53033J-53033D01*
G01*
G37*
%TD.AperFunction*%
%TO.P,U3,22*%
%TO.N,ENC_BUTTON*%
%TA.AperFunction,SMDPad,CuDef*%
G36*
G01*
X114323755Y-114583503D02*
X113386839Y-115520419D01*
G75*
G02*
X113280773Y-115520419I-53033J53033D01*
G01*
X113174707Y-115414353D01*
G75*
G02*
X113174707Y-115308287I53033J53033D01*
G01*
X114111623Y-114371371D01*
G75*
G02*
X114217689Y-114371371I53033J-53033D01*
G01*
X114323755Y-114477437D01*
G75*
G02*
X114323755Y-114583503I-53033J-53033D01*
G01*
G37*
%TD.AperFunction*%
%TO.P,U3,23*%
%TO.N,GNDD*%
%TA.AperFunction,SMDPad,CuDef*%
G36*
G01*
X113970202Y-114229950D02*
X113033286Y-115166866D01*
G75*
G02*
X112927220Y-115166866I-53033J53033D01*
G01*
X112821154Y-115060800D01*
G75*
G02*
X112821154Y-114954734I53033J53033D01*
G01*
X113758070Y-114017818D01*
G75*
G02*
X113864136Y-114017818I53033J-53033D01*
G01*
X113970202Y-114123884D01*
G75*
G02*
X113970202Y-114229950I-53033J-53033D01*
G01*
G37*
%TD.AperFunction*%
%TO.P,U3,24*%
%TO.N,/3.3vDIG*%
%TA.AperFunction,SMDPad,CuDef*%
G36*
G01*
X113616648Y-113876396D02*
X112679732Y-114813312D01*
G75*
G02*
X112573666Y-114813312I-53033J53033D01*
G01*
X112467600Y-114707246D01*
G75*
G02*
X112467600Y-114601180I53033J53033D01*
G01*
X113404516Y-113664264D01*
G75*
G02*
X113510582Y-113664264I53033J-53033D01*
G01*
X113616648Y-113770330D01*
G75*
G02*
X113616648Y-113876396I-53033J-53033D01*
G01*
G37*
%TD.AperFunction*%
%TO.P,U3,25*%
%TO.N,LoadOnOff*%
%TA.AperFunction,SMDPad,CuDef*%
G36*
G01*
X113616648Y-112709670D02*
X113510582Y-112815736D01*
G75*
G02*
X113404516Y-112815736I-53033J53033D01*
G01*
X112467600Y-111878820D01*
G75*
G02*
X112467600Y-111772754I53033J53033D01*
G01*
X112573666Y-111666688D01*
G75*
G02*
X112679732Y-111666688I53033J-53033D01*
G01*
X113616648Y-112603604D01*
G75*
G02*
X113616648Y-112709670I-53033J-53033D01*
G01*
G37*
%TD.AperFunction*%
%TO.P,U3,26*%
%TO.N,RS*%
%TA.AperFunction,SMDPad,CuDef*%
G36*
G01*
X113970202Y-112356116D02*
X113864136Y-112462182D01*
G75*
G02*
X113758070Y-112462182I-53033J53033D01*
G01*
X112821154Y-111525266D01*
G75*
G02*
X112821154Y-111419200I53033J53033D01*
G01*
X112927220Y-111313134D01*
G75*
G02*
X113033286Y-111313134I53033J-53033D01*
G01*
X113970202Y-112250050D01*
G75*
G02*
X113970202Y-112356116I-53033J-53033D01*
G01*
G37*
%TD.AperFunction*%
%TO.P,U3,27*%
%TO.N,E*%
%TA.AperFunction,SMDPad,CuDef*%
G36*
G01*
X114323755Y-112002563D02*
X114217689Y-112108629D01*
G75*
G02*
X114111623Y-112108629I-53033J53033D01*
G01*
X113174707Y-111171713D01*
G75*
G02*
X113174707Y-111065647I53033J53033D01*
G01*
X113280773Y-110959581D01*
G75*
G02*
X113386839Y-110959581I53033J-53033D01*
G01*
X114323755Y-111896497D01*
G75*
G02*
X114323755Y-112002563I-53033J-53033D01*
G01*
G37*
%TD.AperFunction*%
%TO.P,U3,28*%
%TO.N,D4*%
%TA.AperFunction,SMDPad,CuDef*%
G36*
G01*
X114677309Y-111649009D02*
X114571243Y-111755075D01*
G75*
G02*
X114465177Y-111755075I-53033J53033D01*
G01*
X113528261Y-110818159D01*
G75*
G02*
X113528261Y-110712093I53033J53033D01*
G01*
X113634327Y-110606027D01*
G75*
G02*
X113740393Y-110606027I53033J-53033D01*
G01*
X114677309Y-111542943D01*
G75*
G02*
X114677309Y-111649009I-53033J-53033D01*
G01*
G37*
%TD.AperFunction*%
%TO.P,U3,29*%
%TO.N,D5*%
%TA.AperFunction,SMDPad,CuDef*%
G36*
G01*
X115030862Y-111295456D02*
X114924796Y-111401522D01*
G75*
G02*
X114818730Y-111401522I-53033J53033D01*
G01*
X113881814Y-110464606D01*
G75*
G02*
X113881814Y-110358540I53033J53033D01*
G01*
X113987880Y-110252474D01*
G75*
G02*
X114093946Y-110252474I53033J-53033D01*
G01*
X115030862Y-111189390D01*
G75*
G02*
X115030862Y-111295456I-53033J-53033D01*
G01*
G37*
%TD.AperFunction*%
%TO.P,U3,30*%
%TO.N,D6*%
%TA.AperFunction,SMDPad,CuDef*%
G36*
G01*
X115384415Y-110941903D02*
X115278349Y-111047969D01*
G75*
G02*
X115172283Y-111047969I-53033J53033D01*
G01*
X114235367Y-110111053D01*
G75*
G02*
X114235367Y-110004987I53033J53033D01*
G01*
X114341433Y-109898921D01*
G75*
G02*
X114447499Y-109898921I53033J-53033D01*
G01*
X115384415Y-110835837D01*
G75*
G02*
X115384415Y-110941903I-53033J-53033D01*
G01*
G37*
%TD.AperFunction*%
%TO.P,U3,31*%
%TO.N,D7*%
%TA.AperFunction,SMDPad,CuDef*%
G36*
G01*
X115737969Y-110588349D02*
X115631903Y-110694415D01*
G75*
G02*
X115525837Y-110694415I-53033J53033D01*
G01*
X114588921Y-109757499D01*
G75*
G02*
X114588921Y-109651433I53033J53033D01*
G01*
X114694987Y-109545367D01*
G75*
G02*
X114801053Y-109545367I53033J-53033D01*
G01*
X115737969Y-110482283D01*
G75*
G02*
X115737969Y-110588349I-53033J-53033D01*
G01*
G37*
%TD.AperFunction*%
%TO.P,U3,32*%
%TO.N,USB_D-*%
%TA.AperFunction,SMDPad,CuDef*%
G36*
G01*
X116091522Y-110234796D02*
X115985456Y-110340862D01*
G75*
G02*
X115879390Y-110340862I-53033J53033D01*
G01*
X114942474Y-109403946D01*
G75*
G02*
X114942474Y-109297880I53033J53033D01*
G01*
X115048540Y-109191814D01*
G75*
G02*
X115154606Y-109191814I53033J-53033D01*
G01*
X116091522Y-110128730D01*
G75*
G02*
X116091522Y-110234796I-53033J-53033D01*
G01*
G37*
%TD.AperFunction*%
%TO.P,U3,33*%
%TO.N,USB_D+*%
%TA.AperFunction,SMDPad,CuDef*%
G36*
G01*
X116445075Y-109881243D02*
X116339009Y-109987309D01*
G75*
G02*
X116232943Y-109987309I-53033J53033D01*
G01*
X115296027Y-109050393D01*
G75*
G02*
X115296027Y-108944327I53033J53033D01*
G01*
X115402093Y-108838261D01*
G75*
G02*
X115508159Y-108838261I53033J-53033D01*
G01*
X116445075Y-109775177D01*
G75*
G02*
X116445075Y-109881243I-53033J-53033D01*
G01*
G37*
%TD.AperFunction*%
%TO.P,U3,34*%
%TO.N,SWDIO*%
%TA.AperFunction,SMDPad,CuDef*%
G36*
G01*
X116798629Y-109527689D02*
X116692563Y-109633755D01*
G75*
G02*
X116586497Y-109633755I-53033J53033D01*
G01*
X115649581Y-108696839D01*
G75*
G02*
X115649581Y-108590773I53033J53033D01*
G01*
X115755647Y-108484707D01*
G75*
G02*
X115861713Y-108484707I53033J-53033D01*
G01*
X116798629Y-109421623D01*
G75*
G02*
X116798629Y-109527689I-53033J-53033D01*
G01*
G37*
%TD.AperFunction*%
%TO.P,U3,35*%
%TO.N,GNDD*%
%TA.AperFunction,SMDPad,CuDef*%
G36*
G01*
X117152182Y-109174136D02*
X117046116Y-109280202D01*
G75*
G02*
X116940050Y-109280202I-53033J53033D01*
G01*
X116003134Y-108343286D01*
G75*
G02*
X116003134Y-108237220I53033J53033D01*
G01*
X116109200Y-108131154D01*
G75*
G02*
X116215266Y-108131154I53033J-53033D01*
G01*
X117152182Y-109068070D01*
G75*
G02*
X117152182Y-109174136I-53033J-53033D01*
G01*
G37*
%TD.AperFunction*%
%TO.P,U3,36*%
%TO.N,/3.3vDIG*%
%TA.AperFunction,SMDPad,CuDef*%
G36*
G01*
X117505736Y-108820582D02*
X117399670Y-108926648D01*
G75*
G02*
X117293604Y-108926648I-53033J53033D01*
G01*
X116356688Y-107989732D01*
G75*
G02*
X116356688Y-107883666I53033J53033D01*
G01*
X116462754Y-107777600D01*
G75*
G02*
X116568820Y-107777600I53033J-53033D01*
G01*
X117505736Y-108714516D01*
G75*
G02*
X117505736Y-108820582I-53033J-53033D01*
G01*
G37*
%TD.AperFunction*%
%TO.P,U3,37*%
%TO.N,SWCLK*%
%TA.AperFunction,SMDPad,CuDef*%
G36*
G01*
X119503312Y-107989732D02*
X118566396Y-108926648D01*
G75*
G02*
X118460330Y-108926648I-53033J53033D01*
G01*
X118354264Y-108820582D01*
G75*
G02*
X118354264Y-108714516I53033J53033D01*
G01*
X119291180Y-107777600D01*
G75*
G02*
X119397246Y-107777600I53033J-53033D01*
G01*
X119503312Y-107883666D01*
G75*
G02*
X119503312Y-107989732I-53033J-53033D01*
G01*
G37*
%TD.AperFunction*%
%TO.P,U3,38*%
%TO.N,KP_C1*%
%TA.AperFunction,SMDPad,CuDef*%
G36*
G01*
X119856866Y-108343286D02*
X118919950Y-109280202D01*
G75*
G02*
X118813884Y-109280202I-53033J53033D01*
G01*
X118707818Y-109174136D01*
G75*
G02*
X118707818Y-109068070I53033J53033D01*
G01*
X119644734Y-108131154D01*
G75*
G02*
X119750800Y-108131154I53033J-53033D01*
G01*
X119856866Y-108237220D01*
G75*
G02*
X119856866Y-108343286I-53033J-53033D01*
G01*
G37*
%TD.AperFunction*%
%TO.P,U3,39*%
%TO.N,KP_C2*%
%TA.AperFunction,SMDPad,CuDef*%
G36*
G01*
X120210419Y-108696839D02*
X119273503Y-109633755D01*
G75*
G02*
X119167437Y-109633755I-53033J53033D01*
G01*
X119061371Y-109527689D01*
G75*
G02*
X119061371Y-109421623I53033J53033D01*
G01*
X119998287Y-108484707D01*
G75*
G02*
X120104353Y-108484707I53033J-53033D01*
G01*
X120210419Y-108590773D01*
G75*
G02*
X120210419Y-108696839I-53033J-53033D01*
G01*
G37*
%TD.AperFunction*%
%TO.P,U3,40*%
%TO.N,KP_C3*%
%TA.AperFunction,SMDPad,CuDef*%
G36*
G01*
X120563973Y-109050393D02*
X119627057Y-109987309D01*
G75*
G02*
X119520991Y-109987309I-53033J53033D01*
G01*
X119414925Y-109881243D01*
G75*
G02*
X119414925Y-109775177I53033J53033D01*
G01*
X120351841Y-108838261D01*
G75*
G02*
X120457907Y-108838261I53033J-53033D01*
G01*
X120563973Y-108944327D01*
G75*
G02*
X120563973Y-109050393I-53033J-53033D01*
G01*
G37*
%TD.AperFunction*%
%TO.P,U3,41*%
%TO.N,KP_C4*%
%TA.AperFunction,SMDPad,CuDef*%
G36*
G01*
X120917526Y-109403946D02*
X119980610Y-110340862D01*
G75*
G02*
X119874544Y-110340862I-53033J53033D01*
G01*
X119768478Y-110234796D01*
G75*
G02*
X119768478Y-110128730I53033J53033D01*
G01*
X120705394Y-109191814D01*
G75*
G02*
X120811460Y-109191814I53033J-53033D01*
G01*
X120917526Y-109297880D01*
G75*
G02*
X120917526Y-109403946I-53033J-53033D01*
G01*
G37*
%TD.AperFunction*%
%TO.P,U3,42*%
%TO.N,KP_F1*%
%TA.AperFunction,SMDPad,CuDef*%
G36*
G01*
X121271079Y-109757499D02*
X120334163Y-110694415D01*
G75*
G02*
X120228097Y-110694415I-53033J53033D01*
G01*
X120122031Y-110588349D01*
G75*
G02*
X120122031Y-110482283I53033J53033D01*
G01*
X121058947Y-109545367D01*
G75*
G02*
X121165013Y-109545367I53033J-53033D01*
G01*
X121271079Y-109651433D01*
G75*
G02*
X121271079Y-109757499I-53033J-53033D01*
G01*
G37*
%TD.AperFunction*%
%TO.P,U3,43*%
%TO.N,KP_F2*%
%TA.AperFunction,SMDPad,CuDef*%
G36*
G01*
X121624633Y-110111053D02*
X120687717Y-111047969D01*
G75*
G02*
X120581651Y-111047969I-53033J53033D01*
G01*
X120475585Y-110941903D01*
G75*
G02*
X120475585Y-110835837I53033J53033D01*
G01*
X121412501Y-109898921D01*
G75*
G02*
X121518567Y-109898921I53033J-53033D01*
G01*
X121624633Y-110004987D01*
G75*
G02*
X121624633Y-110111053I-53033J-53033D01*
G01*
G37*
%TD.AperFunction*%
%TO.P,U3,44*%
%TO.N,Net-(R2-Pad2)*%
%TA.AperFunction,SMDPad,CuDef*%
G36*
G01*
X121978186Y-110464606D02*
X121041270Y-111401522D01*
G75*
G02*
X120935204Y-111401522I-53033J53033D01*
G01*
X120829138Y-111295456D01*
G75*
G02*
X120829138Y-111189390I53033J53033D01*
G01*
X121766054Y-110252474D01*
G75*
G02*
X121872120Y-110252474I53033J-53033D01*
G01*
X121978186Y-110358540D01*
G75*
G02*
X121978186Y-110464606I-53033J-53033D01*
G01*
G37*
%TD.AperFunction*%
%TO.P,U3,45*%
%TO.N,KP_F3*%
%TA.AperFunction,SMDPad,CuDef*%
G36*
G01*
X122331739Y-110818159D02*
X121394823Y-111755075D01*
G75*
G02*
X121288757Y-111755075I-53033J53033D01*
G01*
X121182691Y-111649009D01*
G75*
G02*
X121182691Y-111542943I53033J53033D01*
G01*
X122119607Y-110606027D01*
G75*
G02*
X122225673Y-110606027I53033J-53033D01*
G01*
X122331739Y-110712093D01*
G75*
G02*
X122331739Y-110818159I-53033J-53033D01*
G01*
G37*
%TD.AperFunction*%
%TO.P,U3,46*%
%TO.N,KP_F4*%
%TA.AperFunction,SMDPad,CuDef*%
G36*
G01*
X122685293Y-111171713D02*
X121748377Y-112108629D01*
G75*
G02*
X121642311Y-112108629I-53033J53033D01*
G01*
X121536245Y-112002563D01*
G75*
G02*
X121536245Y-111896497I53033J53033D01*
G01*
X122473161Y-110959581D01*
G75*
G02*
X122579227Y-110959581I53033J-53033D01*
G01*
X122685293Y-111065647D01*
G75*
G02*
X122685293Y-111171713I-53033J-53033D01*
G01*
G37*
%TD.AperFunction*%
%TO.P,U3,47*%
%TO.N,GNDD*%
%TA.AperFunction,SMDPad,CuDef*%
G36*
G01*
X123038846Y-111525266D02*
X122101930Y-112462182D01*
G75*
G02*
X121995864Y-112462182I-53033J53033D01*
G01*
X121889798Y-112356116D01*
G75*
G02*
X121889798Y-112250050I53033J53033D01*
G01*
X122826714Y-111313134D01*
G75*
G02*
X122932780Y-111313134I53033J-53033D01*
G01*
X123038846Y-111419200D01*
G75*
G02*
X123038846Y-111525266I-53033J-53033D01*
G01*
G37*
%TD.AperFunction*%
%TO.P,U3,48*%
%TO.N,/3.3vDIG*%
%TA.AperFunction,SMDPad,CuDef*%
G36*
G01*
X123392400Y-111878820D02*
X122455484Y-112815736D01*
G75*
G02*
X122349418Y-112815736I-53033J53033D01*
G01*
X122243352Y-112709670D01*
G75*
G02*
X122243352Y-112603604I53033J53033D01*
G01*
X123180268Y-111666688D01*
G75*
G02*
X123286334Y-111666688I53033J-53033D01*
G01*
X123392400Y-111772754D01*
G75*
G02*
X123392400Y-111878820I-53033J-53033D01*
G01*
G37*
%TD.AperFunction*%
%TD*%
D14*
%TO.P,Q2,1*%
%TO.N,GNDD*%
X99850000Y-143500000D03*
%TO.P,Q2,3*%
%TO.N,Net-(Q1-Pad2)*%
X99850000Y-140500000D03*
%TA.AperFunction,SMDPad,CuDef*%
D15*
%TO.P,Q2,2*%
%TO.N,Net-(D2-Pad2)*%
G36*
X105300000Y-142866500D02*
G01*
X101175000Y-142866500D01*
X101175000Y-142450000D01*
X98700000Y-142450000D01*
X98700000Y-141550000D01*
X101175000Y-141550000D01*
X101175000Y-141133500D01*
X105300000Y-141133500D01*
X105300000Y-142866500D01*
G37*
%TD.AperFunction*%
%TD*%
%TO.P,C5,1*%
%TO.N,/3.3vDIG*%
%TA.AperFunction,SMDPad,CuDef*%
G36*
G01*
X116140729Y-104973395D02*
X116476605Y-105309271D01*
G75*
G02*
X116476605Y-105645147I-167938J-167938D01*
G01*
X116070019Y-106051733D01*
G75*
G02*
X115734143Y-106051733I-167938J167938D01*
G01*
X115398267Y-105715857D01*
G75*
G02*
X115398267Y-105379981I167938J167938D01*
G01*
X115804853Y-104973395D01*
G75*
G02*
X116140729Y-104973395I167938J-167938D01*
G01*
G37*
%TD.AperFunction*%
%TO.P,C5,2*%
%TO.N,GNDD*%
%TA.AperFunction,SMDPad,CuDef*%
G36*
G01*
X114903293Y-106210831D02*
X115239169Y-106546707D01*
G75*
G02*
X115239169Y-106882583I-167938J-167938D01*
G01*
X114832583Y-107289169D01*
G75*
G02*
X114496707Y-107289169I-167938J167938D01*
G01*
X114160831Y-106953293D01*
G75*
G02*
X114160831Y-106617417I167938J167938D01*
G01*
X114567417Y-106210831D01*
G75*
G02*
X114903293Y-106210831I167938J-167938D01*
G01*
G37*
%TD.AperFunction*%
%TD*%
%TO.P,C15,2*%
%TO.N,GNDD*%
%TA.AperFunction,SMDPad,CuDef*%
G36*
G01*
X114465000Y-128577500D02*
X114465000Y-128102500D01*
G75*
G02*
X114702500Y-127865000I237500J0D01*
G01*
X115277500Y-127865000D01*
G75*
G02*
X115515000Y-128102500I0J-237500D01*
G01*
X115515000Y-128577500D01*
G75*
G02*
X115277500Y-128815000I-237500J0D01*
G01*
X114702500Y-128815000D01*
G75*
G02*
X114465000Y-128577500I0J237500D01*
G01*
G37*
%TD.AperFunction*%
%TO.P,C15,1*%
%TO.N,Temp*%
%TA.AperFunction,SMDPad,CuDef*%
G36*
G01*
X112715000Y-128577500D02*
X112715000Y-128102500D01*
G75*
G02*
X112952500Y-127865000I237500J0D01*
G01*
X113527500Y-127865000D01*
G75*
G02*
X113765000Y-128102500I0J-237500D01*
G01*
X113765000Y-128577500D01*
G75*
G02*
X113527500Y-128815000I-237500J0D01*
G01*
X112952500Y-128815000D01*
G75*
G02*
X112715000Y-128577500I0J237500D01*
G01*
G37*
%TD.AperFunction*%
%TD*%
%TO.P,C12,2*%
%TO.N,GNDD*%
%TA.AperFunction,SMDPad,CuDef*%
G36*
G01*
X109902500Y-124940000D02*
X110377500Y-124940000D01*
G75*
G02*
X110615000Y-125177500I0J-237500D01*
G01*
X110615000Y-125752500D01*
G75*
G02*
X110377500Y-125990000I-237500J0D01*
G01*
X109902500Y-125990000D01*
G75*
G02*
X109665000Y-125752500I0J237500D01*
G01*
X109665000Y-125177500D01*
G75*
G02*
X109902500Y-124940000I237500J0D01*
G01*
G37*
%TD.AperFunction*%
%TO.P,C12,1*%
%TO.N,/+5vDIG*%
%TA.AperFunction,SMDPad,CuDef*%
G36*
G01*
X109902500Y-123190000D02*
X110377500Y-123190000D01*
G75*
G02*
X110615000Y-123427500I0J-237500D01*
G01*
X110615000Y-124002500D01*
G75*
G02*
X110377500Y-124240000I-237500J0D01*
G01*
X109902500Y-124240000D01*
G75*
G02*
X109665000Y-124002500I0J237500D01*
G01*
X109665000Y-123427500D01*
G75*
G02*
X109902500Y-123190000I237500J0D01*
G01*
G37*
%TD.AperFunction*%
%TD*%
D16*
%TO.P,U4,2*%
%TO.N,Temp*%
X114140000Y-125590000D03*
%TO.P,U4,3*%
%TO.N,GNDD*%
X115410000Y-124320000D03*
D17*
%TO.P,U4,1*%
%TO.N,/+5vDIG*%
X112870000Y-124320000D03*
%TD*%
%TO.P,C2,1*%
%TO.N,/3.3vDIG*%
%TA.AperFunction,SMDPad,CuDef*%
G36*
G01*
X132725647Y-115272044D02*
X133362044Y-114635647D01*
G75*
G02*
X133715596Y-114635647I176776J-176776D01*
G01*
X134175217Y-115095268D01*
G75*
G02*
X134175217Y-115448820I-176776J-176776D01*
G01*
X133538820Y-116085217D01*
G75*
G02*
X133185268Y-116085217I-176776J176776D01*
G01*
X132725647Y-115625596D01*
G75*
G02*
X132725647Y-115272044I176776J176776D01*
G01*
G37*
%TD.AperFunction*%
%TO.P,C2,2*%
%TO.N,GNDD*%
%TA.AperFunction,SMDPad,CuDef*%
G36*
G01*
X134175215Y-116721612D02*
X134811612Y-116085215D01*
G75*
G02*
X135165164Y-116085215I176776J-176776D01*
G01*
X135624785Y-116544836D01*
G75*
G02*
X135624785Y-116898388I-176776J-176776D01*
G01*
X134988388Y-117534785D01*
G75*
G02*
X134634836Y-117534785I-176776J176776D01*
G01*
X134175215Y-117075164D01*
G75*
G02*
X134175215Y-116721612I176776J176776D01*
G01*
G37*
%TD.AperFunction*%
%TD*%
%TO.P,C4,1*%
%TO.N,/+5vDIG*%
%TA.AperFunction,SMDPad,CuDef*%
G36*
G01*
X154584999Y-120925000D02*
X155135001Y-120925000D01*
G75*
G02*
X155385000Y-121174999I0J-249999D01*
G01*
X155385000Y-121975001D01*
G75*
G02*
X155135001Y-122225000I-249999J0D01*
G01*
X154584999Y-122225000D01*
G75*
G02*
X154335000Y-121975001I0J249999D01*
G01*
X154335000Y-121174999D01*
G75*
G02*
X154584999Y-120925000I249999J0D01*
G01*
G37*
%TD.AperFunction*%
%TO.P,C4,2*%
%TO.N,GNDD*%
%TA.AperFunction,SMDPad,CuDef*%
G36*
G01*
X154584999Y-122875000D02*
X155135001Y-122875000D01*
G75*
G02*
X155385000Y-123124999I0J-249999D01*
G01*
X155385000Y-123925001D01*
G75*
G02*
X155135001Y-124175000I-249999J0D01*
G01*
X154584999Y-124175000D01*
G75*
G02*
X154335000Y-123925001I0J249999D01*
G01*
X154335000Y-123124999D01*
G75*
G02*
X154584999Y-122875000I249999J0D01*
G01*
G37*
%TD.AperFunction*%
%TD*%
%TO.P,C11,2*%
%TO.N,GNDD*%
%TA.AperFunction,SMDPad,CuDef*%
G36*
G01*
X156535000Y-109274999D02*
X156535000Y-109825001D01*
G75*
G02*
X156285001Y-110075000I-249999J0D01*
G01*
X155484999Y-110075000D01*
G75*
G02*
X155235000Y-109825001I0J249999D01*
G01*
X155235000Y-109274999D01*
G75*
G02*
X155484999Y-109025000I249999J0D01*
G01*
X156285001Y-109025000D01*
G75*
G02*
X156535000Y-109274999I0J-249999D01*
G01*
G37*
%TD.AperFunction*%
%TO.P,C11,1*%
%TO.N,/3.3vDIG*%
%TA.AperFunction,SMDPad,CuDef*%
G36*
G01*
X158485000Y-109274999D02*
X158485000Y-109825001D01*
G75*
G02*
X158235001Y-110075000I-249999J0D01*
G01*
X157434999Y-110075000D01*
G75*
G02*
X157185000Y-109825001I0J249999D01*
G01*
X157185000Y-109274999D01*
G75*
G02*
X157434999Y-109025000I249999J0D01*
G01*
X158235001Y-109025000D01*
G75*
G02*
X158485000Y-109274999I0J-249999D01*
G01*
G37*
%TD.AperFunction*%
%TD*%
%TO.P,Status,1*%
%TO.N,Net-(D1-Pad1)*%
%TA.AperFunction,SMDPad,CuDef*%
G36*
G01*
X131262500Y-111903750D02*
X131262500Y-112816250D01*
G75*
G02*
X131018750Y-113060000I-243750J0D01*
G01*
X130531250Y-113060000D01*
G75*
G02*
X130287500Y-112816250I0J243750D01*
G01*
X130287500Y-111903750D01*
G75*
G02*
X130531250Y-111660000I243750J0D01*
G01*
X131018750Y-111660000D01*
G75*
G02*
X131262500Y-111903750I0J-243750D01*
G01*
G37*
%TD.AperFunction*%
%TO.P,Status,2*%
%TO.N,LedHeartBeat*%
%TA.AperFunction,SMDPad,CuDef*%
G36*
G01*
X129387500Y-111903750D02*
X129387500Y-112816250D01*
G75*
G02*
X129143750Y-113060000I-243750J0D01*
G01*
X128656250Y-113060000D01*
G75*
G02*
X128412500Y-112816250I0J243750D01*
G01*
X128412500Y-111903750D01*
G75*
G02*
X128656250Y-111660000I243750J0D01*
G01*
X129143750Y-111660000D01*
G75*
G02*
X129387500Y-111903750I0J-243750D01*
G01*
G37*
%TD.AperFunction*%
%TD*%
D18*
%TO.P,D2,1*%
%TO.N,/+12vFAN*%
X99545001Y-147000000D03*
%TO.P,D2,2*%
%TO.N,Net-(D2-Pad2)*%
X104545001Y-147000000D03*
%TD*%
%TO.P,FB1,2*%
%TO.N,GNDD*%
%TA.AperFunction,SMDPad,CuDef*%
G36*
G01*
X52325000Y-102399999D02*
X52325000Y-103300001D01*
G75*
G02*
X52075001Y-103550000I-249999J0D01*
G01*
X51424999Y-103550000D01*
G75*
G02*
X51175000Y-103300001I0J249999D01*
G01*
X51175000Y-102399999D01*
G75*
G02*
X51424999Y-102150000I249999J0D01*
G01*
X52075001Y-102150000D01*
G75*
G02*
X52325000Y-102399999I0J-249999D01*
G01*
G37*
%TD.AperFunction*%
%TO.P,FB1,1*%
%TO.N,Net-(FB1-Pad1)*%
%TA.AperFunction,SMDPad,CuDef*%
G36*
G01*
X54375000Y-102399999D02*
X54375000Y-103300001D01*
G75*
G02*
X54125001Y-103550000I-249999J0D01*
G01*
X53474999Y-103550000D01*
G75*
G02*
X53225000Y-103300001I0J249999D01*
G01*
X53225000Y-102399999D01*
G75*
G02*
X53474999Y-102150000I249999J0D01*
G01*
X54125001Y-102150000D01*
G75*
G02*
X54375000Y-102399999I0J-249999D01*
G01*
G37*
%TD.AperFunction*%
%TD*%
%TO.P,FB2,1*%
%TO.N,/3.3vDIG*%
%TA.AperFunction,SMDPad,CuDef*%
G36*
G01*
X124705000Y-122939999D02*
X124705000Y-123840001D01*
G75*
G02*
X124455001Y-124090000I-249999J0D01*
G01*
X123804999Y-124090000D01*
G75*
G02*
X123555000Y-123840001I0J249999D01*
G01*
X123555000Y-122939999D01*
G75*
G02*
X123804999Y-122690000I249999J0D01*
G01*
X124455001Y-122690000D01*
G75*
G02*
X124705000Y-122939999I0J-249999D01*
G01*
G37*
%TD.AperFunction*%
%TO.P,FB2,2*%
%TO.N,Net-(FB2-Pad2)*%
%TA.AperFunction,SMDPad,CuDef*%
G36*
G01*
X122655000Y-122939999D02*
X122655000Y-123840001D01*
G75*
G02*
X122405001Y-124090000I-249999J0D01*
G01*
X121754999Y-124090000D01*
G75*
G02*
X121505000Y-123840001I0J249999D01*
G01*
X121505000Y-122939999D01*
G75*
G02*
X121754999Y-122690000I249999J0D01*
G01*
X122405001Y-122690000D01*
G75*
G02*
X122655000Y-122939999I0J-249999D01*
G01*
G37*
%TD.AperFunction*%
%TD*%
%TO.P,FB3,1*%
%TO.N,Net-(FB3-Pad1)*%
%TA.AperFunction,SMDPad,CuDef*%
G36*
G01*
X119780000Y-87089999D02*
X119780000Y-87990001D01*
G75*
G02*
X119530001Y-88240000I-249999J0D01*
G01*
X118879999Y-88240000D01*
G75*
G02*
X118630000Y-87990001I0J249999D01*
G01*
X118630000Y-87089999D01*
G75*
G02*
X118879999Y-86840000I249999J0D01*
G01*
X119530001Y-86840000D01*
G75*
G02*
X119780000Y-87089999I0J-249999D01*
G01*
G37*
%TD.AperFunction*%
%TO.P,FB3,2*%
%TO.N,GNDD*%
%TA.AperFunction,SMDPad,CuDef*%
G36*
G01*
X117730000Y-87089999D02*
X117730000Y-87990001D01*
G75*
G02*
X117480001Y-88240000I-249999J0D01*
G01*
X116829999Y-88240000D01*
G75*
G02*
X116580000Y-87990001I0J249999D01*
G01*
X116580000Y-87089999D01*
G75*
G02*
X116829999Y-86840000I249999J0D01*
G01*
X117480001Y-86840000D01*
G75*
G02*
X117730000Y-87089999I0J-249999D01*
G01*
G37*
%TD.AperFunction*%
%TD*%
D19*
%TO.P,ENC,1*%
%TO.N,Net-(IC1-Pad1)*%
X196800000Y-114000000D03*
%TO.P,ENC,2*%
%TO.N,GNDD*%
X201800000Y-114000000D03*
%TO.P,ENC,A1*%
%TO.N,Net-(IC1-PadA1)*%
X196800000Y-128500000D03*
%TO.P,ENC,B1*%
%TO.N,Net-(IC1-PadB1)*%
X201800000Y-128500000D03*
%TO.P,ENC,C1*%
%TO.N,GNDD*%
X199300000Y-128500000D03*
D20*
%TO.P,ENC,MH1*%
%TO.N,Net-(IC1-PadMH1)*%
X193600000Y-121000000D03*
%TO.P,ENC,MH2*%
%TO.N,Net-(IC1-PadMH2)*%
X205000000Y-121000000D03*
%TD*%
D21*
%TO.P,J2,1*%
%TO.N,Net-(J2-Pad1)*%
X124310000Y-101440000D03*
%TO.P,J2,2*%
%TO.N,SWCLK*%
X124310000Y-91940004D03*
%TO.P,J2,3*%
%TO.N,Net-(J2-Pad3)*%
X121770000Y-101440000D03*
%TO.P,J2,4*%
%TO.N,SWDIO*%
X121770000Y-91940004D03*
%TO.P,J2,5*%
%TO.N,Net-(FB3-Pad1)*%
X119230000Y-101440000D03*
%TO.P,J2,6*%
X119230000Y-91940004D03*
%TO.P,J2,7*%
%TO.N,Net-(J2-Pad7)*%
X116690000Y-101440000D03*
%TO.P,J2,8*%
%TO.N,Net-(J2-Pad8)*%
X116690000Y-91940004D03*
%TO.P,J2,9*%
%TO.N,Net-(J2-Pad9)*%
X114150000Y-101440000D03*
%TO.P,J2,10*%
%TO.N,Net-(J2-Pad10)*%
X114150000Y-91940004D03*
%TD*%
%TO.P,Fuentes,1*%
%TO.N,GNDD*%
%TA.AperFunction,ComponentPad*%
G36*
G01*
X193750000Y-156445000D02*
X193750000Y-157895000D01*
G75*
G02*
X193500000Y-158145000I-250000J0D01*
G01*
X192300000Y-158145000D01*
G75*
G02*
X192050000Y-157895000I0J250000D01*
G01*
X192050000Y-156445000D01*
G75*
G02*
X192300000Y-156195000I250000J0D01*
G01*
X193500000Y-156195000D01*
G75*
G02*
X193750000Y-156445000I0J-250000D01*
G01*
G37*
%TD.AperFunction*%
D22*
%TO.P,Fuentes,2*%
X190400000Y-157170000D03*
%TO.P,Fuentes,3*%
X187900000Y-157170000D03*
%TO.P,Fuentes,4*%
%TO.N,/+12vFAN*%
X185400000Y-157170000D03*
%TO.P,Fuentes,5*%
X182900000Y-157170000D03*
%TO.P,Fuentes,6*%
%TO.N,/+5vDIG*%
X180400000Y-157170000D03*
%TO.P,Fuentes,7*%
X177900000Y-157170000D03*
%TD*%
D23*
%TO.P,Cooler,1*%
%TO.N,/+12vFAN*%
X99080000Y-155000000D03*
D24*
%TO.P,Cooler,2*%
%TO.N,Net-(D2-Pad2)*%
X104160000Y-155000000D03*
%TD*%
D12*
%TO.P,KB4x4,1*%
%TO.N,KP_C1*%
X178520000Y-94000000D03*
D13*
%TO.P,KB4x4,2*%
%TO.N,KP_C2*%
X181060000Y-94000000D03*
%TO.P,KB4x4,3*%
%TO.N,KP_C3*%
X183600000Y-94000000D03*
%TO.P,KB4x4,4*%
%TO.N,KP_C4*%
X186140000Y-94000000D03*
%TO.P,KB4x4,5*%
%TO.N,KP_F1*%
X188680000Y-94000000D03*
%TO.P,KB4x4,6*%
%TO.N,KP_F2*%
X191220000Y-94000000D03*
%TO.P,KB4x4,7*%
%TO.N,KP_F3*%
X193760000Y-94000000D03*
%TO.P,KB4x4,8*%
%TO.N,KP_F4*%
X196300000Y-94000000D03*
%TD*%
D25*
%TO.P,Q1,1*%
%TO.N,Net-(Q1-Pad1)*%
X95100000Y-140000000D03*
%TO.P,Q1,2*%
%TO.N,Net-(Q1-Pad2)*%
X97000000Y-140000000D03*
%TO.P,Q1,3*%
%TO.N,Net-(D2-Pad2)*%
X96050000Y-142000000D03*
%TD*%
D26*
%TO.P,Contraste,1*%
%TO.N,/+5vDIG*%
X58925000Y-91975000D03*
D27*
%TO.P,Contraste,2*%
%TO.N,V0*%
X55675000Y-92975000D03*
D26*
%TO.P,Contraste,3*%
%TO.N,GNDD*%
X58925000Y-93975000D03*
%TD*%
D28*
%TO.P,RST,1*%
%TO.N,GNDD*%
X143560000Y-122230000D03*
X137260000Y-122230000D03*
%TO.P,RST,2*%
%TO.N,/NRST*%
X143560000Y-126030000D03*
X137260000Y-126030000D03*
%TD*%
D29*
%TO.P,3.3v,2*%
%TO.N,/3.3vDIG*%
X159860000Y-112400000D03*
D30*
X159860000Y-118700000D03*
%TO.P,3.3v,3*%
%TO.N,/+5vDIG*%
X157560000Y-118700000D03*
%TO.P,3.3v,1*%
%TO.N,GNDD*%
X162160000Y-118700000D03*
%TD*%
D31*
%TO.P,U2,1*%
%TO.N,USB_COND-*%
X63350000Y-111050000D03*
%TO.P,U2,2*%
%TO.N,GNDD*%
X63350000Y-110100000D03*
%TO.P,U2,3*%
%TO.N,USB_COND+*%
X63350000Y-109150000D03*
%TO.P,U2,4*%
%TO.N,USB_D+*%
X65550000Y-109150000D03*
%TO.P,U2,6*%
%TO.N,USB_D-*%
X65550000Y-111050000D03*
%TO.P,U2,5*%
%TO.N,/+5vDIG*%
X65550000Y-110100000D03*
%TD*%
D32*
%TO.P,Y1,1*%
%TO.N,Net-(C3-Pad1)*%
X128510000Y-121530000D03*
%TO.P,Y1,2*%
%TO.N,GNDD*%
X124510000Y-121530000D03*
%TO.P,Y1,3*%
%TO.N,Net-(C7-Pad1)*%
X124510000Y-119130000D03*
%TO.P,Y1,4*%
%TO.N,GNDD*%
X128510000Y-119130000D03*
%TD*%
%TO.P,C1,1*%
%TO.N,/NRST*%
%TA.AperFunction,SMDPad,CuDef*%
G36*
G01*
X135257500Y-125635000D02*
X134782500Y-125635000D01*
G75*
G02*
X134545000Y-125397500I0J237500D01*
G01*
X134545000Y-124822500D01*
G75*
G02*
X134782500Y-124585000I237500J0D01*
G01*
X135257500Y-124585000D01*
G75*
G02*
X135495000Y-124822500I0J-237500D01*
G01*
X135495000Y-125397500D01*
G75*
G02*
X135257500Y-125635000I-237500J0D01*
G01*
G37*
%TD.AperFunction*%
%TO.P,C1,2*%
%TO.N,GNDD*%
%TA.AperFunction,SMDPad,CuDef*%
G36*
G01*
X135257500Y-123885000D02*
X134782500Y-123885000D01*
G75*
G02*
X134545000Y-123647500I0J237500D01*
G01*
X134545000Y-123072500D01*
G75*
G02*
X134782500Y-122835000I237500J0D01*
G01*
X135257500Y-122835000D01*
G75*
G02*
X135495000Y-123072500I0J-237500D01*
G01*
X135495000Y-123647500D01*
G75*
G02*
X135257500Y-123885000I-237500J0D01*
G01*
G37*
%TD.AperFunction*%
%TD*%
%TO.P,C3,1*%
%TO.N,Net-(C3-Pad1)*%
%TA.AperFunction,SMDPad,CuDef*%
G36*
G01*
X130807500Y-121780000D02*
X130332500Y-121780000D01*
G75*
G02*
X130095000Y-121542500I0J237500D01*
G01*
X130095000Y-120967500D01*
G75*
G02*
X130332500Y-120730000I237500J0D01*
G01*
X130807500Y-120730000D01*
G75*
G02*
X131045000Y-120967500I0J-237500D01*
G01*
X131045000Y-121542500D01*
G75*
G02*
X130807500Y-121780000I-237500J0D01*
G01*
G37*
%TD.AperFunction*%
%TO.P,C3,2*%
%TO.N,GNDD*%
%TA.AperFunction,SMDPad,CuDef*%
G36*
G01*
X130807500Y-120030000D02*
X130332500Y-120030000D01*
G75*
G02*
X130095000Y-119792500I0J237500D01*
G01*
X130095000Y-119217500D01*
G75*
G02*
X130332500Y-118980000I237500J0D01*
G01*
X130807500Y-118980000D01*
G75*
G02*
X131045000Y-119217500I0J-237500D01*
G01*
X131045000Y-119792500D01*
G75*
G02*
X130807500Y-120030000I-237500J0D01*
G01*
G37*
%TD.AperFunction*%
%TD*%
%TO.P,C6,1*%
%TO.N,/+5vDIG*%
%TA.AperFunction,SMDPad,CuDef*%
G36*
G01*
X157622500Y-121125000D02*
X158097500Y-121125000D01*
G75*
G02*
X158335000Y-121362500I0J-237500D01*
G01*
X158335000Y-121937500D01*
G75*
G02*
X158097500Y-122175000I-237500J0D01*
G01*
X157622500Y-122175000D01*
G75*
G02*
X157385000Y-121937500I0J237500D01*
G01*
X157385000Y-121362500D01*
G75*
G02*
X157622500Y-121125000I237500J0D01*
G01*
G37*
%TD.AperFunction*%
%TO.P,C6,2*%
%TO.N,GNDD*%
%TA.AperFunction,SMDPad,CuDef*%
G36*
G01*
X157622500Y-122875000D02*
X158097500Y-122875000D01*
G75*
G02*
X158335000Y-123112500I0J-237500D01*
G01*
X158335000Y-123687500D01*
G75*
G02*
X158097500Y-123925000I-237500J0D01*
G01*
X157622500Y-123925000D01*
G75*
G02*
X157385000Y-123687500I0J237500D01*
G01*
X157385000Y-123112500D01*
G75*
G02*
X157622500Y-122875000I237500J0D01*
G01*
G37*
%TD.AperFunction*%
%TD*%
%TO.P,C7,1*%
%TO.N,Net-(C7-Pad1)*%
%TA.AperFunction,SMDPad,CuDef*%
G36*
G01*
X122212500Y-118795000D02*
X122687500Y-118795000D01*
G75*
G02*
X122925000Y-119032500I0J-237500D01*
G01*
X122925000Y-119607500D01*
G75*
G02*
X122687500Y-119845000I-237500J0D01*
G01*
X122212500Y-119845000D01*
G75*
G02*
X121975000Y-119607500I0J237500D01*
G01*
X121975000Y-119032500D01*
G75*
G02*
X122212500Y-118795000I237500J0D01*
G01*
G37*
%TD.AperFunction*%
%TO.P,C7,2*%
%TO.N,GNDD*%
%TA.AperFunction,SMDPad,CuDef*%
G36*
G01*
X122212500Y-120545000D02*
X122687500Y-120545000D01*
G75*
G02*
X122925000Y-120782500I0J-237500D01*
G01*
X122925000Y-121357500D01*
G75*
G02*
X122687500Y-121595000I-237500J0D01*
G01*
X122212500Y-121595000D01*
G75*
G02*
X121975000Y-121357500I0J237500D01*
G01*
X121975000Y-120782500D01*
G75*
G02*
X122212500Y-120545000I237500J0D01*
G01*
G37*
%TD.AperFunction*%
%TD*%
%TO.P,C8,2*%
%TO.N,GNDD*%
%TA.AperFunction,SMDPad,CuDef*%
G36*
G01*
X125794549Y-115515425D02*
X126130425Y-115179549D01*
G75*
G02*
X126466301Y-115179549I167938J-167938D01*
G01*
X126872887Y-115586135D01*
G75*
G02*
X126872887Y-115922011I-167938J-167938D01*
G01*
X126537011Y-116257887D01*
G75*
G02*
X126201135Y-116257887I-167938J167938D01*
G01*
X125794549Y-115851301D01*
G75*
G02*
X125794549Y-115515425I167938J167938D01*
G01*
G37*
%TD.AperFunction*%
%TO.P,C8,1*%
%TO.N,/3.3vDIG*%
%TA.AperFunction,SMDPad,CuDef*%
G36*
G01*
X124557113Y-114277989D02*
X124892989Y-113942113D01*
G75*
G02*
X125228865Y-113942113I167938J-167938D01*
G01*
X125635451Y-114348699D01*
G75*
G02*
X125635451Y-114684575I-167938J-167938D01*
G01*
X125299575Y-115020451D01*
G75*
G02*
X124963699Y-115020451I-167938J167938D01*
G01*
X124557113Y-114613865D01*
G75*
G02*
X124557113Y-114277989I167938J167938D01*
G01*
G37*
%TD.AperFunction*%
%TD*%
%TO.P,C9,2*%
%TO.N,GNDD*%
%TA.AperFunction,SMDPad,CuDef*%
G36*
G01*
X125845425Y-110355451D02*
X125509549Y-110019575D01*
G75*
G02*
X125509549Y-109683699I167938J167938D01*
G01*
X125916135Y-109277113D01*
G75*
G02*
X126252011Y-109277113I167938J-167938D01*
G01*
X126587887Y-109612989D01*
G75*
G02*
X126587887Y-109948865I-167938J-167938D01*
G01*
X126181301Y-110355451D01*
G75*
G02*
X125845425Y-110355451I-167938J167938D01*
G01*
G37*
%TD.AperFunction*%
%TO.P,C9,1*%
%TO.N,/3.3vDIG*%
%TA.AperFunction,SMDPad,CuDef*%
G36*
G01*
X124607989Y-111592887D02*
X124272113Y-111257011D01*
G75*
G02*
X124272113Y-110921135I167938J167938D01*
G01*
X124678699Y-110514549D01*
G75*
G02*
X125014575Y-110514549I167938J-167938D01*
G01*
X125350451Y-110850425D01*
G75*
G02*
X125350451Y-111186301I-167938J-167938D01*
G01*
X124943865Y-111592887D01*
G75*
G02*
X124607989Y-111592887I-167938J167938D01*
G01*
G37*
%TD.AperFunction*%
%TD*%
%TO.P,C10,1*%
%TO.N,/3.3vDIG*%
%TA.AperFunction,SMDPad,CuDef*%
G36*
G01*
X109877113Y-114117989D02*
X110212989Y-113782113D01*
G75*
G02*
X110548865Y-113782113I167938J-167938D01*
G01*
X110955451Y-114188699D01*
G75*
G02*
X110955451Y-114524575I-167938J-167938D01*
G01*
X110619575Y-114860451D01*
G75*
G02*
X110283699Y-114860451I-167938J167938D01*
G01*
X109877113Y-114453865D01*
G75*
G02*
X109877113Y-114117989I167938J167938D01*
G01*
G37*
%TD.AperFunction*%
%TO.P,C10,2*%
%TO.N,GNDD*%
%TA.AperFunction,SMDPad,CuDef*%
G36*
G01*
X111114549Y-115355425D02*
X111450425Y-115019549D01*
G75*
G02*
X111786301Y-115019549I167938J-167938D01*
G01*
X112192887Y-115426135D01*
G75*
G02*
X112192887Y-115762011I-167938J-167938D01*
G01*
X111857011Y-116097887D01*
G75*
G02*
X111521135Y-116097887I-167938J167938D01*
G01*
X111114549Y-115691301D01*
G75*
G02*
X111114549Y-115355425I167938J167938D01*
G01*
G37*
%TD.AperFunction*%
%TD*%
%TO.P,C13,2*%
%TO.N,GNDD*%
%TA.AperFunction,SMDPad,CuDef*%
G36*
G01*
X187212500Y-115225000D02*
X187687500Y-115225000D01*
G75*
G02*
X187925000Y-115462500I0J-237500D01*
G01*
X187925000Y-116037500D01*
G75*
G02*
X187687500Y-116275000I-237500J0D01*
G01*
X187212500Y-116275000D01*
G75*
G02*
X186975000Y-116037500I0J237500D01*
G01*
X186975000Y-115462500D01*
G75*
G02*
X187212500Y-115225000I237500J0D01*
G01*
G37*
%TD.AperFunction*%
%TO.P,C13,1*%
%TO.N,ENC_BUTTON*%
%TA.AperFunction,SMDPad,CuDef*%
G36*
G01*
X187212500Y-113475000D02*
X187687500Y-113475000D01*
G75*
G02*
X187925000Y-113712500I0J-237500D01*
G01*
X187925000Y-114287500D01*
G75*
G02*
X187687500Y-114525000I-237500J0D01*
G01*
X187212500Y-114525000D01*
G75*
G02*
X186975000Y-114287500I0J237500D01*
G01*
X186975000Y-113712500D01*
G75*
G02*
X187212500Y-113475000I237500J0D01*
G01*
G37*
%TD.AperFunction*%
%TD*%
%TO.P,C14,2*%
%TO.N,GNDD*%
%TA.AperFunction,SMDPad,CuDef*%
G36*
G01*
X193525000Y-134037500D02*
X193525000Y-133562500D01*
G75*
G02*
X193762500Y-133325000I237500J0D01*
G01*
X194337500Y-133325000D01*
G75*
G02*
X194575000Y-133562500I0J-237500D01*
G01*
X194575000Y-134037500D01*
G75*
G02*
X194337500Y-134275000I-237500J0D01*
G01*
X193762500Y-134275000D01*
G75*
G02*
X193525000Y-134037500I0J237500D01*
G01*
G37*
%TD.AperFunction*%
%TO.P,C14,1*%
%TO.N,ENC_CH_A*%
%TA.AperFunction,SMDPad,CuDef*%
G36*
G01*
X191775000Y-134037500D02*
X191775000Y-133562500D01*
G75*
G02*
X192012500Y-133325000I237500J0D01*
G01*
X192587500Y-133325000D01*
G75*
G02*
X192825000Y-133562500I0J-237500D01*
G01*
X192825000Y-134037500D01*
G75*
G02*
X192587500Y-134275000I-237500J0D01*
G01*
X192012500Y-134275000D01*
G75*
G02*
X191775000Y-134037500I0J237500D01*
G01*
G37*
%TD.AperFunction*%
%TD*%
%TO.P,C16,1*%
%TO.N,ENC_CH_B*%
%TA.AperFunction,SMDPad,CuDef*%
G36*
G01*
X197187500Y-134275000D02*
X196712500Y-134275000D01*
G75*
G02*
X196475000Y-134037500I0J237500D01*
G01*
X196475000Y-133462500D01*
G75*
G02*
X196712500Y-133225000I237500J0D01*
G01*
X197187500Y-133225000D01*
G75*
G02*
X197425000Y-133462500I0J-237500D01*
G01*
X197425000Y-134037500D01*
G75*
G02*
X197187500Y-134275000I-237500J0D01*
G01*
G37*
%TD.AperFunction*%
%TO.P,C16,2*%
%TO.N,GNDD*%
%TA.AperFunction,SMDPad,CuDef*%
G36*
G01*
X197187500Y-132525000D02*
X196712500Y-132525000D01*
G75*
G02*
X196475000Y-132287500I0J237500D01*
G01*
X196475000Y-131712500D01*
G75*
G02*
X196712500Y-131475000I237500J0D01*
G01*
X197187500Y-131475000D01*
G75*
G02*
X197425000Y-131712500I0J-237500D01*
G01*
X197425000Y-132287500D01*
G75*
G02*
X197187500Y-132525000I-237500J0D01*
G01*
G37*
%TD.AperFunction*%
%TD*%
%TO.P,R1,1*%
%TO.N,/NRST*%
%TA.AperFunction,SMDPad,CuDef*%
G36*
G01*
X146037500Y-126435000D02*
X145562500Y-126435000D01*
G75*
G02*
X145325000Y-126197500I0J237500D01*
G01*
X145325000Y-125622500D01*
G75*
G02*
X145562500Y-125385000I237500J0D01*
G01*
X146037500Y-125385000D01*
G75*
G02*
X146275000Y-125622500I0J-237500D01*
G01*
X146275000Y-126197500D01*
G75*
G02*
X146037500Y-126435000I-237500J0D01*
G01*
G37*
%TD.AperFunction*%
%TO.P,R1,2*%
%TO.N,/3.3vDIG*%
%TA.AperFunction,SMDPad,CuDef*%
G36*
G01*
X146037500Y-124685000D02*
X145562500Y-124685000D01*
G75*
G02*
X145325000Y-124447500I0J237500D01*
G01*
X145325000Y-123872500D01*
G75*
G02*
X145562500Y-123635000I237500J0D01*
G01*
X146037500Y-123635000D01*
G75*
G02*
X146275000Y-123872500I0J-237500D01*
G01*
X146275000Y-124447500D01*
G75*
G02*
X146037500Y-124685000I-237500J0D01*
G01*
G37*
%TD.AperFunction*%
%TD*%
%TO.P,R2,1*%
%TO.N,GNDD*%
%TA.AperFunction,SMDPad,CuDef*%
G36*
G01*
X128042887Y-114732011D02*
X127707011Y-115067887D01*
G75*
G02*
X127371135Y-115067887I-167938J167938D01*
G01*
X126964549Y-114661301D01*
G75*
G02*
X126964549Y-114325425I167938J167938D01*
G01*
X127300425Y-113989549D01*
G75*
G02*
X127636301Y-113989549I167938J-167938D01*
G01*
X128042887Y-114396135D01*
G75*
G02*
X128042887Y-114732011I-167938J-167938D01*
G01*
G37*
%TD.AperFunction*%
%TO.P,R2,2*%
%TO.N,Net-(R2-Pad2)*%
%TA.AperFunction,SMDPad,CuDef*%
G36*
G01*
X126805451Y-113494575D02*
X126469575Y-113830451D01*
G75*
G02*
X126133699Y-113830451I-167938J167938D01*
G01*
X125727113Y-113423865D01*
G75*
G02*
X125727113Y-113087989I167938J167938D01*
G01*
X126062989Y-112752113D01*
G75*
G02*
X126398865Y-112752113I167938J-167938D01*
G01*
X126805451Y-113158699D01*
G75*
G02*
X126805451Y-113494575I-167938J-167938D01*
G01*
G37*
%TD.AperFunction*%
%TD*%
%TO.P,R3,2*%
%TO.N,Net-(D1-Pad1)*%
%TA.AperFunction,SMDPad,CuDef*%
G36*
G01*
X130260000Y-115957500D02*
X130260000Y-115482500D01*
G75*
G02*
X130497500Y-115245000I237500J0D01*
G01*
X131072500Y-115245000D01*
G75*
G02*
X131310000Y-115482500I0J-237500D01*
G01*
X131310000Y-115957500D01*
G75*
G02*
X131072500Y-116195000I-237500J0D01*
G01*
X130497500Y-116195000D01*
G75*
G02*
X130260000Y-115957500I0J237500D01*
G01*
G37*
%TD.AperFunction*%
%TO.P,R3,1*%
%TO.N,GNDD*%
%TA.AperFunction,SMDPad,CuDef*%
G36*
G01*
X128510000Y-115957500D02*
X128510000Y-115482500D01*
G75*
G02*
X128747500Y-115245000I237500J0D01*
G01*
X129322500Y-115245000D01*
G75*
G02*
X129560000Y-115482500I0J-237500D01*
G01*
X129560000Y-115957500D01*
G75*
G02*
X129322500Y-116195000I-237500J0D01*
G01*
X128747500Y-116195000D01*
G75*
G02*
X128510000Y-115957500I0J237500D01*
G01*
G37*
%TD.AperFunction*%
%TD*%
%TO.P,R4,2*%
%TO.N,USB_D+*%
%TA.AperFunction,SMDPad,CuDef*%
G36*
G01*
X106312500Y-103925000D02*
X106787500Y-103925000D01*
G75*
G02*
X107025000Y-104162500I0J-237500D01*
G01*
X107025000Y-104737500D01*
G75*
G02*
X106787500Y-104975000I-237500J0D01*
G01*
X106312500Y-104975000D01*
G75*
G02*
X106075000Y-104737500I0J237500D01*
G01*
X106075000Y-104162500D01*
G75*
G02*
X106312500Y-103925000I237500J0D01*
G01*
G37*
%TD.AperFunction*%
%TO.P,R4,1*%
%TO.N,/+5vDIG*%
%TA.AperFunction,SMDPad,CuDef*%
G36*
G01*
X106312500Y-102175000D02*
X106787500Y-102175000D01*
G75*
G02*
X107025000Y-102412500I0J-237500D01*
G01*
X107025000Y-102987500D01*
G75*
G02*
X106787500Y-103225000I-237500J0D01*
G01*
X106312500Y-103225000D01*
G75*
G02*
X106075000Y-102987500I0J237500D01*
G01*
X106075000Y-102412500D01*
G75*
G02*
X106312500Y-102175000I237500J0D01*
G01*
G37*
%TD.AperFunction*%
%TD*%
%TO.P,R5,1*%
%TO.N,Net-(Q1-Pad1)*%
%TA.AperFunction,SMDPad,CuDef*%
G36*
G01*
X94575000Y-138677500D02*
X94575000Y-138202500D01*
G75*
G02*
X94812500Y-137965000I237500J0D01*
G01*
X95387500Y-137965000D01*
G75*
G02*
X95625000Y-138202500I0J-237500D01*
G01*
X95625000Y-138677500D01*
G75*
G02*
X95387500Y-138915000I-237500J0D01*
G01*
X94812500Y-138915000D01*
G75*
G02*
X94575000Y-138677500I0J237500D01*
G01*
G37*
%TD.AperFunction*%
%TO.P,R5,2*%
%TO.N,FAN*%
%TA.AperFunction,SMDPad,CuDef*%
G36*
G01*
X96325000Y-138677500D02*
X96325000Y-138202500D01*
G75*
G02*
X96562500Y-137965000I237500J0D01*
G01*
X97137500Y-137965000D01*
G75*
G02*
X97375000Y-138202500I0J-237500D01*
G01*
X97375000Y-138677500D01*
G75*
G02*
X97137500Y-138915000I-237500J0D01*
G01*
X96562500Y-138915000D01*
G75*
G02*
X96325000Y-138677500I0J237500D01*
G01*
G37*
%TD.AperFunction*%
%TD*%
%TO.P,R6,2*%
%TO.N,Net-(IC1-PadA1)*%
%TA.AperFunction,SMDPad,CuDef*%
G36*
G01*
X193525000Y-132337500D02*
X193525000Y-131862500D01*
G75*
G02*
X193762500Y-131625000I237500J0D01*
G01*
X194337500Y-131625000D01*
G75*
G02*
X194575000Y-131862500I0J-237500D01*
G01*
X194575000Y-132337500D01*
G75*
G02*
X194337500Y-132575000I-237500J0D01*
G01*
X193762500Y-132575000D01*
G75*
G02*
X193525000Y-132337500I0J237500D01*
G01*
G37*
%TD.AperFunction*%
%TO.P,R6,1*%
%TO.N,ENC_CH_A*%
%TA.AperFunction,SMDPad,CuDef*%
G36*
G01*
X191775000Y-132337500D02*
X191775000Y-131862500D01*
G75*
G02*
X192012500Y-131625000I237500J0D01*
G01*
X192587500Y-131625000D01*
G75*
G02*
X192825000Y-131862500I0J-237500D01*
G01*
X192825000Y-132337500D01*
G75*
G02*
X192587500Y-132575000I-237500J0D01*
G01*
X192012500Y-132575000D01*
G75*
G02*
X191775000Y-132337500I0J237500D01*
G01*
G37*
%TD.AperFunction*%
%TD*%
%TO.P,R7,1*%
%TO.N,Net-(IC1-Pad1)*%
%TA.AperFunction,SMDPad,CuDef*%
G36*
G01*
X189587500Y-116275000D02*
X189112500Y-116275000D01*
G75*
G02*
X188875000Y-116037500I0J237500D01*
G01*
X188875000Y-115462500D01*
G75*
G02*
X189112500Y-115225000I237500J0D01*
G01*
X189587500Y-115225000D01*
G75*
G02*
X189825000Y-115462500I0J-237500D01*
G01*
X189825000Y-116037500D01*
G75*
G02*
X189587500Y-116275000I-237500J0D01*
G01*
G37*
%TD.AperFunction*%
%TO.P,R7,2*%
%TO.N,ENC_BUTTON*%
%TA.AperFunction,SMDPad,CuDef*%
G36*
G01*
X189587500Y-114525000D02*
X189112500Y-114525000D01*
G75*
G02*
X188875000Y-114287500I0J237500D01*
G01*
X188875000Y-113712500D01*
G75*
G02*
X189112500Y-113475000I237500J0D01*
G01*
X189587500Y-113475000D01*
G75*
G02*
X189825000Y-113712500I0J-237500D01*
G01*
X189825000Y-114287500D01*
G75*
G02*
X189587500Y-114525000I-237500J0D01*
G01*
G37*
%TD.AperFunction*%
%TD*%
%TO.P,R8,2*%
%TO.N,/3.3vDIG*%
%TA.AperFunction,SMDPad,CuDef*%
G36*
G01*
X194650000Y-109762500D02*
X194650000Y-110237500D01*
G75*
G02*
X194412500Y-110475000I-237500J0D01*
G01*
X193837500Y-110475000D01*
G75*
G02*
X193600000Y-110237500I0J237500D01*
G01*
X193600000Y-109762500D01*
G75*
G02*
X193837500Y-109525000I237500J0D01*
G01*
X194412500Y-109525000D01*
G75*
G02*
X194650000Y-109762500I0J-237500D01*
G01*
G37*
%TD.AperFunction*%
%TO.P,R8,1*%
%TO.N,Net-(IC1-Pad1)*%
%TA.AperFunction,SMDPad,CuDef*%
G36*
G01*
X196400000Y-109762500D02*
X196400000Y-110237500D01*
G75*
G02*
X196162500Y-110475000I-237500J0D01*
G01*
X195587500Y-110475000D01*
G75*
G02*
X195350000Y-110237500I0J237500D01*
G01*
X195350000Y-109762500D01*
G75*
G02*
X195587500Y-109525000I237500J0D01*
G01*
X196162500Y-109525000D01*
G75*
G02*
X196400000Y-109762500I0J-237500D01*
G01*
G37*
%TD.AperFunction*%
%TD*%
%TO.P,R9,1*%
%TO.N,Net-(IC1-PadA1)*%
%TA.AperFunction,SMDPad,CuDef*%
G36*
G01*
X189337500Y-129975000D02*
X188862500Y-129975000D01*
G75*
G02*
X188625000Y-129737500I0J237500D01*
G01*
X188625000Y-129162500D01*
G75*
G02*
X188862500Y-128925000I237500J0D01*
G01*
X189337500Y-128925000D01*
G75*
G02*
X189575000Y-129162500I0J-237500D01*
G01*
X189575000Y-129737500D01*
G75*
G02*
X189337500Y-129975000I-237500J0D01*
G01*
G37*
%TD.AperFunction*%
%TO.P,R9,2*%
%TO.N,/3.3vDIG*%
%TA.AperFunction,SMDPad,CuDef*%
G36*
G01*
X189337500Y-128225000D02*
X188862500Y-128225000D01*
G75*
G02*
X188625000Y-127987500I0J237500D01*
G01*
X188625000Y-127412500D01*
G75*
G02*
X188862500Y-127175000I237500J0D01*
G01*
X189337500Y-127175000D01*
G75*
G02*
X189575000Y-127412500I0J-237500D01*
G01*
X189575000Y-127987500D01*
G75*
G02*
X189337500Y-128225000I-237500J0D01*
G01*
G37*
%TD.AperFunction*%
%TD*%
%TO.P,R10,2*%
%TO.N,/3.3vDIG*%
%TA.AperFunction,SMDPad,CuDef*%
G36*
G01*
X202775000Y-132037500D02*
X202775000Y-131562500D01*
G75*
G02*
X203012500Y-131325000I237500J0D01*
G01*
X203587500Y-131325000D01*
G75*
G02*
X203825000Y-131562500I0J-237500D01*
G01*
X203825000Y-132037500D01*
G75*
G02*
X203587500Y-132275000I-237500J0D01*
G01*
X203012500Y-132275000D01*
G75*
G02*
X202775000Y-132037500I0J237500D01*
G01*
G37*
%TD.AperFunction*%
%TO.P,R10,1*%
%TO.N,Net-(IC1-PadB1)*%
%TA.AperFunction,SMDPad,CuDef*%
G36*
G01*
X201025000Y-132037500D02*
X201025000Y-131562500D01*
G75*
G02*
X201262500Y-131325000I237500J0D01*
G01*
X201837500Y-131325000D01*
G75*
G02*
X202075000Y-131562500I0J-237500D01*
G01*
X202075000Y-132037500D01*
G75*
G02*
X201837500Y-132275000I-237500J0D01*
G01*
X201262500Y-132275000D01*
G75*
G02*
X201025000Y-132037500I0J237500D01*
G01*
G37*
%TD.AperFunction*%
%TD*%
%TO.P,R11,1*%
%TO.N,ENC_CH_B*%
%TA.AperFunction,SMDPad,CuDef*%
G36*
G01*
X191775000Y-135987500D02*
X191775000Y-135512500D01*
G75*
G02*
X192012500Y-135275000I237500J0D01*
G01*
X192587500Y-135275000D01*
G75*
G02*
X192825000Y-135512500I0J-237500D01*
G01*
X192825000Y-135987500D01*
G75*
G02*
X192587500Y-136225000I-237500J0D01*
G01*
X192012500Y-136225000D01*
G75*
G02*
X191775000Y-135987500I0J237500D01*
G01*
G37*
%TD.AperFunction*%
%TO.P,R11,2*%
%TO.N,Net-(IC1-PadB1)*%
%TA.AperFunction,SMDPad,CuDef*%
G36*
G01*
X193525000Y-135987500D02*
X193525000Y-135512500D01*
G75*
G02*
X193762500Y-135275000I237500J0D01*
G01*
X194337500Y-135275000D01*
G75*
G02*
X194575000Y-135512500I0J-237500D01*
G01*
X194575000Y-135987500D01*
G75*
G02*
X194337500Y-136225000I-237500J0D01*
G01*
X193762500Y-136225000D01*
G75*
G02*
X193525000Y-135987500I0J237500D01*
G01*
G37*
%TD.AperFunction*%
%TD*%
D33*
%TO.P,I/O,1*%
%TO.N,/3.3vDIG*%
X78440000Y-110805000D03*
%TO.P,I/O,2*%
%TO.N,CONVST*%
X78440000Y-115855000D03*
%TO.P,I/O,3*%
%TO.N,/3.3vDIG*%
X80980000Y-110805000D03*
%TO.P,I/O,4*%
%TO.N,DAC_CS*%
X80980000Y-115855000D03*
%TO.P,I/O,5*%
%TO.N,EOC_INT*%
X83520000Y-110805000D03*
%TO.P,I/O,6*%
%TO.N,SCLK*%
X83520000Y-115855000D03*
%TO.P,I/O,7*%
%TO.N,GNDD*%
X86060000Y-110805000D03*
%TO.P,I/O,8*%
%TO.N,MISO*%
X86060000Y-115855000D03*
%TO.P,I/O,9*%
%TO.N,GNDD*%
X88600000Y-110805000D03*
%TO.P,I/O,10*%
%TO.N,MOSI*%
X88600000Y-115855000D03*
%TO.P,I/O,11*%
%TO.N,GNDD*%
X91140000Y-110805000D03*
%TO.P,I/O,12*%
%TO.N,ADC_CS*%
X91140000Y-115855000D03*
%TO.P,I/O,13*%
%TO.N,GNDD*%
X93680000Y-110805000D03*
%TO.P,I/O,14*%
%TO.N,LoadOnOff*%
X93680000Y-115855000D03*
%TD*%
D34*
%TO.N,/NRST*%
X121150000Y-125950000D03*
X118950000Y-115200000D03*
%TO.N,/3.3vDIG*%
X125900000Y-111400000D03*
X124300000Y-115200000D03*
X109500000Y-115050000D03*
X81050000Y-108350000D03*
X78450000Y-108400000D03*
X134475000Y-114350000D03*
X124150000Y-124850000D03*
X189100000Y-126350000D03*
X204600000Y-131850000D03*
X192900000Y-110000000D03*
X147730000Y-124160000D03*
X116850000Y-106250000D03*
D35*
X153225000Y-112425000D03*
X153225000Y-115775000D03*
X166375000Y-112500000D03*
X166175000Y-115900000D03*
X161775000Y-115400000D03*
X157600000Y-115425000D03*
D34*
%TO.N,/+5vDIG*%
X112950000Y-122950000D03*
X110200000Y-122600000D03*
X106600000Y-101450000D03*
X64450000Y-111900000D03*
X57575000Y-91925000D03*
X176500000Y-153500000D03*
X178500000Y-153500000D03*
X176500000Y-155000000D03*
X178500000Y-155000000D03*
X180500000Y-153500000D03*
X180500000Y-155000000D03*
X159500000Y-121500000D03*
X155000000Y-120000000D03*
X156400000Y-121600000D03*
X55500000Y-90200000D03*
%TO.N,ENC_BUTTON*%
X115200000Y-113750000D03*
X129300000Y-107650000D03*
%TO.N,ENC_CH_A*%
X116050000Y-114350000D03*
X131400000Y-108300000D03*
%TO.N,ENC_CH_B*%
X117000000Y-115400000D03*
X127950000Y-109000000D03*
%TO.N,LedHeartBeat*%
X127250000Y-112200000D03*
X120650000Y-113350000D03*
%TO.N,RS*%
X98050000Y-106500000D03*
X98050000Y-103500000D03*
%TO.N,E*%
X99050000Y-106500000D03*
X99050000Y-103500000D03*
%TO.N,D4*%
X100050000Y-106500000D03*
X100050000Y-103500000D03*
%TO.N,D5*%
X101050000Y-106500000D03*
X101050000Y-103500000D03*
%TO.N,D6*%
X102050000Y-106500000D03*
X102050000Y-103500000D03*
%TO.N,D7*%
X103050000Y-106500000D03*
X103050000Y-103500000D03*
%TO.N,GNDD*%
X121900000Y-117850000D03*
X99850000Y-144650000D03*
X116150000Y-128300000D03*
X115950000Y-87500000D03*
X64400000Y-108350000D03*
X116000000Y-107100000D03*
X110750000Y-116350000D03*
X88600000Y-108550000D03*
X86100000Y-108550000D03*
X126800000Y-110600000D03*
X136025000Y-115900000D03*
X130575000Y-118225000D03*
X137250000Y-120975000D03*
X143575000Y-121100000D03*
X60175000Y-93950000D03*
X50390000Y-102890000D03*
X195350000Y-133800000D03*
X198200000Y-131950000D03*
X187450000Y-117050000D03*
X63150000Y-90200000D03*
X153200000Y-123700000D03*
X159200000Y-123500000D03*
X162100000Y-120600000D03*
X164100000Y-118700000D03*
X155900000Y-108150000D03*
X53000000Y-90200000D03*
X91100000Y-90200000D03*
X199250000Y-126500000D03*
X204000000Y-113900000D03*
X135025000Y-122050000D03*
X121225000Y-121075000D03*
X128500000Y-117725000D03*
X125675000Y-122975000D03*
X128975000Y-114225000D03*
X127575000Y-116400000D03*
X128025000Y-115425000D03*
X91150000Y-108500000D03*
X93650000Y-108450000D03*
X51750000Y-101500000D03*
X117050000Y-88850000D03*
X116750000Y-124300000D03*
X110000000Y-126850000D03*
X97900000Y-143550000D03*
X97950000Y-144700000D03*
%TD*%
D36*
%TO.N,/NRST*%
X135020000Y-125110000D02*
X136340000Y-125110000D01*
X136340000Y-125110000D02*
X137260000Y-126030000D01*
X137260000Y-126030000D02*
X145680000Y-126030000D01*
X145680000Y-126030000D02*
X145800000Y-125910000D01*
X135020000Y-125110000D02*
X133340000Y-125110000D01*
X133340000Y-125110000D02*
X132500000Y-125950000D01*
X132500000Y-125950000D02*
X121150000Y-125950000D01*
X118950000Y-115200000D02*
X119500000Y-115200000D01*
X120660109Y-116360109D02*
X120696555Y-116360109D01*
X119500000Y-115200000D02*
X120660109Y-116360109D01*
D37*
%TO.N,/3.3vDIG*%
X159860000Y-118700000D02*
X159860000Y-112400000D01*
X157835000Y-109550000D02*
X159450000Y-109550000D01*
X159860000Y-109960000D02*
X159860000Y-112400000D01*
X159450000Y-109550000D02*
X159860000Y-109960000D01*
X147730000Y-124160000D02*
X147730000Y-124160000D01*
X147730000Y-124160000D02*
X147730000Y-124160000D01*
X192900000Y-110000000D02*
X194125000Y-110000000D01*
X203350000Y-131850000D02*
X203300000Y-131800000D01*
X204600000Y-131850000D02*
X203350000Y-131850000D01*
X189100000Y-126350000D02*
X189100000Y-127700000D01*
X147730000Y-124160000D02*
X145800000Y-124160000D01*
X124150000Y-123410000D02*
X124130000Y-123390000D01*
X124150000Y-124850000D02*
X124150000Y-123410000D01*
X134460864Y-114350000D02*
X133450432Y-115360432D01*
X134475000Y-114350000D02*
X134460864Y-114350000D01*
X78450000Y-110795000D02*
X78440000Y-110805000D01*
X78450000Y-108400000D02*
X78450000Y-110795000D01*
X81050000Y-110735000D02*
X80980000Y-110805000D01*
X81050000Y-108350000D02*
X81050000Y-110735000D01*
X78440000Y-110805000D02*
X80980000Y-110805000D01*
X110228718Y-114321282D02*
X109500000Y-115050000D01*
X110416282Y-114321282D02*
X110416282Y-114321282D01*
X110416282Y-114321282D02*
X110228718Y-114321282D01*
X124377564Y-115200000D02*
X125096282Y-114481282D01*
X124300000Y-115200000D02*
X124377564Y-115200000D01*
X125157564Y-111400000D02*
X124811282Y-111053718D01*
X125900000Y-111400000D02*
X125157564Y-111400000D01*
D38*
X112959630Y-114321282D02*
X113042124Y-114238788D01*
X110416282Y-114321282D02*
X112959630Y-114321282D01*
D37*
X116850000Y-106250000D02*
X116850000Y-106250000D01*
X116674872Y-106250000D02*
X115937436Y-105512564D01*
D38*
X116850000Y-108270912D02*
X116931212Y-108352124D01*
X116850000Y-106250000D02*
X116850000Y-108270912D01*
D37*
X116850000Y-106250000D02*
X116674872Y-106250000D01*
D38*
X123779088Y-115200000D02*
X122817876Y-114238788D01*
X124300000Y-115200000D02*
X123779088Y-115200000D01*
X123623788Y-112241212D02*
X124811282Y-111053718D01*
X122817876Y-112241212D02*
X123623788Y-112241212D01*
D36*
%TO.N,Net-(C3-Pad1)*%
X130295000Y-121530000D02*
X130570000Y-121255000D01*
X128510000Y-121530000D02*
X130295000Y-121530000D01*
X128510000Y-121530000D02*
X127330000Y-121530000D01*
X127330000Y-121530000D02*
X126425000Y-120625000D01*
X126425000Y-120625000D02*
X126425000Y-118775000D01*
X126425000Y-118775000D02*
X124575000Y-116925000D01*
X122675660Y-116925000D02*
X121403662Y-115653002D01*
X124575000Y-116925000D02*
X122675660Y-116925000D01*
D37*
%TO.N,/+5vDIG*%
X157560000Y-118700000D02*
X157560000Y-120260000D01*
X157860000Y-120560000D02*
X157860000Y-121650000D01*
X157560000Y-120260000D02*
X157860000Y-120560000D01*
X157785000Y-121575000D02*
X157860000Y-121650000D01*
X154860000Y-121575000D02*
X157785000Y-121575000D01*
X159350000Y-121650000D02*
X159500000Y-121500000D01*
X157860000Y-121650000D02*
X159350000Y-121650000D01*
X154860000Y-120140000D02*
X155000000Y-120000000D01*
X154860000Y-121575000D02*
X154860000Y-120140000D01*
X55500000Y-88540000D02*
X55540000Y-88500000D01*
X55500000Y-90200000D02*
X55500000Y-88540000D01*
X58875000Y-91925000D02*
X58925000Y-91975000D01*
X57575000Y-91925000D02*
X58875000Y-91925000D01*
X106550000Y-101500000D02*
X106600000Y-101450000D01*
X106550000Y-102700000D02*
X106550000Y-101500000D01*
X110200000Y-123655000D02*
X110140000Y-123715000D01*
X110200000Y-122600000D02*
X110200000Y-123655000D01*
X112950000Y-124240000D02*
X112870000Y-124320000D01*
X112950000Y-122950000D02*
X112950000Y-124240000D01*
D38*
X65100678Y-110100000D02*
X65550000Y-110100000D01*
X64450000Y-110750678D02*
X65100678Y-110100000D01*
X64450000Y-111900000D02*
X64450000Y-110750678D01*
D36*
%TO.N,Net-(C7-Pad1)*%
X122640000Y-119130000D02*
X122450000Y-119320000D01*
X124510000Y-119130000D02*
X122640000Y-119130000D01*
X121050109Y-116006555D02*
X122768554Y-117725000D01*
X122768554Y-117725000D02*
X123925000Y-117725000D01*
X124510000Y-118310000D02*
X124510000Y-119130000D01*
X123925000Y-117725000D02*
X124510000Y-118310000D01*
%TO.N,ENC_BUTTON*%
X187450000Y-114000000D02*
X189350000Y-114000000D01*
X113749231Y-114945895D02*
X114945126Y-113750000D01*
X114945126Y-113750000D02*
X115200000Y-113750000D01*
X180700001Y-107250001D02*
X187450000Y-114000000D01*
X129699999Y-107250001D02*
X180700001Y-107250001D01*
X129300000Y-107650000D02*
X129699999Y-107250001D01*
%TO.N,ENC_CH_A*%
X192300000Y-132100000D02*
X192300000Y-133800000D01*
X115572099Y-114827901D02*
X116050000Y-114350000D01*
X114102785Y-115299449D02*
X114574333Y-114827901D01*
X114574333Y-114827901D02*
X115572099Y-114827901D01*
X131400000Y-108300000D02*
X141000000Y-108300000D01*
X141000000Y-108300000D02*
X151750000Y-119050000D01*
X151750000Y-119050000D02*
X151750000Y-125250000D01*
X158600000Y-132100000D02*
X192300000Y-132100000D01*
X151750000Y-125250000D02*
X158600000Y-132100000D01*
%TO.N,Temp*%
X114140000Y-127440000D02*
X113240000Y-128340000D01*
X114140000Y-125590000D02*
X114140000Y-127440000D01*
X120107443Y-117892317D02*
X120107443Y-124542557D01*
X119635895Y-117420769D02*
X120107443Y-117892317D01*
X119060000Y-125590000D02*
X114140000Y-125590000D01*
X120107443Y-124542557D02*
X119060000Y-125590000D01*
%TO.N,ENC_CH_B*%
X196950000Y-134275000D02*
X196375000Y-134850000D01*
X196950000Y-133750000D02*
X196950000Y-134275000D01*
X196375000Y-134850000D02*
X192600000Y-134850000D01*
X192300000Y-135150000D02*
X192300000Y-135750000D01*
X192600000Y-134850000D02*
X192300000Y-135150000D01*
X114809891Y-116006555D02*
X115416446Y-115400000D01*
X115416446Y-115400000D02*
X117000000Y-115400000D01*
X192300000Y-135750000D02*
X161250000Y-135750000D01*
X161250000Y-135750000D02*
X150800000Y-125300000D01*
X150800000Y-125300000D02*
X150800000Y-119250000D01*
X150800000Y-119250000D02*
X140550000Y-109000000D01*
X140550000Y-109000000D02*
X127950000Y-109000000D01*
%TO.N,Net-(D1-Pad1)*%
X130785000Y-112370000D02*
X130775000Y-112360000D01*
X130785000Y-115720000D02*
X130785000Y-112370000D01*
%TO.N,LedHeartBeat*%
X128740000Y-112200000D02*
X128900000Y-112360000D01*
X127250000Y-112200000D02*
X128740000Y-112200000D01*
X120650000Y-113350000D02*
X121150000Y-113850000D01*
X121721980Y-113850000D02*
X122464322Y-114592342D01*
X121150000Y-113850000D02*
X121721980Y-113850000D01*
D39*
%TO.N,/+12vFAN*%
X99080000Y-158530000D02*
X99080000Y-155000000D01*
X101300000Y-160750000D02*
X99080000Y-158530000D01*
X182900000Y-158800000D02*
X180950000Y-160750000D01*
X182900000Y-157170000D02*
X182900000Y-158800000D01*
X185400000Y-157170000D02*
X185400000Y-158400000D01*
X185400000Y-158400000D02*
X183050000Y-160750000D01*
X183050000Y-160750000D02*
X180800000Y-160750000D01*
X180950000Y-160750000D02*
X180800000Y-160750000D01*
X180800000Y-160750000D02*
X101300000Y-160750000D01*
X99080000Y-147465001D02*
X99545001Y-147000000D01*
X99080000Y-155000000D02*
X99080000Y-147465001D01*
D37*
%TO.N,Net-(D2-Pad2)*%
X104545001Y-154614999D02*
X104160000Y-155000000D01*
X104545001Y-147000000D02*
X104545001Y-154614999D01*
X104545001Y-147000000D02*
X107175000Y-147000000D01*
X107175000Y-147000000D02*
X108075000Y-146100000D01*
X108075000Y-146100000D02*
X108075000Y-142575000D01*
X107500000Y-142000000D02*
X99937500Y-142000000D01*
X108075000Y-142575000D02*
X107500000Y-142000000D01*
X96050000Y-142000000D02*
X99937500Y-142000000D01*
D36*
%TO.N,Net-(FB2-Pad2)*%
X122080000Y-123390000D02*
X120940000Y-123390000D01*
X120496390Y-120773200D02*
X120500000Y-120769590D01*
X120940000Y-123390000D02*
X120496390Y-122946390D01*
X120496390Y-122946390D02*
X120496390Y-120773200D01*
X120500000Y-120769590D02*
X120500000Y-119350000D01*
X120500000Y-119350000D02*
X121100000Y-118750000D01*
X121100000Y-118177766D02*
X119989449Y-117067215D01*
X121100000Y-118750000D02*
X121100000Y-118177766D01*
D40*
%TO.N,Net-(FB3-Pad1)*%
X119205000Y-91915004D02*
X119230000Y-91940004D01*
X119205000Y-87540000D02*
X119205000Y-91915004D01*
X119230000Y-91940004D02*
X119230000Y-101440000D01*
D36*
%TO.N,Net-(IC1-Pad1)*%
X196800000Y-110925000D02*
X195875000Y-110000000D01*
X196800000Y-114000000D02*
X196800000Y-110925000D01*
X189350000Y-115750000D02*
X193500000Y-115750000D01*
X195250000Y-114000000D02*
X196800000Y-114000000D01*
X193500000Y-115750000D02*
X195250000Y-114000000D01*
%TO.N,Net-(IC1-PadA1)*%
X194050000Y-132100000D02*
X194050000Y-129500000D01*
X195050000Y-128500000D02*
X196800000Y-128500000D01*
X194050000Y-129500000D02*
X195050000Y-128500000D01*
X189100000Y-129450000D02*
X191350000Y-129450000D01*
X191350000Y-129450000D02*
X193950000Y-126850000D01*
X193950000Y-126850000D02*
X196550000Y-126850000D01*
X196550000Y-126850000D02*
X196800000Y-127100000D01*
X196800000Y-127100000D02*
X196800000Y-128500000D01*
%TO.N,Net-(IC1-PadB1)*%
X194050000Y-135750000D02*
X199250000Y-135750000D01*
X201550000Y-133450000D02*
X201550000Y-131800000D01*
X199250000Y-135750000D02*
X201550000Y-133450000D01*
X201800000Y-128500000D02*
X201800000Y-130150000D01*
X201550000Y-130400000D02*
X201550000Y-131800000D01*
X201800000Y-130150000D02*
X201550000Y-130400000D01*
D41*
%TO.N,USB_COND+*%
X62554999Y-109150000D02*
X61837155Y-109867844D01*
X63350000Y-109150000D02*
X62554999Y-109150000D01*
X58547844Y-109867844D02*
X56951682Y-108271682D01*
X61837155Y-109867844D02*
X58547844Y-109867844D01*
X56951682Y-108271682D02*
X54080000Y-105400000D01*
D36*
%TO.N,USB_COND-*%
X63350000Y-111050000D02*
X62821680Y-111050000D01*
D41*
X61837155Y-110332156D02*
X58355519Y-110332156D01*
X58355519Y-110332156D02*
X56623363Y-108600000D01*
X62554999Y-111050000D02*
X61837155Y-110332156D01*
X56623363Y-108600000D02*
X54080000Y-108600000D01*
X63350000Y-111050000D02*
X62554999Y-111050000D01*
D36*
%TO.N,SWCLK*%
X118928788Y-108352124D02*
X120580912Y-106700000D01*
X124310000Y-91940004D02*
X124310000Y-94540000D01*
X120580912Y-98269088D02*
X120580912Y-106700000D01*
X124310000Y-94540000D02*
X120580912Y-98269088D01*
%TO.N,SWDIO*%
X121770000Y-95130000D02*
X121770000Y-91940004D01*
X120250000Y-96650000D02*
X121770000Y-95130000D01*
X117950000Y-106850000D02*
X120250000Y-104550000D01*
X117950000Y-109261558D02*
X117950000Y-106850000D01*
X120250000Y-104550000D02*
X120250000Y-96650000D01*
X117411558Y-109800000D02*
X117950000Y-109261558D01*
X116950000Y-109800000D02*
X117411558Y-109800000D01*
X116224105Y-109074105D02*
X116950000Y-109800000D01*
X116224105Y-109059231D02*
X116224105Y-109074105D01*
%TO.N,V0*%
X55675000Y-92975000D02*
X55675000Y-91825000D01*
X55675000Y-91825000D02*
X57000000Y-90500000D01*
X57600000Y-90500000D02*
X58080000Y-90020000D01*
X57000000Y-90500000D02*
X57600000Y-90500000D01*
X58080000Y-90020000D02*
X58080000Y-88500000D01*
%TO.N,RS*%
X98050000Y-108400000D02*
X98050000Y-106500000D01*
X113387658Y-111887658D02*
X111650000Y-110150000D01*
X111650000Y-110150000D02*
X98800000Y-110150000D01*
X113395678Y-111887658D02*
X113387658Y-111887658D01*
X98050000Y-109400000D02*
X98050000Y-108400000D01*
X98800000Y-110150000D02*
X98050000Y-109400000D01*
X98050000Y-103500000D02*
X72300000Y-103500000D01*
X60620000Y-91820000D02*
X60620000Y-88500000D01*
X72300000Y-103500000D02*
X60620000Y-91820000D01*
%TO.N,E*%
X99050000Y-106500000D02*
X99050000Y-109000000D01*
X99050000Y-109000000D02*
X99850000Y-109800000D01*
X112015126Y-109800000D02*
X113749231Y-111534105D01*
X99850000Y-109800000D02*
X112015126Y-109800000D01*
X99050000Y-103500000D02*
X99050000Y-102850000D01*
X99050000Y-102850000D02*
X98450000Y-102250000D01*
X98450000Y-102250000D02*
X75000000Y-102250000D01*
X65700000Y-92950000D02*
X65700000Y-88500000D01*
X75000000Y-102250000D02*
X65700000Y-92950000D01*
%TO.N,D4*%
X100050000Y-106500000D02*
X100050000Y-108500000D01*
X100050000Y-108500000D02*
X101000000Y-109450000D01*
X112372234Y-109450000D02*
X114102785Y-111180551D01*
X101000000Y-109450000D02*
X112372234Y-109450000D01*
X89300000Y-101650000D02*
X78400000Y-90750000D01*
X99100000Y-101650000D02*
X89300000Y-101650000D01*
X78400000Y-90750000D02*
X78400000Y-88500000D01*
X100050000Y-103500000D02*
X100050000Y-102600000D01*
X100050000Y-102600000D02*
X99100000Y-101650000D01*
%TO.N,D5*%
X101050000Y-106500000D02*
X101050000Y-108800000D01*
X101050000Y-108800000D02*
X101350000Y-109100000D01*
X112729340Y-109100000D02*
X114456338Y-110826998D01*
X101350000Y-109100000D02*
X112729340Y-109100000D01*
X80940000Y-88500000D02*
X80940000Y-90140000D01*
X80940000Y-90140000D02*
X92000000Y-101200000D01*
X92000000Y-101200000D02*
X100250000Y-101200000D01*
X101050000Y-102000000D02*
X101050000Y-103500000D01*
X100250000Y-101200000D02*
X101050000Y-102000000D01*
%TO.N,D6*%
X102050000Y-106500000D02*
X102050000Y-108100000D01*
X102050000Y-108100000D02*
X102600000Y-108650000D01*
X112986446Y-108650000D02*
X114809891Y-110473445D01*
X102600000Y-108650000D02*
X112986446Y-108650000D01*
X83480000Y-90680000D02*
X83480000Y-88500000D01*
X93500000Y-100700000D02*
X83480000Y-90680000D01*
X100450000Y-100700000D02*
X93500000Y-100700000D01*
X102050000Y-102300000D02*
X100450000Y-100700000D01*
X102050000Y-103500000D02*
X102050000Y-102300000D01*
%TO.N,D7*%
X103050000Y-106500000D02*
X103050000Y-107650000D01*
X103050000Y-107650000D02*
X103600000Y-108200000D01*
X113243554Y-108200000D02*
X115163445Y-110119891D01*
X103600000Y-108200000D02*
X113243554Y-108200000D01*
X103050000Y-103500000D02*
X103050000Y-102600000D01*
X103050000Y-102600000D02*
X100550000Y-100100000D01*
X100550000Y-100100000D02*
X94600000Y-100100000D01*
X86020000Y-91520000D02*
X86020000Y-88500000D01*
X94600000Y-100100000D02*
X86020000Y-91520000D01*
%TO.N,ADC_CS*%
X91140000Y-117790000D02*
X91140000Y-115855000D01*
X91700000Y-118350000D02*
X91140000Y-117790000D01*
X113173554Y-118350000D02*
X91700000Y-118350000D01*
X115163445Y-116360109D02*
X113173554Y-118350000D01*
%TO.N,CONVST*%
X78440000Y-115855000D02*
X83585000Y-121000000D01*
X116056664Y-121000000D02*
X118928788Y-118127876D01*
X83585000Y-121000000D02*
X116056664Y-121000000D01*
%TO.N,DAC_CS*%
X91368933Y-120450000D02*
X83847600Y-120450000D01*
X116931212Y-118127876D02*
X116931212Y-118340008D01*
X116931212Y-118340008D02*
X114816409Y-120454811D01*
X114816409Y-120454811D02*
X91373744Y-120454811D01*
X91373744Y-120454811D02*
X91368933Y-120450000D01*
X80980000Y-117582400D02*
X80980000Y-115855000D01*
X83847600Y-120450000D02*
X80980000Y-117582400D01*
%TO.N,SCLK*%
X83520000Y-115855000D02*
X83520000Y-117582400D01*
X83520000Y-117582400D02*
X85632789Y-119695189D01*
X116204231Y-117420769D02*
X116224105Y-117420769D01*
X113929811Y-119695189D02*
X116204231Y-117420769D01*
X85632789Y-119695189D02*
X113929811Y-119695189D01*
%TO.N,MOSI*%
X88600000Y-118550000D02*
X88600000Y-115855000D01*
X89100000Y-119050000D02*
X88600000Y-118550000D01*
X113180660Y-119050000D02*
X89100000Y-119050000D01*
X115516998Y-116713662D02*
X113180660Y-119050000D01*
%TO.N,MISO*%
X87867978Y-119390378D02*
X86060000Y-117582400D01*
X113547388Y-119390378D02*
X87867978Y-119390378D01*
X115870551Y-117067215D02*
X113547388Y-119390378D01*
X86060000Y-117582400D02*
X86060000Y-115855000D01*
%TO.N,LoadOnOff*%
X113042124Y-112241212D02*
X113041212Y-112241212D01*
X113041212Y-112241212D02*
X111850000Y-111050000D01*
X111850000Y-111050000D02*
X99100000Y-111050000D01*
X99100000Y-111050000D02*
X96850000Y-113300000D01*
X96850000Y-113300000D02*
X94050000Y-113300000D01*
X93680000Y-113670000D02*
X93680000Y-115855000D01*
X94050000Y-113300000D02*
X93680000Y-113670000D01*
%TO.N,EOC_INT*%
X116106110Y-118245870D02*
X116104130Y-118245870D01*
X116577658Y-117774322D02*
X116106110Y-118245870D01*
X116104130Y-118245870D02*
X114300000Y-120050000D01*
X114300000Y-120050000D02*
X84450000Y-120050000D01*
X84450000Y-120050000D02*
X82150000Y-117750000D01*
X82150000Y-117750000D02*
X82150000Y-114500000D01*
X83520000Y-113130000D02*
X83520000Y-110805000D01*
X82150000Y-114500000D02*
X83520000Y-113130000D01*
%TO.N,KP_C1*%
X119282342Y-108705678D02*
X123488020Y-104500000D01*
X123488020Y-104500000D02*
X169750000Y-104500000D01*
X178520000Y-95730000D02*
X178520000Y-94000000D01*
X169750000Y-104500000D02*
X178520000Y-95730000D01*
%TO.N,KP_C2*%
X119635895Y-109059231D02*
X123845126Y-104850000D01*
X123845126Y-104850000D02*
X172000000Y-104850000D01*
X181060000Y-95790000D02*
X181060000Y-94000000D01*
X172000000Y-104850000D02*
X181060000Y-95790000D01*
%TO.N,KP_C3*%
X119989449Y-109412785D02*
X119989449Y-109439449D01*
X119989449Y-109439449D02*
X124228898Y-105200000D01*
X124228898Y-105200000D02*
X174150000Y-105200000D01*
X183600000Y-95750000D02*
X183600000Y-94000000D01*
X174150000Y-105200000D02*
X183600000Y-95750000D01*
%TO.N,KP_C4*%
X120343002Y-109766338D02*
X124559340Y-105550000D01*
X124559340Y-105550000D02*
X176350000Y-105550000D01*
X186140000Y-95760000D02*
X186140000Y-94000000D01*
X176350000Y-105550000D02*
X186140000Y-95760000D01*
%TO.N,KP_F1*%
X120696555Y-110119891D02*
X124916446Y-105900000D01*
X124916446Y-105900000D02*
X178600000Y-105900000D01*
X188680000Y-95820000D02*
X188680000Y-94000000D01*
X178600000Y-105900000D02*
X188680000Y-95820000D01*
%TO.N,KP_F2*%
X125278365Y-106245189D02*
X121050109Y-110473445D01*
X191220000Y-95780000D02*
X180754811Y-106245189D01*
X180754811Y-106245189D02*
X125278365Y-106245189D01*
X191220000Y-94000000D02*
X191220000Y-95780000D01*
%TO.N,KP_F3*%
X121757215Y-111180551D02*
X126387766Y-106550000D01*
X126387766Y-106550000D02*
X183050000Y-106550000D01*
X193760000Y-95840000D02*
X193760000Y-94000000D01*
X183050000Y-106550000D02*
X193760000Y-95840000D01*
%TO.N,KP_F4*%
X122110769Y-111534105D02*
X126744874Y-106900000D01*
X126744874Y-106900000D02*
X185200000Y-106900000D01*
X196300000Y-95800000D02*
X196300000Y-94000000D01*
X185200000Y-106900000D02*
X196300000Y-95800000D01*
%TO.N,Net-(Q1-Pad1)*%
X95100000Y-138440000D02*
X95100000Y-140000000D01*
%TO.N,Net-(Q1-Pad2)*%
X99350000Y-140000000D02*
X99850000Y-140500000D01*
X97000000Y-140000000D02*
X99350000Y-140000000D01*
%TO.N,Net-(R2-Pad2)*%
X120500000Y-111730660D02*
X121403662Y-110826998D01*
X120500000Y-112000000D02*
X120500000Y-111730660D01*
X126266282Y-113291282D02*
X125575000Y-112600000D01*
X125575000Y-112600000D02*
X124350000Y-112600000D01*
X124350000Y-112600000D02*
X123658718Y-113291282D01*
X123658718Y-113291282D02*
X121791282Y-113291282D01*
X121791282Y-113291282D02*
X120500000Y-112000000D01*
D41*
%TO.N,USB_D+*%
X66345001Y-109150000D02*
X67062845Y-109867844D01*
X65550000Y-109150000D02*
X66345001Y-109150000D01*
X67062845Y-109867844D02*
X74503836Y-109867844D01*
X74503836Y-109867844D02*
X79528836Y-104842844D01*
X111275376Y-104842844D02*
X115845317Y-109412785D01*
X115845317Y-109412785D02*
X115870551Y-109412785D01*
D36*
X106550000Y-104450000D02*
X106550000Y-104710688D01*
X106550000Y-104710688D02*
X106682156Y-104842844D01*
D41*
X79528836Y-104842844D02*
X106682156Y-104842844D01*
X106682156Y-104842844D02*
X111275376Y-104842844D01*
D36*
%TO.N,FAN*%
X119753889Y-118245869D02*
X119282342Y-117774322D01*
X117207778Y-121650000D02*
X119753889Y-119103889D01*
X96850000Y-138440000D02*
X102610000Y-138440000D01*
X102610000Y-138440000D02*
X108025000Y-133025000D01*
X119753889Y-119103889D02*
X119753889Y-118245869D01*
X108025000Y-133025000D02*
X108025000Y-123625000D01*
X108025000Y-123625000D02*
X110000000Y-121650000D01*
X110000000Y-121650000D02*
X117207778Y-121650000D01*
D41*
%TO.N,USB_D-*%
X66345001Y-111050000D02*
X67062845Y-110332156D01*
X67062845Y-110332156D02*
X74696164Y-110332156D01*
X65550000Y-111050000D02*
X66345001Y-111050000D01*
X74696164Y-110332156D02*
X79721164Y-105307156D01*
X115516998Y-109741104D02*
X115516998Y-109766338D01*
X111083050Y-105307156D02*
X115516998Y-109741104D01*
X79721164Y-105307156D02*
X111083050Y-105307156D01*
D36*
%TO.N,GNDD*%
X157960000Y-123500000D02*
X157860000Y-123400000D01*
D37*
X159200000Y-123500000D02*
X157960000Y-123500000D01*
X154685000Y-123700000D02*
X154860000Y-123525000D01*
X153200000Y-123700000D02*
X154685000Y-123700000D01*
X162100000Y-118760000D02*
X162160000Y-118700000D01*
X162100000Y-120600000D02*
X162100000Y-118760000D01*
X164100000Y-118700000D02*
X162160000Y-118700000D01*
D36*
X155885000Y-108235000D02*
X155750000Y-108100000D01*
D37*
X155885000Y-109550000D02*
X155885000Y-108235000D01*
X63160000Y-90190000D02*
X63150000Y-90200000D01*
X63160000Y-88500000D02*
X63160000Y-90190000D01*
X53000000Y-90200000D02*
X53000000Y-88500000D01*
X91100000Y-90200000D02*
X91100000Y-88500000D01*
X187450000Y-117050000D02*
X187450000Y-115750000D01*
X198150000Y-132000000D02*
X198200000Y-131950000D01*
X196950000Y-132000000D02*
X198150000Y-132000000D01*
X195350000Y-133800000D02*
X194050000Y-133800000D01*
X199300000Y-126550000D02*
X199250000Y-126500000D01*
X199300000Y-128500000D02*
X199300000Y-126550000D01*
X203900000Y-114000000D02*
X204000000Y-113900000D01*
X201800000Y-114000000D02*
X203900000Y-114000000D01*
X51710000Y-102890000D02*
X51750000Y-102850000D01*
X50390000Y-102890000D02*
X51710000Y-102890000D01*
X58950000Y-93950000D02*
X58925000Y-93975000D01*
X60175000Y-93950000D02*
X58950000Y-93950000D01*
X143575000Y-121100000D02*
X143575000Y-121125000D01*
X143560000Y-121140000D02*
X143560000Y-122230000D01*
X143575000Y-121125000D02*
X143560000Y-121140000D01*
X137260000Y-120985000D02*
X137250000Y-120975000D01*
X137260000Y-122230000D02*
X137260000Y-120985000D01*
X135020000Y-122055000D02*
X135025000Y-122050000D01*
X135020000Y-123360000D02*
X135020000Y-122055000D01*
X122445000Y-121075000D02*
X122450000Y-121070000D01*
X121225000Y-121075000D02*
X122445000Y-121075000D01*
X130575000Y-119500000D02*
X130570000Y-119505000D01*
X130575000Y-118225000D02*
X130575000Y-119500000D01*
X135810000Y-115900000D02*
X134900000Y-116810000D01*
X136025000Y-115900000D02*
X135810000Y-115900000D01*
X128510000Y-117735000D02*
X128500000Y-117725000D01*
X128510000Y-119130000D02*
X128510000Y-117735000D01*
X125675000Y-122975000D02*
X125675000Y-121950000D01*
X125255000Y-121530000D02*
X124510000Y-121530000D01*
X125675000Y-121950000D02*
X125255000Y-121530000D01*
X128355000Y-116400000D02*
X129035000Y-115720000D01*
X127575000Y-116400000D02*
X128355000Y-116400000D01*
X127807436Y-114225000D02*
X127503718Y-114528718D01*
X128975000Y-114225000D02*
X127807436Y-114225000D01*
X126893718Y-115718718D02*
X127575000Y-116400000D01*
X126333718Y-115718718D02*
X126893718Y-115718718D01*
X128975000Y-115660000D02*
X129035000Y-115720000D01*
X128975000Y-114225000D02*
X128975000Y-115660000D01*
X127575000Y-115875000D02*
X128025000Y-115425000D01*
X127575000Y-116400000D02*
X127575000Y-115875000D01*
X128975000Y-114475000D02*
X128025000Y-115425000D01*
X128975000Y-114225000D02*
X128975000Y-114475000D01*
X126900000Y-110650000D02*
X126058718Y-109808718D01*
X86100000Y-110765000D02*
X86060000Y-110805000D01*
X86100000Y-108550000D02*
X86100000Y-110765000D01*
X88600000Y-108550000D02*
X88600000Y-110805000D01*
X93650000Y-110775000D02*
X93680000Y-110805000D01*
X93650000Y-108450000D02*
X93650000Y-110775000D01*
X91150000Y-110795000D02*
X91140000Y-110805000D01*
X91150000Y-108500000D02*
X91150000Y-110795000D01*
X111541282Y-115558718D02*
X110750000Y-116350000D01*
X111653718Y-115558718D02*
X111541282Y-115558718D01*
X117115000Y-87500000D02*
X117155000Y-87540000D01*
X115950000Y-87500000D02*
X117115000Y-87500000D01*
X51750000Y-102850000D02*
X51750000Y-102850000D01*
X51750000Y-101500000D02*
X51750000Y-102850000D01*
X117050000Y-87645000D02*
X117155000Y-87540000D01*
X117050000Y-88850000D02*
X117050000Y-87645000D01*
X115430000Y-124300000D02*
X115410000Y-124320000D01*
X116750000Y-124300000D02*
X115430000Y-124300000D01*
X116110000Y-128340000D02*
X116150000Y-128300000D01*
X114990000Y-128340000D02*
X116110000Y-128340000D01*
X110000000Y-125605000D02*
X110140000Y-125465000D01*
X110000000Y-126850000D02*
X110000000Y-125605000D01*
X99800000Y-143550000D02*
X99850000Y-143500000D01*
X97900000Y-143550000D02*
X99800000Y-143550000D01*
X99800000Y-144700000D02*
X99850000Y-144650000D01*
X97950000Y-144700000D02*
X99800000Y-144700000D01*
X97900000Y-144650000D02*
X97950000Y-144700000D01*
X97900000Y-143550000D02*
X97900000Y-144650000D01*
X99700000Y-143550000D02*
X99850000Y-143700000D01*
X97900000Y-143550000D02*
X99700000Y-143550000D01*
X99850000Y-143500000D02*
X99850000Y-143700000D01*
X99850000Y-143700000D02*
X99850000Y-144650000D01*
X97950000Y-144700000D02*
X98600000Y-144050000D01*
X99050000Y-144050000D02*
X99100000Y-144100000D01*
X98600000Y-144050000D02*
X99050000Y-144050000D01*
D42*
X115050000Y-107100000D02*
X114700000Y-106750000D01*
X116000000Y-107100000D02*
X115050000Y-107100000D01*
D38*
X112429302Y-115558718D02*
X111653718Y-115558718D01*
X113395678Y-114592342D02*
X112429302Y-115558718D01*
X116000000Y-108128020D02*
X116000000Y-107100000D01*
X116577658Y-108705678D02*
X116000000Y-108128020D01*
X121479340Y-117850000D02*
X120343002Y-116713662D01*
X121900000Y-117850000D02*
X121479340Y-117850000D01*
X123951376Y-110734060D02*
X124869154Y-109816282D01*
X123617919Y-110734061D02*
X123951376Y-110734060D01*
X122464322Y-111887658D02*
X123617919Y-110734061D01*
X124869154Y-109816282D02*
X126048718Y-109816282D01*
X64400000Y-109880000D02*
X64180000Y-110100000D01*
X64180000Y-110100000D02*
X63350000Y-110100000D01*
X64400000Y-108350000D02*
X64400000Y-109880000D01*
%TD*%
D42*
%TO.N,/+5vDIG*%
G36*
X181373000Y-155932727D02*
G01*
X181271193Y-155842504D01*
X181019858Y-155695648D01*
X180756890Y-155603524D01*
X180527000Y-155724845D01*
X180527000Y-157043000D01*
X180547000Y-157043000D01*
X180547000Y-157297000D01*
X180527000Y-157297000D01*
X180527000Y-157317000D01*
X180273000Y-157317000D01*
X180273000Y-157297000D01*
X178027000Y-157297000D01*
X178027000Y-157317000D01*
X177773000Y-157317000D01*
X177773000Y-157297000D01*
X176573835Y-157297000D01*
X176433680Y-157529267D01*
X176507558Y-157810830D01*
X176537816Y-157873000D01*
X176127000Y-157873000D01*
X176127000Y-156810733D01*
X176433680Y-156810733D01*
X176573835Y-157043000D01*
X177773000Y-157043000D01*
X177773000Y-155724845D01*
X178027000Y-155724845D01*
X178027000Y-157043000D01*
X180273000Y-157043000D01*
X180273000Y-155724845D01*
X180043110Y-155603524D01*
X179780142Y-155695648D01*
X179528807Y-155842504D01*
X179310951Y-156035571D01*
X179150000Y-156247600D01*
X178989049Y-156035571D01*
X178771193Y-155842504D01*
X178519858Y-155695648D01*
X178256890Y-155603524D01*
X178027000Y-155724845D01*
X177773000Y-155724845D01*
X177543110Y-155603524D01*
X177280142Y-155695648D01*
X177028807Y-155842504D01*
X176810951Y-156035571D01*
X176634947Y-156267430D01*
X176507558Y-156529170D01*
X176433680Y-156810733D01*
X176127000Y-156810733D01*
X176127000Y-153127000D01*
X181373000Y-153127000D01*
X181373000Y-155932727D01*
G37*
X181373000Y-155932727D02*
X181271193Y-155842504D01*
X181019858Y-155695648D01*
X180756890Y-155603524D01*
X180527000Y-155724845D01*
X180527000Y-157043000D01*
X180547000Y-157043000D01*
X180547000Y-157297000D01*
X180527000Y-157297000D01*
X180527000Y-157317000D01*
X180273000Y-157317000D01*
X180273000Y-157297000D01*
X178027000Y-157297000D01*
X178027000Y-157317000D01*
X177773000Y-157317000D01*
X177773000Y-157297000D01*
X176573835Y-157297000D01*
X176433680Y-157529267D01*
X176507558Y-157810830D01*
X176537816Y-157873000D01*
X176127000Y-157873000D01*
X176127000Y-156810733D01*
X176433680Y-156810733D01*
X176573835Y-157043000D01*
X177773000Y-157043000D01*
X177773000Y-155724845D01*
X178027000Y-155724845D01*
X178027000Y-157043000D01*
X180273000Y-157043000D01*
X180273000Y-155724845D01*
X180043110Y-155603524D01*
X179780142Y-155695648D01*
X179528807Y-155842504D01*
X179310951Y-156035571D01*
X179150000Y-156247600D01*
X178989049Y-156035571D01*
X178771193Y-155842504D01*
X178519858Y-155695648D01*
X178256890Y-155603524D01*
X178027000Y-155724845D01*
X177773000Y-155724845D01*
X177543110Y-155603524D01*
X177280142Y-155695648D01*
X177028807Y-155842504D01*
X176810951Y-156035571D01*
X176634947Y-156267430D01*
X176507558Y-156529170D01*
X176433680Y-156810733D01*
X176127000Y-156810733D01*
X176127000Y-153127000D01*
X181373000Y-153127000D01*
X181373000Y-155932727D01*
%TO.N,/3.3vDIG*%
G36*
X167973000Y-116873000D02*
G01*
X151727000Y-116873000D01*
X151727000Y-111227000D01*
X167973000Y-111227000D01*
X167973000Y-116873000D01*
G37*
X167973000Y-116873000D02*
X151727000Y-116873000D01*
X151727000Y-111227000D01*
X167973000Y-111227000D01*
X167973000Y-116873000D01*
%TO.N,Net-(FB1-Pad1)*%
G36*
X59673000Y-106823000D02*
G01*
X56082764Y-106823000D01*
X55007981Y-105748217D01*
X55032532Y-105688947D01*
X55070600Y-105497566D01*
X55070600Y-105302434D01*
X55032532Y-105111053D01*
X54957858Y-104930775D01*
X54849449Y-104768529D01*
X54711471Y-104630551D01*
X54549225Y-104522142D01*
X54368947Y-104447468D01*
X54177566Y-104409400D01*
X53982434Y-104409400D01*
X53791053Y-104447468D01*
X53610775Y-104522142D01*
X53448529Y-104630551D01*
X53310551Y-104768529D01*
X53202142Y-104930775D01*
X53127468Y-105111053D01*
X53089400Y-105302434D01*
X53089400Y-105497566D01*
X53127468Y-105688947D01*
X53202142Y-105869225D01*
X53310551Y-106031471D01*
X53448529Y-106169449D01*
X53610775Y-106277858D01*
X53791053Y-106352532D01*
X53982434Y-106390600D01*
X54177566Y-106390600D01*
X54368947Y-106352532D01*
X54428217Y-106327981D01*
X54923236Y-106823000D01*
X46277000Y-106823000D01*
X46277000Y-101026536D01*
X51144930Y-101008705D01*
X51098817Y-101064895D01*
X51026444Y-101200294D01*
X50981877Y-101347212D01*
X50970600Y-101461712D01*
X50970600Y-102110600D01*
X50351711Y-102110600D01*
X50237211Y-102121877D01*
X50090293Y-102166444D01*
X49954894Y-102238817D01*
X49836214Y-102336214D01*
X49738817Y-102454894D01*
X49666444Y-102590293D01*
X49621877Y-102737211D01*
X49606829Y-102890000D01*
X49621877Y-103042789D01*
X49666444Y-103189707D01*
X49738817Y-103325106D01*
X49836214Y-103443786D01*
X49954894Y-103541183D01*
X50090293Y-103613556D01*
X50237211Y-103658123D01*
X50351711Y-103669400D01*
X51044862Y-103669400D01*
X51049702Y-103675298D01*
X51130130Y-103741303D01*
X51221890Y-103790350D01*
X51321455Y-103820553D01*
X51424999Y-103830751D01*
X52075001Y-103830751D01*
X52178545Y-103820553D01*
X52278110Y-103790350D01*
X52369870Y-103741303D01*
X52450298Y-103675298D01*
X52516303Y-103594870D01*
X52565350Y-103503110D01*
X52595553Y-103403545D01*
X52605751Y-103300001D01*
X52605751Y-102399999D01*
X52595553Y-102296455D01*
X52565350Y-102196890D01*
X52529400Y-102129633D01*
X52529400Y-101461711D01*
X52518123Y-101347211D01*
X52473556Y-101200293D01*
X52401183Y-101064894D01*
X52351443Y-101004285D01*
X59673000Y-100977466D01*
X59673000Y-106823000D01*
G37*
X59673000Y-106823000D02*
X56082764Y-106823000D01*
X55007981Y-105748217D01*
X55032532Y-105688947D01*
X55070600Y-105497566D01*
X55070600Y-105302434D01*
X55032532Y-105111053D01*
X54957858Y-104930775D01*
X54849449Y-104768529D01*
X54711471Y-104630551D01*
X54549225Y-104522142D01*
X54368947Y-104447468D01*
X54177566Y-104409400D01*
X53982434Y-104409400D01*
X53791053Y-104447468D01*
X53610775Y-104522142D01*
X53448529Y-104630551D01*
X53310551Y-104768529D01*
X53202142Y-104930775D01*
X53127468Y-105111053D01*
X53089400Y-105302434D01*
X53089400Y-105497566D01*
X53127468Y-105688947D01*
X53202142Y-105869225D01*
X53310551Y-106031471D01*
X53448529Y-106169449D01*
X53610775Y-106277858D01*
X53791053Y-106352532D01*
X53982434Y-106390600D01*
X54177566Y-106390600D01*
X54368947Y-106352532D01*
X54428217Y-106327981D01*
X54923236Y-106823000D01*
X46277000Y-106823000D01*
X46277000Y-101026536D01*
X51144930Y-101008705D01*
X51098817Y-101064895D01*
X51026444Y-101200294D01*
X50981877Y-101347212D01*
X50970600Y-101461712D01*
X50970600Y-102110600D01*
X50351711Y-102110600D01*
X50237211Y-102121877D01*
X50090293Y-102166444D01*
X49954894Y-102238817D01*
X49836214Y-102336214D01*
X49738817Y-102454894D01*
X49666444Y-102590293D01*
X49621877Y-102737211D01*
X49606829Y-102890000D01*
X49621877Y-103042789D01*
X49666444Y-103189707D01*
X49738817Y-103325106D01*
X49836214Y-103443786D01*
X49954894Y-103541183D01*
X50090293Y-103613556D01*
X50237211Y-103658123D01*
X50351711Y-103669400D01*
X51044862Y-103669400D01*
X51049702Y-103675298D01*
X51130130Y-103741303D01*
X51221890Y-103790350D01*
X51321455Y-103820553D01*
X51424999Y-103830751D01*
X52075001Y-103830751D01*
X52178545Y-103820553D01*
X52278110Y-103790350D01*
X52369870Y-103741303D01*
X52450298Y-103675298D01*
X52516303Y-103594870D01*
X52565350Y-103503110D01*
X52595553Y-103403545D01*
X52605751Y-103300001D01*
X52605751Y-102399999D01*
X52595553Y-102296455D01*
X52565350Y-102196890D01*
X52529400Y-102129633D01*
X52529400Y-101461711D01*
X52518123Y-101347211D01*
X52473556Y-101200293D01*
X52401183Y-101064894D01*
X52351443Y-101004285D01*
X59673000Y-100977466D01*
X59673000Y-106823000D01*
%TO.N,/3.3vDIG*%
G36*
X167973000Y-116873000D02*
G01*
X151727000Y-116873000D01*
X151727000Y-111227000D01*
X167973000Y-111227000D01*
X167973000Y-116873000D01*
G37*
X167973000Y-116873000D02*
X151727000Y-116873000D01*
X151727000Y-111227000D01*
X167973000Y-111227000D01*
X167973000Y-116873000D01*
%TD*%
M02*
