EESchema Schematic File Version 4
EELAYER 30 0
EELAYER END
$Descr A4 11693 8268
encoding utf-8
Sheet 1 1
Title "Fuentes_Carga_Electrónica_Programable"
Date "2020-12-01"
Rev "C"
Comp ""
Comment1 "Página 1"
Comment2 "Fuentes Analógicas y Digitales"
Comment3 ""
Comment4 ""
$EndDescr
$Comp
L Connector:Screw_Terminal_01x03 J1
U 1 1 6064B774
P 1350 5900
F 0 "J1" H 1350 5650 50  0000 C CNN
F 1 "15-0-15 AC" V 1450 5900 50  0000 C CNN
F 2 "TerminalBlock_Phoenix:TerminalBlock_Phoenix_MKDS-1,5-3-5.08_1x03_P5.08mm_Horizontal" H 1350 5900 50  0001 C CNN
F 3 "~" H 1350 5900 50  0001 C CNN
	1    1350 5900
	-1   0    0    -1  
$EndComp
$Comp
L Regulator_Linear:LM317_TO-220 U3
U 1 1 606554C2
P 4650 5000
F 0 "U3" H 4650 5242 50  0000 C CNN
F 1 "LM317_TO-220" H 4650 5151 50  0000 C CNN
F 2 "FootPrints:HeatSink_AVVID_534202B03453G" H 4650 5250 50  0001 C CIN
F 3 "http://www.ti.com/lit/ds/symlink/lm317.pdf" H 4650 5000 50  0001 C CNN
	1    4650 5000
	1    0    0    -1  
$EndComp
$Comp
L Device:R R3
U 1 1 60656AD4
P 5250 5250
F 0 "R3" H 5300 5350 50  0000 L CNN
F 1 "200" H 5450 5250 50  0000 R CNN
F 2 "Resistor_SMD:R_0805_2012Metric_Pad1.15x1.40mm_HandSolder" V 5180 5250 50  0001 C CNN
F 3 "~" H 5250 5250 50  0001 C CNN
	1    5250 5250
	1    0    0    -1  
$EndComp
Wire Wire Line
	4650 5300 4650 5500
Wire Wire Line
	4950 5000 5250 5000
Wire Wire Line
	5250 5000 5250 5100
Wire Wire Line
	5250 5400 5250 5500
Connection ~ 4650 5500
Wire Wire Line
	4650 5500 4650 5600
$Comp
L Device:CP C11
U 1 1 60659A98
P 6400 5500
F 0 "C11" H 6518 5546 50  0000 L CNN
F 1 "47u" H 6518 5455 50  0000 L CNN
F 2 "Capacitor_THT:CP_Radial_D5.0mm_P2.00mm" H 6438 5350 50  0001 C CNN
F 3 "~" H 6400 5500 50  0001 C CNN
	1    6400 5500
	1    0    0    -1  
$EndComp
Wire Wire Line
	6400 5000 6400 5350
$Comp
L Device:C C5
U 1 1 6065BF38
P 4150 5500
F 0 "C5" H 4265 5546 50  0000 L CNN
F 1 "100n" H 4265 5455 50  0000 L CNN
F 2 "Capacitor_SMD:C_0805_2012Metric_Pad1.15x1.40mm_HandSolder" H 4188 5350 50  0001 C CNN
F 3 "~" H 4150 5500 50  0001 C CNN
	1    4150 5500
	1    0    0    -1  
$EndComp
Wire Wire Line
	4150 5350 4150 5000
Wire Wire Line
	4150 5000 4350 5000
Wire Wire Line
	4150 5650 4150 5950
Text Notes 6500 5650 0    50   ~ 0
35v\n
Text Notes 4250 5650 0    50   ~ 0
50v
$Comp
L Device:R R4
U 1 1 6066E511
P 5250 6650
F 0 "R4" H 5181 6604 50  0000 R CNN
F 1 "200" H 5181 6695 50  0000 R CNN
F 2 "Resistor_SMD:R_0805_2012Metric_Pad1.15x1.40mm_HandSolder" V 5180 6650 50  0001 C CNN
F 3 "~" H 5250 6650 50  0001 C CNN
	1    5250 6650
	1    0    0    1   
$EndComp
$Comp
L Device:R R2
U 1 1 6066E517
P 4650 6150
F 0 "R2" H 4720 6196 50  0000 L CNN
F 1 "2.21k" H 4720 6105 50  0000 L CNN
F 2 "Resistor_SMD:R_0805_2012Metric_Pad1.15x1.40mm_HandSolder" V 4580 6150 50  0001 C CNN
F 3 "~" H 4650 6150 50  0001 C CNN
	1    4650 6150
	1    0    0    -1  
$EndComp
Wire Wire Line
	4650 6600 4650 6400
Wire Wire Line
	4950 6900 5250 6900
Wire Wire Line
	5250 6900 5250 6800
Wire Wire Line
	5250 6500 5250 6400
Wire Wire Line
	5250 6400 4650 6400
Connection ~ 4650 6400
Wire Wire Line
	4650 6400 4650 6300
$Comp
L Device:CP C12
U 1 1 6066E52B
P 6400 6400
F 0 "C12" H 6518 6446 50  0000 L CNN
F 1 "47u" H 6518 6355 50  0000 L CNN
F 2 "Capacitor_THT:CP_Radial_D5.0mm_P2.00mm" H 6438 6250 50  0001 C CNN
F 3 "~" H 6400 6400 50  0001 C CNN
	1    6400 6400
	1    0    0    -1  
$EndComp
Wire Wire Line
	6400 6900 6400 6550
$Comp
L Device:C C6
U 1 1 6066E539
P 4150 6400
F 0 "C6" H 4265 6446 50  0000 L CNN
F 1 "100n" H 4265 6355 50  0000 L CNN
F 2 "Capacitor_SMD:C_0805_2012Metric_Pad1.15x1.40mm_HandSolder" H 4188 6250 50  0001 C CNN
F 3 "~" H 4150 6400 50  0001 C CNN
	1    4150 6400
	1    0    0    -1  
$EndComp
Wire Wire Line
	4150 6550 4150 6900
Wire Wire Line
	4150 6900 4350 6900
Wire Wire Line
	4150 6250 4150 5950
Text Notes 6500 6550 0    50   ~ 0
35v\n
Text Notes 4250 6550 0    50   ~ 0
50v
Wire Wire Line
	4650 5900 4650 5950
Wire Wire Line
	4650 5950 4150 5950
Wire Wire Line
	6400 5650 6400 5950
Connection ~ 4650 5950
Wire Wire Line
	4650 5950 4650 6000
Connection ~ 4150 5950
Connection ~ 6400 5950
Wire Wire Line
	6400 5950 6400 6250
Wire Wire Line
	6400 5950 6800 5950
$Comp
L Device:R R1
U 1 1 60657A96
P 4650 5750
F 0 "R1" H 4720 5796 50  0000 L CNN
F 1 "2.21k" H 4720 5705 50  0000 L CNN
F 2 "Resistor_SMD:R_0805_2012Metric_Pad1.15x1.40mm_HandSolder" V 4580 5750 50  0001 C CNN
F 3 "~" H 4650 5750 50  0001 C CNN
	1    4650 5750
	1    0    0    -1  
$EndComp
Text Notes 5350 6800 0    50   ~ 0
0.1%\n
Text Notes 5300 5400 0    50   ~ 0
0.1%\n
Text Label 6400 5000 0    50   ~ 0
+15v
Text Label 6400 6900 0    50   ~ 0
-15v
$Comp
L Connector:Conn_01x07_Male J2
U 1 1 6067586A
P 9150 5500
F 0 "J2" H 8950 5500 50  0000 R CNN
F 1 "AnalogPowerRails" V 9050 5800 50  0000 R CNN
F 2 "Connector_JST:JST_EH_B7B-EH-A_1x07_P2.50mm_Vertical" H 9150 5500 50  0001 C CNN
F 3 "~" H 9150 5500 50  0001 C CNN
	1    9150 5500
	-1   0    0    -1  
$EndComp
$Comp
L Device:CP C9
U 1 1 6067A6DE
P 5250 5750
F 0 "C9" H 5368 5796 50  0000 L CNN
F 1 "10u" H 5368 5705 50  0000 L CNN
F 2 "Capacitor_THT:CP_Radial_D5.0mm_P2.00mm" H 5288 5600 50  0001 C CNN
F 3 "~" H 5250 5750 50  0001 C CNN
	1    5250 5750
	1    0    0    -1  
$EndComp
$Comp
L Device:CP C10
U 1 1 6067BA04
P 5250 6150
F 0 "C10" H 5368 6196 50  0000 L CNN
F 1 "10u" H 5368 6105 50  0000 L CNN
F 2 "Capacitor_THT:CP_Radial_D5.0mm_P2.00mm" H 5288 6000 50  0001 C CNN
F 3 "~" H 5250 6150 50  0001 C CNN
	1    5250 6150
	1    0    0    -1  
$EndComp
Wire Wire Line
	5250 6000 5250 5950
Connection ~ 5250 5950
Wire Wire Line
	5250 6300 5250 6400
Connection ~ 5250 6400
Wire Wire Line
	5250 5900 5250 5950
Wire Wire Line
	5250 5600 5250 5500
Connection ~ 5250 5500
Wire Wire Line
	4650 5500 5250 5500
Wire Wire Line
	4650 5950 5250 5950
Text Notes 5350 6300 0    50   ~ 0
35v\n
Text Notes 5350 5900 0    50   ~ 0
35v\n
Wire Wire Line
	1850 5800 1850 5700
Wire Wire Line
	2400 5500 2400 5600
Wire Wire Line
	1550 5900 1900 5900
$Comp
L power:GNDA #PWR01
U 1 1 606861F7
P 1900 6400
F 0 "#PWR01" H 1900 6150 50  0001 C CNN
F 1 "GNDA" H 1905 6227 50  0000 C CNN
F 2 "" H 1900 6400 50  0001 C CNN
F 3 "" H 1900 6400 50  0001 C CNN
	1    1900 6400
	1    0    0    -1  
$EndComp
Connection ~ 4150 5000
Wire Wire Line
	1900 6400 1900 5900
$Comp
L Connector:Screw_Terminal_01x02 J3
U 1 1 606918EA
P 1500 3350
F 0 "J3" H 1500 3100 50  0000 C CNN
F 1 "9-0 AC" V 1600 3300 50  0000 C CNN
F 2 "TerminalBlock_Phoenix:TerminalBlock_Phoenix_MKDS-1,5-2-5.08_1x02_P5.08mm_Horizontal" H 1500 3350 50  0001 C CNN
F 3 "~" H 1500 3350 50  0001 C CNN
	1    1500 3350
	-1   0    0    -1  
$EndComp
$Comp
L power:GNDD #PWR06
U 1 1 60697CE6
P 3850 3700
F 0 "#PWR06" H 3850 3450 50  0001 C CNN
F 1 "GNDD" H 3854 3545 50  0000 C CNN
F 2 "" H 3850 3700 50  0001 C CNN
F 3 "" H 3850 3700 50  0001 C CNN
	1    3850 3700
	1    0    0    -1  
$EndComp
$Comp
L Device:CP C1
U 1 1 6069C3A8
P 3650 5700
F 0 "C1" H 3768 5746 50  0000 L CNN
F 1 "3300u" H 3768 5655 50  0000 L CNN
F 2 "Capacitor_THT:CP_Radial_D18.0mm_P7.50mm" H 3688 5550 50  0001 C CNN
F 3 "~" H 3650 5700 50  0001 C CNN
	1    3650 5700
	1    0    0    -1  
$EndComp
$Comp
L Device:CP C2
U 1 1 6069D282
P 3650 6200
F 0 "C2" H 3532 6246 50  0000 R CNN
F 1 "3300u" H 3532 6155 50  0000 R CNN
F 2 "Capacitor_THT:CP_Radial_D18.0mm_P7.50mm" H 3688 6050 50  0001 C CNN
F 3 "~" H 3650 6200 50  0001 C CNN
	1    3650 6200
	-1   0    0    -1  
$EndComp
Wire Wire Line
	3650 5550 3650 5000
Wire Wire Line
	3650 5000 4150 5000
Wire Wire Line
	3650 6350 3650 6900
Wire Wire Line
	3650 6900 4150 6900
Connection ~ 4150 6900
Wire Wire Line
	3650 5850 3650 5950
Wire Wire Line
	4150 5950 3650 5950
Connection ~ 3650 5950
Wire Wire Line
	3650 5950 3650 6050
Text Notes 3750 5850 0    50   ~ 0
50v\n
Text Notes 3750 6350 0    50   ~ 0
50v\n
$Comp
L Regulator_Linear:LM337_TO220 U4
U 1 1 606AA6D5
P 4650 6900
F 0 "U4" H 4650 6751 50  0000 C CNN
F 1 "LM337_TO220" H 4650 6660 50  0000 C CNN
F 2 "FootPrints:HeatSink_AVVID_534202B03453G" H 4650 6700 50  0001 C CIN
F 3 "http://www.ti.com/lit/ds/symlink/lm337-n.pdf" H 4650 6900 50  0001 C CNN
	1    4650 6900
	1    0    0    -1  
$EndComp
Wire Wire Line
	3250 5000 3650 5000
Connection ~ 3650 5000
Wire Wire Line
	3650 6900 3250 6900
Connection ~ 3650 6900
$Comp
L Device:C C14
U 1 1 606B9334
P 3850 3350
F 0 "C14" H 3965 3396 50  0000 L CNN
F 1 "100n" H 3965 3305 50  0000 L CNN
F 2 "Capacitor_SMD:C_0805_2012Metric_Pad1.15x1.40mm_HandSolder" H 3888 3200 50  0001 C CNN
F 3 "~" H 3850 3350 50  0001 C CNN
	1    3850 3350
	1    0    0    -1  
$EndComp
Wire Wire Line
	4150 3100 3850 3100
Wire Wire Line
	3850 3100 3850 3200
Wire Wire Line
	4450 3400 4450 3700
Wire Wire Line
	4450 3700 3850 3700
$Comp
L Device:CP C15
U 1 1 606BD26B
P 5000 3350
F 0 "C15" H 5118 3396 50  0000 L CNN
F 1 "100u" H 5118 3305 50  0000 L CNN
F 2 "Capacitor_THT:CP_Radial_D6.3mm_P2.50mm" H 5038 3200 50  0001 C CNN
F 3 "~" H 5000 3350 50  0001 C CNN
	1    5000 3350
	1    0    0    -1  
$EndComp
Wire Wire Line
	4750 3100 5000 3100
Wire Wire Line
	5000 3100 5000 3200
Wire Wire Line
	5000 3500 5000 3700
Wire Wire Line
	5000 3700 4450 3700
Connection ~ 4450 3700
Connection ~ 3850 3100
$Comp
L Device:CP C13
U 1 1 60709FC9
P 3250 3350
F 0 "C13" H 3368 3396 50  0000 L CNN
F 1 "3300u" H 3368 3305 50  0000 L CNN
F 2 "Capacitor_THT:CP_Radial_D18.0mm_P7.50mm" H 3288 3200 50  0001 C CNN
F 3 "~" H 3250 3350 50  0001 C CNN
	1    3250 3350
	1    0    0    -1  
$EndComp
Wire Wire Line
	3000 3100 3250 3100
Wire Wire Line
	3250 3100 3250 3200
Wire Wire Line
	3250 3500 3250 3700
Connection ~ 3250 3100
$Comp
L Regulator_Linear:LM7805_TO220 U5
U 1 1 60712DC7
P 4450 3100
F 0 "U5" H 4450 3342 50  0000 C CNN
F 1 "LM7805_TO220" H 4450 3251 50  0000 C CNN
F 2 "FootPrints:HeatSink_AVVID_534202B03453G" H 4450 3325 50  0001 C CIN
F 3 "http://www.fairchildsemi.com/ds/LM/LM7805.pdf" H 4450 3050 50  0001 C CNN
	1    4450 3100
	1    0    0    -1  
$EndComp
Wire Wire Line
	3250 3100 3850 3100
Wire Wire Line
	3250 3700 3850 3700
Connection ~ 3850 3700
Wire Wire Line
	3850 3500 3850 3700
Text Notes 3950 3500 0    50   ~ 0
50v\n
Text Notes 5150 3500 0    50   ~ 0
16v
Text Notes 3400 3500 0    50   ~ 0
50v\n
Text Label 3850 2750 0    50   ~ 0
+12v_FAN
$Comp
L Device:D_Schottky D6
U 1 1 607284F2
P 5700 5300
F 0 "D6" V 5654 5380 50  0000 L CNN
F 1 "VS-10MQ100-M3/5AT" H 5450 5550 50  0000 L CNN
F 2 "Diode_SMD:D_SMA_Handsoldering" H 5700 5300 50  0001 C CNN
F 3 "~" H 5700 5300 50  0001 C CNN
	1    5700 5300
	0    1    1    0   
$EndComp
Wire Wire Line
	5250 5500 5700 5500
Wire Wire Line
	5700 5450 5700 5500
Wire Wire Line
	5250 5000 5700 5000
Wire Wire Line
	5700 5000 5700 5150
Connection ~ 5250 5000
Wire Wire Line
	5700 5000 6400 5000
Connection ~ 5700 5000
$Comp
L Device:D_Schottky D7
U 1 1 6073375F
P 5700 6650
F 0 "D7" V 5654 6730 50  0000 L CNN
F 1 "VS-10MQ100-M3/5AT" H 5100 6900 50  0000 L CNN
F 2 "Diode_SMD:D_SMA_Handsoldering" H 5700 6650 50  0001 C CNN
F 3 "~" H 5700 6650 50  0001 C CNN
	1    5700 6650
	0    1    1    0   
$EndComp
Connection ~ 5250 6900
Wire Wire Line
	5250 5950 6400 5950
Wire Wire Line
	5250 6900 5700 6900
Wire Wire Line
	5700 6800 5700 6900
Connection ~ 5700 6900
Wire Wire Line
	5700 6900 6400 6900
Wire Wire Line
	5700 6500 5700 6400
Wire Wire Line
	5700 6400 5250 6400
$Comp
L Device:D_Schottky D4
U 1 1 60743A78
P 4650 7300
F 0 "D4" V 4604 7380 50  0000 L CNN
F 1 "VS-10MQ100-M3/5AT" H 4050 7550 50  0000 L CNN
F 2 "Diode_SMD:D_SMA_Handsoldering" H 4650 7300 50  0001 C CNN
F 3 "~" H 4650 7300 50  0001 C CNN
	1    4650 7300
	-1   0    0    1   
$EndComp
Wire Wire Line
	4800 7300 5250 7300
Wire Wire Line
	4500 7300 4150 7300
Wire Wire Line
	4150 7300 4150 6900
Wire Wire Line
	5250 6900 5250 7300
$Comp
L Device:D_Schottky D5
U 1 1 6074C6A4
P 4700 4650
F 0 "D5" V 4654 4730 50  0000 L CNN
F 1 "VS-10MQ100-M3/5AT" H 4450 4900 50  0000 L CNN
F 2 "Diode_SMD:D_SMA_Handsoldering" H 4700 4650 50  0001 C CNN
F 3 "~" H 4700 4650 50  0001 C CNN
	1    4700 4650
	1    0    0    -1  
$EndComp
Wire Wire Line
	4850 4650 5250 4650
Wire Wire Line
	5250 4650 5250 5000
Wire Wire Line
	4550 4650 4150 4650
Wire Wire Line
	4150 4650 4150 5000
$Comp
L Device:D_Schottky D9
U 1 1 607532FB
P 4450 2750
F 0 "D9" H 4400 2900 50  0000 L CNN
F 1 "VS-10MQ100-M3/5AT" H 4200 3000 50  0000 L CNN
F 2 "Diode_SMD:D_SMA_Handsoldering" H 4450 2750 50  0001 C CNN
F 3 "~" H 4450 2750 50  0001 C CNN
	1    4450 2750
	1    0    0    -1  
$EndComp
Wire Wire Line
	4600 2750 5000 2750
Wire Wire Line
	5000 2750 5000 3100
Connection ~ 5000 3100
Wire Wire Line
	4300 2750 3850 2750
Wire Wire Line
	3850 2750 3850 3100
Wire Wire Line
	8950 5200 8650 5200
Wire Wire Line
	8950 5300 8650 5300
Wire Wire Line
	8950 5400 8650 5400
Wire Wire Line
	8950 5500 8650 5500
Wire Wire Line
	8950 5600 8650 5600
Text Label 8650 5200 0    50   ~ 0
+15v
Text Label 8650 5300 0    50   ~ 0
+15v
Text Label 8600 5700 0    50   ~ 0
-15v
Text Label 8600 5800 0    50   ~ 0
-15v
$Comp
L Connector:Conn_01x07_Male J4
U 1 1 60779F01
P 7150 3100
F 0 "J4" H 6950 3100 50  0000 R CNN
F 1 "DigitalPowerRails" V 7050 3400 50  0000 R CNN
F 2 "Connector_JST:JST_EH_B7B-EH-A_1x07_P2.50mm_Vertical" H 7150 3100 50  0001 C CNN
F 3 "~" H 7150 3100 50  0001 C CNN
	1    7150 3100
	-1   0    0    -1  
$EndComp
Wire Wire Line
	6950 2800 6650 2800
Wire Wire Line
	6950 2900 6650 2900
Wire Wire Line
	6950 3000 6650 3000
Text Label 6600 3200 0    50   ~ 0
+12v_FAN
Text Label 6600 3300 0    50   ~ 0
+5v_DIG
Wire Wire Line
	8650 5400 8650 5500
Connection ~ 8650 5500
Wire Wire Line
	8650 5500 8650 5600
Wire Wire Line
	8650 5500 8450 5500
Wire Wire Line
	8450 5500 8450 5550
$Comp
L power:GNDA #PWR04
U 1 1 607EB56F
P 8450 5550
F 0 "#PWR04" H 8450 5300 50  0001 C CNN
F 1 "GNDA" H 8455 5377 50  0000 C CNN
F 2 "" H 8450 5550 50  0001 C CNN
F 3 "" H 8450 5550 50  0001 C CNN
	1    8450 5550
	1    0    0    -1  
$EndComp
Wire Wire Line
	6600 3200 6950 3200
Wire Wire Line
	6600 3300 6950 3300
Wire Wire Line
	6600 3400 6950 3400
Wire Wire Line
	6650 2800 6650 2900
Connection ~ 6650 2900
$Comp
L power:GNDD #PWR07
U 1 1 6082D65A
P 6450 3000
F 0 "#PWR07" H 6450 2750 50  0001 C CNN
F 1 "GNDD" H 6454 2845 50  0000 C CNN
F 2 "" H 6450 3000 50  0001 C CNN
F 3 "" H 6450 3000 50  0001 C CNN
	1    6450 3000
	1    0    0    -1  
$EndComp
Wire Wire Line
	5000 3100 5300 3100
Wire Wire Line
	5300 3100 5300 2850
Text Label 5200 2850 0    50   ~ 0
+5v_DIG
Wire Wire Line
	5300 2850 5200 2850
$Comp
L power:PWR_FLAG #FLG0101
U 1 1 6363D491
P 9800 6000
F 0 "#FLG0101" H 9800 6075 50  0001 C CNN
F 1 "PWR_FLAG" H 9800 6173 50  0000 C CNN
F 2 "" H 9800 6000 50  0001 C CNN
F 3 "~" H 9800 6000 50  0001 C CNN
	1    9800 6000
	1    0    0    -1  
$EndComp
Wire Wire Line
	9800 6000 9800 6100
Text Label 9850 6100 0    50   ~ 0
+12v_FAN
Wire Wire Line
	9800 6100 9850 6100
$Comp
L power:GNDA #PWR0101
U 1 1 63685A4A
P 6800 5950
F 0 "#PWR0101" H 6800 5700 50  0001 C CNN
F 1 "GNDA" H 6805 5777 50  0000 C CNN
F 2 "" H 6800 5950 50  0001 C CNN
F 3 "" H 6800 5950 50  0001 C CNN
	1    6800 5950
	1    0    0    -1  
$EndComp
Wire Wire Line
	8600 5800 8950 5800
Wire Wire Line
	8600 5700 8950 5700
$Comp
L power:PWR_FLAG #FLG0109
U 1 1 63699AFF
P 10400 6000
F 0 "#FLG0109" H 10400 6075 50  0001 C CNN
F 1 "PWR_FLAG" H 10400 6173 50  0000 C CNN
F 2 "" H 10400 6000 50  0001 C CNN
F 3 "~" H 10400 6000 50  0001 C CNN
	1    10400 6000
	1    0    0    -1  
$EndComp
Wire Wire Line
	10400 6000 10400 6100
Wire Wire Line
	10400 6100 10450 6100
$Comp
L power:PWR_FLAG #FLG0110
U 1 1 63699B08
P 10900 6000
F 0 "#FLG0110" H 10900 6075 50  0001 C CNN
F 1 "PWR_FLAG" H 10900 6173 50  0000 C CNN
F 2 "" H 10900 6000 50  0001 C CNN
F 3 "~" H 10900 6000 50  0001 C CNN
	1    10900 6000
	1    0    0    -1  
$EndComp
Wire Wire Line
	10900 6000 10900 6100
Wire Wire Line
	10900 6100 10950 6100
$Comp
L power:GNDD #PWR0102
U 1 1 636A2BA4
P 10450 6100
F 0 "#PWR0102" H 10450 5850 50  0001 C CNN
F 1 "GNDD" H 10454 5945 50  0000 C CNN
F 2 "" H 10450 6100 50  0001 C CNN
F 3 "" H 10450 6100 50  0001 C CNN
	1    10450 6100
	1    0    0    -1  
$EndComp
$Comp
L power:GNDA #PWR0103
U 1 1 636A3124
P 10950 6100
F 0 "#PWR0103" H 10950 5850 50  0001 C CNN
F 1 "GNDA" H 10955 5927 50  0000 C CNN
F 2 "" H 10950 6100 50  0001 C CNN
F 3 "" H 10950 6100 50  0001 C CNN
	1    10950 6100
	1    0    0    -1  
$EndComp
$Comp
L power:PWR_FLAG #FLG0111
U 1 1 636A3EEA
P 3250 5000
F 0 "#FLG0111" H 3250 5075 50  0001 C CNN
F 1 "PWR_FLAG" H 3250 5173 50  0000 C CNN
F 2 "" H 3250 5000 50  0001 C CNN
F 3 "~" H 3250 5000 50  0001 C CNN
	1    3250 5000
	1    0    0    -1  
$EndComp
Connection ~ 3250 5000
$Comp
L power:PWR_FLAG #FLG0114
U 1 1 636A56B8
P 3250 6900
F 0 "#FLG0114" H 3250 6975 50  0001 C CNN
F 1 "PWR_FLAG" H 3250 7073 50  0000 C CNN
F 2 "" H 3250 6900 50  0001 C CNN
F 3 "~" H 3250 6900 50  0001 C CNN
	1    3250 6900
	-1   0    0    1   
$EndComp
Wire Wire Line
	1550 5800 1850 5800
Connection ~ 3250 6900
Text Label 6600 3400 0    50   ~ 0
+5v_DIG
Text Label 6600 3100 0    50   ~ 0
+12v_FAN
Wire Wire Line
	6950 3100 6600 3100
Wire Wire Line
	6650 2900 6650 3000
Wire Wire Line
	6450 2900 6650 2900
Wire Wire Line
	6450 2900 6450 3000
$Comp
L Device:LED D2
U 1 1 601AB87A
P 5750 3400
F 0 "D2" V 5789 3282 50  0000 R CNN
F 1 "+5v_DIG" V 5698 3282 50  0000 R CNN
F 2 "LED_SMD:LED_0805_2012Metric_Pad1.15x1.40mm_HandSolder" H 5750 3400 50  0001 C CNN
F 3 "~" H 5750 3400 50  0001 C CNN
	1    5750 3400
	0    -1   -1   0   
$EndComp
$Comp
L Device:R R5
U 1 1 601AC944
P 5750 3000
F 0 "R5" H 5820 3046 50  0000 L CNN
F 1 "300" H 5820 2955 50  0000 L CNN
F 2 "Resistor_SMD:R_0805_2012Metric_Pad1.15x1.40mm_HandSolder" V 5680 3000 50  0001 C CNN
F 3 "~" H 5750 3000 50  0001 C CNN
	1    5750 3000
	1    0    0    -1  
$EndComp
Wire Wire Line
	5750 3150 5750 3250
$Comp
L power:GNDD #PWR0104
U 1 1 601B2A1B
P 5750 3650
F 0 "#PWR0104" H 5750 3400 50  0001 C CNN
F 1 "GNDD" H 5754 3495 50  0000 C CNN
F 2 "" H 5750 3650 50  0001 C CNN
F 3 "" H 5750 3650 50  0001 C CNN
	1    5750 3650
	1    0    0    -1  
$EndComp
Wire Wire Line
	5750 3650 5750 3550
Text Label 5850 2750 0    50   ~ 0
+5v_DIG
Wire Wire Line
	5750 2850 5750 2750
Wire Wire Line
	5750 2750 5850 2750
$Comp
L Device:LED D3
U 1 1 601C4887
P 7150 5650
F 0 "D3" V 7189 5532 50  0000 R CNN
F 1 "+15v" V 7098 5532 50  0000 R CNN
F 2 "LED_SMD:LED_0805_2012Metric_Pad1.15x1.40mm_HandSolder" H 7150 5650 50  0001 C CNN
F 3 "~" H 7150 5650 50  0001 C CNN
	1    7150 5650
	0    -1   -1   0   
$EndComp
$Comp
L Device:R R6
U 1 1 601C488D
P 7150 5250
F 0 "R6" H 7220 5296 50  0000 L CNN
F 1 "1k" H 7220 5205 50  0000 L CNN
F 2 "Resistor_SMD:R_0805_2012Metric_Pad1.15x1.40mm_HandSolder" V 7080 5250 50  0001 C CNN
F 3 "~" H 7150 5250 50  0001 C CNN
	1    7150 5250
	1    0    0    -1  
$EndComp
Wire Wire Line
	7150 5400 7150 5500
Wire Wire Line
	7150 5900 7150 5800
Text Label 7250 5000 0    50   ~ 0
+15v
Wire Wire Line
	7150 5100 7150 5000
Wire Wire Line
	7150 5000 7250 5000
$Comp
L power:GNDA #PWR0105
U 1 1 601C9C7D
P 7150 5900
F 0 "#PWR0105" H 7150 5650 50  0001 C CNN
F 1 "GNDA" H 7155 5727 50  0000 C CNN
F 2 "" H 7150 5900 50  0001 C CNN
F 3 "" H 7150 5900 50  0001 C CNN
	1    7150 5900
	1    0    0    -1  
$EndComp
$Comp
L Device:LED D10
U 1 1 601CAF7E
P 7700 5650
F 0 "D10" V 7647 5532 50  0000 R CNN
F 1 "-15v" V 7738 5532 50  0000 R CNN
F 2 "LED_SMD:LED_0805_2012Metric_Pad1.15x1.40mm_HandSolder" H 7700 5650 50  0001 C CNN
F 3 "~" H 7700 5650 50  0001 C CNN
	1    7700 5650
	0    -1   1    0   
$EndComp
$Comp
L Device:R R7
U 1 1 601CAF84
P 7700 5250
F 0 "R7" H 7770 5296 50  0000 L CNN
F 1 "1k" H 7770 5205 50  0000 L CNN
F 2 "Resistor_SMD:R_0805_2012Metric_Pad1.15x1.40mm_HandSolder" V 7630 5250 50  0001 C CNN
F 3 "~" H 7700 5250 50  0001 C CNN
	1    7700 5250
	1    0    0    -1  
$EndComp
Wire Wire Line
	7700 5400 7700 5500
Wire Wire Line
	7700 5900 7700 5800
Text Label 7800 5000 0    50   ~ 0
-15v
Wire Wire Line
	7700 5100 7700 5000
Wire Wire Line
	7700 5000 7800 5000
$Comp
L power:GNDA #PWR0106
U 1 1 601CAF8F
P 7700 5900
F 0 "#PWR0106" H 7700 5650 50  0001 C CNN
F 1 "GNDA" H 7705 5727 50  0000 C CNN
F 2 "" H 7700 5900 50  0001 C CNN
F 3 "" H 7700 5900 50  0001 C CNN
	1    7700 5900
	1    0    0    -1  
$EndComp
Wire Wire Line
	1700 3350 1700 3250
Wire Wire Line
	1700 3250 1800 3250
Wire Wire Line
	1700 3450 1700 3550
Wire Wire Line
	1700 3550 1800 3550
Wire Wire Line
	3000 3100 3000 3250
Wire Wire Line
	3000 3550 3000 3700
Wire Wire Line
	3000 3700 3250 3700
Connection ~ 3250 3700
$Comp
L UABF1510:UABF1510-13 U1
U 1 1 602732CA
P 3000 3250
F 0 "U1" H 3600 3537 60  0000 C CNN
F 1 "UABF1510-13" H 3600 3431 60  0000 C CNN
F 2 "FootPrints:Diode_Bridge_SOPA-4" H 3600 3390 60  0001 C CNN
F 3 "" H 3000 3250 60  0000 C CNN
	1    3000 3250
	-1   0    0    -1  
$EndComp
$Comp
L UABF1510:UABF1510-13 U2
U 1 1 602B6177
P 3250 5700
F 0 "U2" H 3850 5987 60  0000 C CNN
F 1 "UABF1510-13" H 3850 5881 60  0000 C CNN
F 2 "FootPrints:Diode_Bridge_SOPA-4" H 3850 5840 60  0001 C CNN
F 3 "" H 3250 5700 60  0000 C CNN
	1    3250 5700
	-1   0    0    -1  
$EndComp
Wire Wire Line
	2050 5700 1850 5700
Wire Wire Line
	1550 6000 2050 6000
Wire Wire Line
	3250 6000 3250 6900
Wire Wire Line
	3250 5000 3250 5700
$EndSCHEMATC
