Teclado4x4.c:51:8:highFilas	8	static
Teclado4x4.c:58:6:lowFilas	8	static
Teclado4x4.c:65:5:scanF1	8	static
Teclado4x4.c:88:6:scanF2	8	static
Teclado4x4.c:110:9:scanF3	8	static
Teclado4x4.c:132:9:scanF4	8	static
Teclado4x4.c:161:9:tecladoScan	16	static
Teclado4x4.c:192:6:tecladoDeco	16	static
